Date,State - Total Tests,State - Positive Tests,State - Negative Tests,State - Individuals Tested,State - Individuals Positive,State - Individuals Negative,State - Deaths
2020-03-11,28,2,26,12,2,10,0
2020-03-12,68,2,66,26,2,24,0
2020-03-13,121,6,115,55,6,49,0
2020-03-14,99,3,96,51,2,49,0
2020-03-15,125,1,124,49,1,48,0
2020-03-16,436,19,417,182,20,162,0
2020-03-17,462,23,439,196,22,174,0
2020-03-18,437,27,410,179,26,153,0
2020-03-19,455,30,425,180,28,152,0
2020-03-20,497,27,469,179,26,153,0
2020-03-21,265,16,249,103,15,88,0
2020-03-22,272,19,253,105,18,87,0
2020-03-23,863,54,805,325,52,272,0
2020-03-24,849,58,791,313,56,257,1
2020-03-25,843,70,773,312,65,247,0
2020-03-26,934,67,866,322,64,258,1
2020-03-27,899,71,826,345,69,276,2
2020-03-28,453,41,411,177,40,137,1
2020-03-29,362,39,323,139,36,103,1
2020-03-30,1154,115,1039,442,114,328,1
2020-03-31,1010,81,929,373,78,295,4
2020-04-01,996,89,905,389,83,306,2
2020-04-02,1055,86,969,377,83,294,1
2020-04-03,966,100,865,387,94,293,5
2020-04-04,415,57,358,163,54,109,3
2020-04-05,435,68,364,190,67,122,5
2020-04-06,1293,138,1154,500,131,369,0
2020-04-07,1168,122,1044,443,116,327,2
2020-04-08,1069,117,951,429,112,317,3
2020-04-09,966,123,843,391,114,277,4
2020-04-10,1139,249,889,537,242,295,3
2020-04-11,454,80,372,191,73,118,4
2020-04-12,371,62,309,152,56,96,4
2020-04-13,1219,216,1001,531,200,330,6
2020-04-14,1215,171,1043,475,154,321,3
2020-04-15,1316,191,1124,491,182,309,6
2020-04-16,2106,510,1581,1186,490,688,5
2020-04-17,2214,525,1684,1236,502,732,7
2020-04-18,751,188,562,348,175,173,5
2020-04-19,746,183,562,350,169,181,7
2020-04-20,2392,537,1854,1075,507,568,7
2020-04-21,2481,480,1999,1051,449,602,6
2020-04-22,2297,548,1747,1147,528,619,7
2020-04-23,2510,494,2014,1130,465,665,11
2020-04-24,3480,722,2754,1622,683,937,5
2020-04-25,4736,1338,3363,2881,1280,1595,7
2020-04-26,1242,199,1014,493,161,329,8
2020-04-27,3384,603,2721,1467,561,891,9
2020-04-28,3824,699,3094,1790,658,1124,11
2020-04-29,4082,572,3387,1805,525,1250,13
2020-04-30,4061,490,3518,1802,448,1335,9
2020-05-01,3480,438,2998,1433,398,1028,10
2020-05-02,1242,201,1027,521,174,346,6
2020-05-03,1314,158,1154,466,124,342,14
2020-05-04,3963,654,3276,1848,601,1240,18
2020-05-05,4389,551,3810,2015,513,1495,10
2020-05-06,4310,410,3877,1607,372,1232,9
2020-05-07,3968,405,3517,1610,366,1229,12
2020-05-08,3742,379,3335,1595,340,1244,11
2020-05-09,1632,142,1489,656,121,535,12
2020-05-10,1593,142,1448,616,118,498,17
2020-05-11,5091,487,4527,2020,436,1573,14
2020-05-12,5286,444,4824,2002,406,1593,14
2020-05-13,4641,360,4272,1774,306,1466,13
2020-05-14,4956,404,4528,1699,350,1343,17
2020-05-15,4223,371,3831,1672,314,1351,7
2020-05-16,2114,184,1925,837,148,689,11
2020-05-17,2018,168,1842,797,122,675,11
2020-05-18,7804,860,6859,3062,787,2268,16
2020-05-19,6962,734,6179,2901,635,2261,17
2020-05-20,6247,503,5696,2292,443,1840,13
2020-05-21,5470,596,4835,2068,477,1582,11
2020-05-22,6137,367,5701,2380,308,2060,19
2020-05-23,1526,149,1374,630,119,511,7
2020-05-24,1836,164,1669,728,100,628,20
2020-05-25,1791,115,1672,690,88,602,10
2020-05-26,7663,564,7009,3084,468,2587,11
2020-05-27,7460,484,6942,2712,394,2312,13
2020-05-28,6984,539,6412,2742,438,2296,10
2020-05-29,6557,413,6118,2556,359,2193,12
2020-05-30,2205,158,2044,933,121,812,6
2020-05-31,2218,108,2107,880,76,804,10
2020-06-01,7391,578,6789,3004,476,2522,7
2020-06-02,6967,393,6555,2826,334,2488,12
2020-06-03,6779,466,6292,2684,382,2300,10
2020-06-04,6922,413,6486,2506,341,2159,8
2020-06-05,5977,430,5516,2557,357,2191,10
2020-06-06,2310,113,2189,912,90,822,8
2020-06-07,2127,89,2035,869,56,813,7
2020-06-08,8038,597,7411,3175,477,2691,8
2020-06-09,6962,369,6569,2761,311,2443,3
2020-06-10,6914,396,6483,2618,328,2280,8
2020-06-11,6634,317,6283,2443,266,2173,2
2020-06-12,6926,330,6558,2580,270,2302,5
2020-06-13,2226,96,2128,930,77,852,5
2020-06-14,2186,76,2107,875,55,820,5
2020-06-15,8511,527,7927,3262,442,2810,9
2020-06-16,7778,431,7312,3009,363,2640,4
2020-06-17,7444,437,6951,2798,375,2413,3
2020-06-18,7921,432,7143,2775,344,2373,2
2020-06-19,8353,516,7761,3280,456,2810,6
2020-06-20,2580,119,2454,1150,104,1045,3
2020-06-21,2350,98,2247,990,82,908,0
2020-06-22,10008,640,9236,4120,551,3541,2
2020-06-23,9484,551,8901,3781,486,3288,4
2020-06-24,8636,470,8129,3387,423,2953,0
2020-06-25,9416,542,8819,3582,477,3096,4
2020-06-26,8476,522,7920,3445,451,2984,8
2020-06-27,2994,174,2815,1367,159,1208,2
2020-06-28,3025,187,2832,1345,168,1175,4
2020-06-29,11195,799,10310,4751,697,4038,0
2020-06-30,9835,770,9021,4030,684,3333,1
2020-07-01,9358,643,8665,3749,573,3156,4
2020-07-02,10158,769,9319,4336,683,3637,3
2020-07-03,3815,271,3539,1626,247,1378,9
2020-07-04,1918,122,1795,846,99,747,1
2020-07-05,3190,223,2962,1411,200,1211,3
2020-07-06,12224,875,11276,5482,764,4705,4
2020-07-07,11630,802,10773,4919,722,4181,3
2020-07-08,11388,920,10416,4438,811,3617,4
2020-07-09,10086,867,9174,4160,765,3384,2
2020-07-10,10117,626,9464,4243,558,3682,6
2020-07-11,3761,236,3515,1667,210,1455,6
2020-07-12,3270,217,3049,1482,202,1278,6
2020-07-13,12599,903,11627,5370,781,4575,7
2020-07-14,10999,737,10208,4514,625,3877,4
2020-07-15,10692,747,9886,4352,655,3684,6
2020-07-16,9011,670,8315,3908,556,3345,5
2020-07-17,8728,602,8082,3810,511,3293,7
2020-07-18,3333,178,3143,1563,152,1407,6
2020-07-19,2765,149,2612,1177,132,1045,3
2020-07-20,11955,895,10998,5141,738,4390,9
2020-07-21,10040,706,9284,4182,577,3594,9
2020-07-22,9465,742,8676,3928,583,3340,8
2020-07-23,8766,717,7990,3631,581,3039,7
2020-07-24,9006,661,8300,3849,548,3296,6
2020-07-25,2716,159,2545,1262,133,1126,6
2020-07-26,2626,168,2452,1166,143,1023,5
2020-07-27,10839,861,9911,4865,732,4126,13
2020-07-28,9616,730,8826,4093,585,3498,8
2020-07-29,8552,706,7806,3697,597,3093,6
2020-07-30,7804,737,7034,3463,624,2830,7
2020-07-31,8115,629,7459,3689,538,3145,3
2020-08-01,2605,165,2433,1184,136,1047,6
2020-08-02,2704,143,2553,1140,131,1009,8
2020-08-03,12538,947,11511,5241,829,4403,8
2020-08-04,10750,782,9913,4548,678,3860,9
2020-08-05,9755,647,9055,3885,533,3346,7
2020-08-06,8456,612,7793,3547,521,3016,6
2020-08-07,9419,680,8676,3954,538,3407,11
2020-08-08,3002,209,2786,1294,185,1109,7
2020-08-09,2776,168,2599,1126,155,971,6
2020-08-10,9176,735,8351,3880,645,3224,7
2020-08-11,9256,635,8565,3695,540,3143,10
2020-08-12,11035,823,10101,4629,692,3925,3
2020-08-13,9461,810,8584,3835,679,3151,13
2020-08-14,9747,767,8868,4348,677,3626,10
2020-08-15,3532,222,3284,1654,204,1447,5
2020-08-16,3102,206,2881,1498,181,1316,5
2020-08-17,11179,1146,9951,5321,1017,4292,9
2020-08-18,10631,838,9713,4404,765,3620,9
2020-08-19,9411,855,8494,4226,787,3425,4
2020-08-20,8974,815,8099,3975,736,3220,17
2020-08-21,9258,897,8287,4065,774,3279,11
2020-08-22,3077,311,2758,1514,284,1229,10
2020-08-23,3616,354,3239,1565,322,1238,12
2020-08-24,12489,1551,10827,5925,1435,4467,6
2020-08-25,11528,1333,10094,5077,1223,3845,11
2020-08-26,10527,1346,9045,4604,1233,3352,9
2020-08-27,10240,1309,8804,4884,1199,3665,12
2020-08-28,10678,1306,9323,5062,1188,3858,11
2020-08-29,3396,317,3068,1646,298,1347,12
2020-08-30,3599,293,3302,1594,276,1318,6
2020-08-31,13323,1272,11987,6282,1179,5096,10
2020-09-01,12587,1066,11481,5513,964,4543,10
2020-09-02,13159,1219,11884,5270,1132,4136,5
2020-09-03,13760,1011,12714,4876,924,3950,14
2020-09-04,12880,1018,11797,4788,903,3874,10
2020-09-05,3751,267,3477,1603,239,1363,6
2020-09-06,3809,262,3539,1712,241,1471,8
2020-09-07,3528,285,3236,1407,274,1133,13
2020-09-08,23573,1364,22149,7239,1236,5994,11
2020-09-09,14886,996,13854,5527,900,4623,9
2020-09-10,15273,942,14267,5020,863,4149,10
2020-09-11,16122,1017,15056,5311,908,4398,6
2020-09-12,3984,249,3731,1888,229,1659,4
2020-09-13,3672,275,3392,1577,243,1334,5
2020-09-14,21014,1674,19266,7460,1574,5873,8
2020-09-15,18835,1073,17722,5714,992,4718,4
2020-09-16,13345,1124,12192,5301,1029,4270,8
2020-09-17,16316,1067,15213,4978,983,3990,9
2020-09-18,14497,1129,13331,5290,1028,4254,6
2020-09-19,4459,345,4106,2026,321,1703,9
2020-09-20,3795,302,3487,1676,274,1402,5
2020-09-21,21272,1493,19734,7729,1421,6298,4
2020-09-22,21085,1291,19743,6886,1209,5672,6
2020-09-23,15910,1106,14770,5993,1046,4940,13
2020-09-24,17752,1006,16706,5425,930,4489,11
2020-09-25,15169,1004,14138,5590,943,4645,12
2020-09-26,4040,296,3732,1845,274,1568,12
2020-09-27,3795,266,3524,1628,247,1380,10
2020-09-28,22455,1537,20884,7562,1470,6089,10
2020-09-29,19894,1061,18791,5945,993,4946,11
2020-09-30,15552,1031,14490,5560,962,4593,12
2020-10-01,16785,943,15805,4830,878,3948,14
2020-10-02,14936,951,13936,5365,889,4467,10
2020-10-03,4212,390,3814,2026,355,1669,17
2020-10-04,4075,320,3750,1781,292,1487,9
2020-10-05,25360,1758,23542,8434,1678,6739,17
2020-10-06,23409,1309,22062,7055,1215,5836,7
2020-10-07,16504,1328,15135,6344,1260,5078,22
2020-10-08,19221,1329,17864,5829,1223,4601,16
2020-10-09,16067,1285,14756,6130,1202,4925,23
2020-10-10,4210,405,3797,2095,364,1730,11
2020-10-11,4249,372,3874,1902,347,1555,15
2020-10-12,26541,2013,24481,8488,1940,6540,18
2020-10-13,22967,1430,21501,7235,1330,5901,6
2020-10-14,15472,1356,14093,6141,1262,4875,16
2020-10-15,20802,1324,19458,5887,1239,4645,20
2020-10-16,16126,1228,14858,6276,1129,5143,21
2020-10-17,4413,432,3971,2318,371,1943,20
2020-10-18,4281,368,3905,1959,335,1621,11
2020-10-19,28057,2088,25859,8835,1990,6832,20
2020-10-20,22688,1497,21118,7162,1420,5736,27
2020-10-21,16604,1692,14870,6784,1592,5187,17
2020-10-22,21505,1811,19661,6622,1696,4919,24
2020-10-23,17025,1695,15284,6700,1569,5124,17
2020-10-24,4876,688,4178,2529,635,1892,14
2020-10-25,5525,595,4919,2354,554,1800,15
2020-10-26,30910,3306,27516,10150,3181,6958,14
2020-10-27,26043,2685,23298,8844,2526,6307,12
2020-10-28,20063,2803,17209,8818,2644,6164,21
2020-10-29,27189,3161,23969,9246,3033,6199,22
2020-10-30,21688,3011,18633,9180,2836,6336,22
2020-10-31,6406,1204,5190,3311,1142,2168,24
2020-11-01,7283,1242,6020,3280,1163,2114,32
2020-11-02,37545,5569,31913,14085,5380,8694,39
2020-11-03,32558,5087,27390,13215,4927,8264,28
2020-11-04,25660,5213,20382,12966,5025,7928,30
2020-11-05,35379,5466,29825,13641,5243,8376,54
2020-11-06,29186,5129,23908,13534,4878,8630,39
2020-11-07,8879,2183,6681,5325,2096,3227,33
2020-11-08,10137,2096,7998,4831,1880,2943,47
2020-11-09,45828,7840,37922,19229,7537,11670,36
2020-11-10,34285,5755,28450,15482,5495,9969,44
2020-11-11,22843,4650,18146,12456,4477,7971,40
2020-11-12,41764,5700,35980,16403,5433,10945,62
2020-11-13,31214,4603,26534,14605,4315,10274,37
2020-11-14,8863,1681,7147,5056,1567,3472,39
2020-11-15,8314,1542,6727,4687,1353,3322,50
2020-11-16,46976,6374,40521,19192,6165,13015,49
2020-11-17,35675,5005,30558,16280,4686,11573,60
2020-11-18,26746,4368,22275,14905,4129,10760,60
2020-11-19,39277,4099,35069,14900,3873,11002,73
2020-11-20,31173,3785,27301,13954,3536,10402,61
2020-11-21,9457,1404,8027,5276,1299,3969,60
2020-11-22,8698,1248,7413,4279,1122,3148,50
2020-11-23,44940,4637,40111,16434,4390,12009,61
2020-11-24,28403,3230,25027,12170,3012,9124,38
2020-11-25,28546,2902,25578,10157,2715,7428,62
2020-11-26,5117,472,4614,1525,350,1167,62
2020-11-27,23167,2677,20415,8363,2519,5827,59
2020-11-28,7169,1195,5959,3565,1104,2459,61
2020-11-29,6780,1044,5616,3501,883,2570,53
2020-11-30,38839,4354,34320,13981,4129,9822,70
2020-12-01,27380,3068,24199,11350,2866,8462,61
2020-12-02,18685,2459,16146,9891,2309,7571,53
2020-12-03,29971,2409,27500,9457,2256,7192,57
2020-12-04,23153,2138,20959,9177,1981,7187,53
2020-12-05,6318,895,5409,3522,821,2700,54
2020-12-06,5930,693,5223,3159,609,2547,50
2020-12-07,36431,3195,33172,12580,2968,9598,46
2020-12-08,25274,2192,23019,9782,2035,7734,52
2020-12-09,16246,1867,14308,8504,1751,6744,45
2020-12-10,28635,1967,26606,8697,1838,6846,35
2020-12-11,20564,1732,18699,8313,1609,6688,40
2020-12-12,5279,567,4701,2870,516,2351,43
2020-12-13,5598,599,4972,3030,555,2473,33
2020-12-14,33757,2755,30869,11742,2606,9124,36
2020-12-15,23625,1867,21682,9441,1745,7683,26
2020-12-16,16344,1791,14490,8601,1660,6929,43
2020-12-17,28345,1681,26619,8605,1580,7016,34
2020-12-18,21117,1572,19501,9370,1471,7889,21
2020-12-19,6097,645,5438,3391,613,2776,26
2020-12-20,6226,609,5584,3433,543,2879,13
2020-12-21,37749,2583,35081,12175,2452,9713,26
2020-12-22,19333,1734,17560,9358,1590,7755,28
2020-12-23,21612,1417,20163,8281,1322,6951,19
2020-12-24,17195,1009,16169,4866,924,3938,23
2020-12-25,2586,177,2408,871,155,716,22
2020-12-26,7123,978,6135,4278,926,3349,16
2020-12-27,6451,730,5707,3355,632,2722,17
2020-12-28,34971,2856,32025,11493,2707,8774,12
2020-12-29,13740,1452,12272,6112,1364,4744,3
2020-12-30,19405,1960,17413,8117,1869,6241,8
2020-12-31,22281,1664,20602,7149,1571,5578,5
2021-01-01,4217,375,3838,1593,344,1247,3
2021-01-02,6959,1076,5876,4195,1025,3167,9
2021-01-03,6409,812,5572,3848,711,3130,6
2021-01-04,35803,3443,32255,14385,3301,11071,4
2021-01-05,21558,2138,19349,10137,2000,8122,3
2021-01-06,15776,1872,13837,9006,1770,7230,6
2021-01-07,25688,1621,24025,9086,1545,7533,5
2021-01-08,19550,1673,17765,10282,1585,8679,4
2021-01-09,5816,585,5224,3686,530,3155,5
2021-01-10,5339,592,4738,3430,529,2897,5
2021-01-11,33634,2453,31077,13483,2306,11162,1
2021-01-12,20359,1508,18797,10340,1396,8935,2
2021-01-13,15175,1419,13705,9533,1312,8210,2
2021-01-14,24932,1354,23543,9909,1257,8647,1
2021-01-15,12734,838,11866,6522,795,5716,0
2021-01-16,5743,616,5115,3946,573,3372,1
2021-01-17,5385,461,4873,3785,391,3385,0
2021-01-18,27396,1570,25744,15494,1513,13967,1
2021-01-19,22453,1671,20719,16544,1550,14980,1
2021-01-20,13522,1160,12333,11454,1084,10368,0
2021-01-21,19251,980,18251,16890,922,15965,0
2021-01-22,6946,243,6703,6193,234,5959,0
2021-01-23,21,3,18,21,3,18,0
