Date,State - Total Tests,State - Positive Tests,State - Negative Tests,State - Individuals Tested,State - Individuals Positive,State - Individuals Negative,State - Deaths
2020-03-11,28,2,26,14,2,12,0
2020-03-12,69,3,66,30,2,28,0
2020-03-13,121,6,115,60,6,54,0
2020-03-14,99,3,96,54,2,52,0
2020-03-15,125,1,124,52,1,51,0
2020-03-16,436,19,417,207,20,187,0
2020-03-17,461,23,438,214,22,192,0
2020-03-18,437,27,410,198,26,172,0
2020-03-19,455,30,425,204,28,176,0
2020-03-20,497,27,469,202,26,176,0
2020-03-21,264,16,248,115,15,100,0
2020-03-22,272,19,253,116,18,98,0
2020-03-23,862,53,805,351,52,298,0
2020-03-24,849,58,791,346,56,290,1
2020-03-25,843,70,773,346,65,281,0
2020-03-26,934,67,866,367,64,303,1
2020-03-27,899,71,826,380,69,311,2
2020-03-28,453,41,411,197,40,157,1
2020-03-29,362,39,323,151,36,115,1
2020-03-30,1154,115,1039,484,114,370,1
2020-03-31,1010,81,929,419,78,341,4
2020-04-01,996,89,905,423,83,340,2
2020-04-02,1055,86,969,421,83,338,1
2020-04-03,966,100,865,414,95,319,5
2020-04-04,415,57,358,183,55,128,3
2020-04-05,435,68,364,202,67,134,5
2020-04-06,1293,138,1154,566,131,435,0
2020-04-07,1167,122,1043,490,116,373,2
2020-04-08,1069,117,951,460,112,348,3
2020-04-09,966,123,843,418,114,304,5
2020-04-10,1139,249,889,566,242,324,3
2020-04-11,454,80,372,205,73,132,4
2020-04-12,371,62,309,165,56,109,4
2020-04-13,1219,216,1001,567,200,366,6
2020-04-14,1215,171,1043,517,154,363,3
2020-04-15,1316,191,1124,535,183,352,6
2020-04-16,2106,509,1582,1254,490,756,5
2020-04-17,2214,525,1684,1285,502,781,7
2020-04-18,751,188,562,371,176,195,5
2020-04-19,746,183,562,370,169,201,8
2020-04-20,2389,537,1851,1149,509,640,7
2020-04-21,2481,480,1999,1123,449,674,6
2020-04-22,2297,548,1747,1219,532,687,7
2020-04-23,2510,494,2014,1227,468,759,11
2020-04-24,3472,722,2746,1756,685,1069,5
2020-04-25,4731,1336,3360,3041,1278,1757,7
2020-04-26,1241,199,1013,536,161,372,8
2020-04-27,3381,603,2719,1594,562,1016,9
2020-04-28,3811,698,3083,1942,661,1273,11
2020-04-29,4065,572,3370,2003,526,1445,13
2020-04-30,4043,490,3500,1943,448,1476,9
2020-05-01,3437,438,2958,1557,398,1152,11
2020-05-02,1237,201,1022,567,174,392,6
2020-05-03,1314,158,1154,511,126,385,14
2020-05-04,3918,653,3232,1975,602,1365,18
2020-05-05,4330,550,3757,2142,512,1623,10
2020-05-06,4278,410,3846,1755,373,1379,9
2020-05-07,3923,405,3475,1751,367,1366,12
2020-05-08,3691,377,3289,1713,340,1362,11
2020-05-09,1629,141,1487,706,120,586,13
2020-05-10,1592,142,1447,687,118,569,17
2020-05-11,5054,486,4494,2218,439,1767,14
2020-05-12,5258,444,4796,2198,407,1788,13
2020-05-13,4596,360,4227,1965,307,1656,13
2020-05-14,4941,404,4513,1882,351,1525,17
2020-05-15,4196,371,3805,1821,315,1499,7
2020-05-16,2112,184,1923,937,150,787,11
2020-05-17,2015,168,1840,863,122,741,11
2020-05-18,7762,861,6816,3400,790,2602,16
2020-05-19,6935,734,6151,3194,644,2544,17
2020-05-20,6222,503,5671,2553,447,2096,13
2020-05-21,5439,596,4805,2330,480,1841,11
2020-05-22,6083,367,5647,2628,308,2307,19
2020-05-23,1508,149,1356,699,119,580,7
2020-05-24,1828,164,1661,803,101,702,20
2020-05-25,1770,114,1652,766,87,679,10
2020-05-26,7634,564,6979,3393,468,2891,11
2020-05-27,7410,484,6893,3038,396,2634,13
2020-05-28,6944,539,6372,3072,439,2624,10
2020-05-29,6500,413,6061,2870,359,2507,12
2020-05-30,2187,158,2026,1018,122,896,6
2020-05-31,2205,108,2094,992,76,916,10
2020-06-01,7342,578,6740,3312,481,2823,7
2020-06-02,6914,393,6502,3163,334,2825,12
2020-06-03,6759,467,6273,3011,383,2625,10
2020-06-04,6895,413,6459,2825,341,2478,8
2020-06-05,5957,430,5496,2818,358,2451,10
2020-06-06,2297,113,2176,1010,90,920,8
2020-06-07,2126,89,2034,978,57,921,7
2020-06-08,8011,597,7384,3538,479,3051,8
2020-06-09,6937,369,6544,3096,316,2772,3
2020-06-10,6896,396,6465,2945,328,2607,8
2020-06-11,6609,317,6258,2719,268,2446,2
2020-06-12,6898,330,6530,2903,271,2623,5
2020-06-13,2213,96,2116,1019,77,941,5
2020-06-14,2180,76,2101,982,57,925,5
2020-06-15,8473,527,7890,3687,444,3233,9
2020-06-16,7744,431,7278,3365,364,2993,4
2020-06-17,7423,437,6930,3172,375,2787,3
2020-06-18,7849,432,7074,3118,345,2707,2
2020-06-19,8320,515,7729,3637,456,3164,6
2020-06-20,2570,119,2444,1290,105,1184,3
2020-06-21,2346,98,2243,1131,82,1049,0
2020-06-22,9965,640,9194,4605,557,4019,2
2020-06-23,9442,551,8859,4249,488,3753,4
2020-06-24,8593,470,8086,3801,425,3364,0
2020-06-25,9360,541,8764,3986,477,3499,4
2020-06-26,8453,522,7897,3862,452,3400,8
2020-06-27,2980,174,2801,1512,159,1353,2
2020-06-28,3012,187,2819,1483,169,1312,4
2020-06-29,11153,799,10270,5273,700,4556,0
2020-06-30,9785,770,8971,4470,688,3768,1
2020-07-01,9313,643,8620,4196,575,3601,4
2020-07-02,10070,769,9231,4799,683,4097,3
2020-07-03,3802,272,3525,1792,247,1544,9
2020-07-04,1909,122,1786,945,99,846,1
2020-07-05,3184,223,2956,1570,201,1369,3
2020-07-06,12182,875,11235,6089,766,5310,4
2020-07-07,11584,802,10730,5484,727,4742,3
2020-07-08,11328,919,10358,4967,810,4145,4
2020-07-09,10049,867,9138,4665,767,3886,2
2020-07-10,10071,626,9419,4773,560,4208,6
2020-07-11,3742,236,3496,1889,211,1676,6
2020-07-12,3263,217,3042,1656,202,1452,6
2020-07-13,12516,903,11544,6044,782,5247,7
2020-07-14,10953,737,10162,5090,626,4452,4
2020-07-15,10647,746,9842,4901,658,4229,6
2020-07-16,8975,670,8279,4396,556,3833,4
2020-07-17,8705,602,8059,4291,512,3771,7
2020-07-18,3318,178,3128,1754,152,1598,6
2020-07-19,2755,149,2602,1316,133,1183,3
2020-07-20,11904,895,10947,5741,741,4987,8
2020-07-21,10006,706,9251,4744,581,4152,9
2020-07-22,9420,742,8632,4425,586,3834,8
2020-07-23,8722,715,7949,4074,584,3475,7
2020-07-24,8964,661,8258,4338,550,3782,6
2020-07-25,2698,159,2527,1424,133,1288,6
2020-07-26,2606,168,2432,1304,144,1160,5
2020-07-27,10755,861,9828,5434,733,4692,13
2020-07-28,9564,730,8774,4627,586,4029,8
2020-07-29,8521,706,7775,4160,599,3553,6
2020-07-30,7763,737,6993,3853,626,3218,7
2020-07-31,8085,628,7430,4140,537,3597,3
2020-08-01,2597,165,2425,1306,136,1169,6
2020-08-02,2695,143,2544,1280,131,1149,9
2020-08-03,12502,946,11477,5946,831,5105,8
2020-08-04,10714,781,9878,5133,680,4443,9
2020-08-05,9703,646,9004,4500,533,3960,7
2020-08-06,8401,612,7738,4052,523,3518,6
2020-08-07,9373,680,8630,4508,538,3960,11
2020-08-08,2989,209,2773,1463,185,1278,7
2020-08-09,2767,168,2590,1286,156,1128,6
2020-08-10,9138,735,8313,4403,645,3746,7
2020-08-11,9173,635,8482,4269,543,3711,10
2020-08-12,10975,823,10041,5306,692,4600,3
2020-08-13,9434,810,8557,4363,684,3673,13
2020-08-14,9697,767,8818,4930,679,4205,10
2020-08-15,3514,222,3266,1857,207,1647,5
2020-08-16,3086,206,2865,1697,184,1512,5
2020-08-17,11083,1147,9855,5993,1019,4955,9
2020-08-18,10559,839,9640,5015,770,4226,9
2020-08-19,9368,854,8452,4821,791,4016,4
2020-08-20,8936,815,8061,4575,737,3816,17
2020-08-21,9215,897,8244,4649,782,3852,11
2020-08-22,3069,311,2750,1752,286,1465,10
2020-08-23,3609,355,3231,1816,324,1487,12
2020-08-24,12395,1550,10736,6676,1446,5205,6
2020-08-25,11475,1333,10041,5747,1231,4503,11
2020-08-26,10453,1346,8971,5167,1246,3901,9
2020-08-27,10217,1309,8781,5462,1207,4233,12
2020-08-28,10626,1306,9271,5682,1195,4470,11
2020-08-29,3382,317,3054,1856,299,1556,12
2020-08-30,3575,293,3278,1797,280,1517,6
2020-08-31,13225,1270,11892,7134,1184,5943,10
2020-09-01,12523,1066,11418,6259,965,5287,10
2020-09-02,12992,1218,11720,5996,1144,4849,5
2020-09-03,13532,1010,12488,5522,928,4591,13
2020-09-04,12711,1018,11628,5391,910,4467,10
2020-09-05,3718,267,3444,1821,240,1580,6
2020-09-06,3795,262,3525,1954,243,1711,8
2020-09-07,3487,285,3195,1599,274,1325,13
2020-09-08,23277,1364,21853,8218,1239,6969,11
2020-09-09,14738,996,13706,6358,902,5452,9
2020-09-10,14933,942,13928,5652,864,4777,10
2020-09-11,15926,1016,14863,6082,912,5165,6
2020-09-12,3958,249,3705,2165,229,1936,4
2020-09-13,3655,275,3375,1834,244,1590,4
2020-09-14,20699,1674,18951,8404,1586,6805,8
2020-09-15,18511,1072,17399,6568,996,5568,4
2020-09-16,13076,1123,11925,5910,1033,4875,8
2020-09-17,16065,1065,14964,5659,986,4665,9
2020-09-18,14272,1126,13109,6026,1030,4988,6
2020-09-19,4427,344,4075,2314,320,1992,9
2020-09-20,3757,300,3451,1891,275,1616,5
2020-09-21,21009,1492,19472,8795,1426,7359,4
2020-09-22,20701,1290,19359,7885,1212,6668,6
2020-09-23,15709,1106,14569,6849,1047,5794,13
2020-09-24,17430,1001,16389,6181,927,5248,10
2020-09-25,15016,1001,13988,6434,944,5488,12
2020-09-26,4007,296,3700,2098,279,1816,12
2020-09-27,3744,266,3473,1882,247,1634,10
2020-09-28,22082,1536,20513,8618,1475,7141,10
2020-09-29,19588,1054,18493,6838,993,5837,11
2020-09-30,15304,1029,14244,6357,962,5390,12
2020-10-01,16456,940,15479,5570,875,4691,14
2020-10-02,14622,949,13624,6174,887,5278,7
2020-10-03,4176,390,3778,2296,356,1938,16
2020-10-04,4043,319,3719,2069,291,1776,9
2020-10-05,24815,1755,23000,9678,1680,7981,16
2020-10-06,23109,1306,21764,8124,1216,6904,5
2020-10-07,16353,1328,14985,7365,1259,6099,18
2020-10-08,18579,1329,17222,6669,1225,5439,15
2020-10-09,15870,1284,14560,7008,1206,5798,21
2020-10-10,4180,405,3768,2419,364,2054,10
2020-10-11,4116,348,3765,2128,323,1805,14
2020-10-12,25872,2008,23817,9701,1940,7751,15
2020-10-13,22617,1428,21153,8239,1328,6907,5
2020-10-14,15302,1352,13927,7055,1262,5789,14
2020-10-15,20188,1322,18846,6727,1239,5485,19
2020-10-16,15833,1226,14567,7205,1128,6072,21
2020-10-17,4381,432,3939,2667,373,2290,20
2020-10-18,4221,368,3845,2236,336,1897,11
2020-10-19,27268,2082,25076,10194,1983,8198,19
2020-10-20,22412,1493,20846,8255,1419,6830,26
2020-10-21,16295,1692,14562,7832,1594,6233,14
2020-10-22,20809,1801,18976,7563,1687,5869,18
2020-10-23,16775,1685,15042,7749,1561,6180,14
2020-10-24,4850,688,4152,2915,642,2271,11
2020-10-25,5426,594,4822,2701,552,2149,15
2020-10-26,30143,3296,26759,11508,3171,8326,13
2020-10-27,25739,2680,23000,10190,2522,7655,11
2020-10-28,19831,2794,16984,10212,2637,7564,21
2020-10-29,26351,3151,23135,10524,3023,7486,22
2020-10-30,21240,3000,18196,10451,2833,7610,21
2020-10-31,6347,1203,5132,3735,1140,2594,24
2020-11-01,7154,1243,5891,3710,1161,2546,31
2020-11-02,36542,5548,30932,15892,5364,10513,38
2020-11-03,32171,5073,27016,14926,4912,9989,26
2020-11-04,25299,5192,20042,14600,5005,9581,29
2020-11-05,34193,5395,28713,15396,5172,10200,49
2020-11-06,28505,5031,23323,15229,4782,10418,40
2020-11-07,8736,2108,6612,5862,2022,3838,32
2020-11-08,9967,2044,7879,5382,1829,3545,45
2020-11-09,44345,7643,36636,21605,7341,14242,33
2020-11-10,33191,5662,27452,17385,5402,11962,43
2020-11-11,22328,4572,17710,14024,4403,9612,38
2020-11-12,40272,5586,34604,18618,5324,13267,58
2020-11-13,30301,4543,25682,16873,4254,12602,27
2020-11-14,8767,1634,7099,5730,1502,4211,34
2020-11-15,8194,1506,6643,5419,1320,4083,43
2020-11-16,45003,6230,38694,22017,5998,16005,44
2020-11-17,34682,4938,29631,18951,4621,14307,50
2020-11-18,26185,4302,21778,17448,4065,13363,39
2020-11-19,37874,4051,33718,17534,3830,13674,55
2020-11-20,30109,3728,26296,16881,3480,13382,41
2020-11-21,9347,1377,7944,6330,1274,5046,47
2020-11-22,8493,1224,7232,5158,1100,4048,30
2020-11-23,43284,4512,38589,20393,4268,16089,35
2020-11-24,27104,3155,23804,14991,2943,12008,21
2020-11-25,27415,2849,24501,12837,2666,10157,27
2020-11-26,4866,459,4376,2088,339,1740,18
2020-11-27,22021,2626,19319,10536,2474,8043,8
2020-11-28,6962,1175,5772,4288,1086,3197,11
2020-11-29,6622,1020,5482,4364,863,3439,7
2020-11-30,36995,4288,32548,19346,4063,15245,4
2020-12-01,25704,3009,22587,17115,2813,14271,5
2020-12-02,17889,2392,15417,14398,2249,12132,8
2020-12-03,27876,2326,25489,19286,2181,17084,3
2020-12-04,20592,1985,18567,17284,1854,15415,2
2020-12-05,4766,669,4089,4267,622,3641,1
2020-12-06,3736,423,3308,3365,393,2969,2
2020-12-07,14977,807,14153,13948,776,13160,0
2020-12-08,443,27,416,422,23,399,0
