Date,State - Total Tests,State - Positive Tests,State - Negative Tests,State - Individuals Tested,State - Individuals Positive,State - Individuals Negative,State - Deaths
2020-03-11,28,2,26,14,2,12,0
2020-03-12,69,3,66,30,2,28,0
2020-03-13,121,6,115,60,6,54,0
2020-03-14,99,3,96,54,2,52,0
2020-03-15,125,1,124,51,1,50,0
2020-03-16,436,19,417,205,20,185,0
2020-03-17,461,23,438,209,22,187,0
2020-03-18,437,27,410,196,26,170,0
2020-03-19,455,30,425,202,28,174,0
2020-03-20,497,27,469,201,26,175,0
2020-03-21,264,16,248,112,15,97,0
2020-03-22,272,19,253,112,18,94,0
2020-03-23,863,54,805,350,53,296,0
2020-03-24,849,58,791,344,56,288,1
2020-03-25,843,70,773,341,65,276,0
2020-03-26,934,67,866,365,64,301,1
2020-03-27,899,71,826,377,69,308,2
2020-03-28,453,41,411,197,40,157,1
2020-03-29,362,39,323,150,36,114,1
2020-03-30,1154,115,1039,478,114,364,1
2020-03-31,1010,81,929,414,78,336,4
2020-04-01,996,89,905,421,83,338,2
2020-04-02,1055,86,969,417,83,334,1
2020-04-03,966,100,865,412,95,317,5
2020-04-04,415,57,358,182,55,127,3
2020-04-05,435,68,364,202,67,134,5
2020-04-06,1293,138,1154,558,131,427,0
2020-04-07,1167,122,1043,484,116,367,2
2020-04-08,1069,117,951,456,112,344,3
2020-04-09,966,123,843,416,114,302,5
2020-04-10,1139,249,889,564,242,322,3
2020-04-11,454,80,372,205,73,132,4
2020-04-12,371,62,309,165,56,109,4
2020-04-13,1219,216,1001,564,200,363,6
2020-04-14,1215,171,1043,514,154,360,3
2020-04-15,1316,191,1124,531,182,349,6
2020-04-16,2106,510,1581,1250,490,752,5
2020-04-17,2214,525,1684,1284,502,780,7
2020-04-18,751,188,562,366,176,190,5
2020-04-19,746,183,562,369,169,200,8
2020-04-20,2389,537,1851,1137,508,629,7
2020-04-21,2481,480,1999,1116,449,667,6
2020-04-22,2297,548,1747,1213,532,681,7
2020-04-23,2510,494,2014,1219,468,751,11
2020-04-24,3472,722,2746,1744,685,1057,5
2020-04-25,4731,1336,3360,3033,1278,1749,7
2020-04-26,1241,199,1013,531,161,367,8
2020-04-27,3381,603,2719,1578,562,1001,9
2020-04-28,3812,699,3083,1929,661,1260,11
2020-04-29,4065,572,3370,1989,526,1431,13
2020-04-30,4044,490,3501,1932,448,1465,9
2020-05-01,3437,438,2957,1545,398,1140,11
2020-05-02,1237,201,1022,562,174,387,6
2020-05-03,1314,158,1154,505,125,380,14
2020-05-04,3918,653,3232,1963,602,1353,18
2020-05-05,4331,550,3758,2131,512,1612,10
2020-05-06,4280,410,3848,1739,373,1363,9
2020-05-07,3923,405,3475,1727,367,1342,12
2020-05-08,3693,379,3289,1699,342,1346,11
2020-05-09,1629,141,1487,701,120,581,13
2020-05-10,1592,142,1447,685,118,567,17
2020-05-11,5055,487,4492,2197,439,1746,14
2020-05-12,5258,444,4796,2175,407,1765,13
2020-05-13,4598,360,4229,1943,307,1634,13
2020-05-14,4941,404,4513,1871,351,1514,17
2020-05-15,4196,371,3805,1803,315,1481,7
2020-05-16,2112,184,1923,930,150,780,11
2020-05-17,2015,168,1839,855,122,733,11
2020-05-18,7763,861,6817,3381,790,2583,16
2020-05-19,6935,734,6151,3168,644,2518,17
2020-05-20,6222,503,5671,2526,447,2070,13
2020-05-21,5439,596,4805,2302,480,1813,11
2020-05-22,6085,367,5649,2612,308,2291,19
2020-05-23,1508,149,1356,691,119,572,7
2020-05-24,1828,164,1661,796,101,695,20
2020-05-25,1771,115,1652,764,88,676,10
2020-05-26,7634,565,6978,3365,468,2863,11
2020-05-27,7410,484,6893,3009,396,2605,13
2020-05-28,6944,539,6372,3044,438,2597,10
2020-05-29,6501,413,6062,2844,359,2481,12
2020-05-30,2187,158,2026,1010,122,888,6
2020-05-31,2205,108,2094,983,76,907,10
2020-06-01,7343,578,6741,3273,480,2785,7
2020-06-02,6916,393,6504,3129,334,2791,12
2020-06-03,6759,467,6273,2972,383,2586,10
2020-06-04,6895,413,6459,2739,341,2392,8
2020-06-05,5957,430,5496,2790,358,2423,10
2020-06-06,2297,113,2176,1005,90,915,8
2020-06-07,2126,89,2034,970,57,913,7
2020-06-08,8013,597,7386,3495,479,3008,8
2020-06-09,6937,369,6544,3058,316,2734,3
2020-06-10,6896,396,6465,2907,328,2569,8
2020-06-11,6610,317,6259,2689,268,2416,2
2020-06-12,6898,330,6530,2865,271,2585,5
2020-06-13,2213,96,2116,1014,77,936,5
2020-06-14,2180,76,2101,969,57,912,5
2020-06-15,8473,527,7890,3639,444,3185,9
2020-06-16,7748,431,7282,3318,364,2947,4
2020-06-17,7423,437,6931,3132,375,2747,3
2020-06-18,7853,432,7078,3085,345,2674,2
2020-06-19,8321,516,7729,3617,457,3143,6
2020-06-20,2570,119,2444,1281,104,1176,3
2020-06-21,2346,98,2243,1118,82,1036,0
2020-06-22,9966,640,9195,4557,557,3971,2
2020-06-23,9443,551,8860,4203,488,3707,4
2020-06-24,8594,470,8087,3750,425,3313,0
2020-06-25,9363,542,8766,3950,478,3462,4
2020-06-26,8455,522,7899,3823,452,3361,8
2020-06-27,2980,174,2801,1504,159,1345,2
2020-06-28,3012,187,2819,1471,169,1300,4
2020-06-29,11153,799,10270,5226,699,4510,0
2020-06-30,9785,770,8971,4432,688,3730,1
2020-07-01,9313,643,8620,4155,575,3560,4
2020-07-02,10070,769,9231,4745,683,4043,3
2020-07-03,3802,273,3524,1773,247,1525,9
2020-07-04,1909,122,1786,937,99,838,1
2020-07-05,3184,223,2956,1551,201,1350,3
2020-07-06,12182,875,11235,6037,766,5258,4
2020-07-07,11584,801,10731,5420,727,4678,3
2020-07-08,11329,919,10359,4905,810,4083,4
2020-07-09,10050,867,9139,4623,767,3844,2
2020-07-10,10073,626,9421,4714,560,4149,6
2020-07-11,3742,236,3496,1869,211,1656,6
2020-07-12,3263,217,3042,1645,202,1441,6
2020-07-13,12517,903,11545,5982,781,5186,7
2020-07-14,10953,737,10162,5028,625,4391,4
2020-07-15,10648,746,9843,4844,658,4172,6
2020-07-16,8975,670,8279,4346,556,3783,4
2020-07-17,8705,602,8059,4228,512,3710,7
2020-07-18,3318,178,3128,1731,152,1575,6
2020-07-19,2755,149,2602,1300,133,1167,3
2020-07-20,11905,895,10948,5670,740,4917,8
2020-07-21,10006,706,9251,4681,581,4089,9
2020-07-22,9422,742,8634,4363,586,3772,8
2020-07-23,8725,716,7951,4028,583,3430,7
2020-07-24,8965,661,8259,4298,550,3742,6
2020-07-25,2698,159,2527,1405,133,1269,6
2020-07-26,2607,168,2433,1292,144,1148,5
2020-07-27,10761,861,9834,5381,733,4639,13
2020-07-28,9580,730,8790,4582,586,3984,8
2020-07-29,8526,706,7780,4102,598,3496,6
2020-07-30,7766,737,6996,3821,626,3186,7
2020-07-31,8089,628,7434,4111,537,3568,3
2020-08-01,2597,165,2425,1295,136,1158,6
2020-08-02,2695,143,2544,1265,131,1134,9
2020-08-03,12502,946,11477,5885,830,5045,8
2020-08-04,10714,781,9878,5076,679,4387,9
2020-08-05,9707,647,9008,4437,533,3897,7
2020-08-06,8407,612,7744,3998,523,3464,6
2020-08-07,9373,680,8630,4455,538,3907,11
2020-08-08,2989,209,2773,1444,185,1259,7
2020-08-09,2768,168,2591,1268,156,1111,6
2020-08-10,9140,735,8315,4353,645,3696,7
2020-08-11,9174,635,8483,4209,543,3651,10
2020-08-12,10975,823,10041,5247,692,4541,3
2020-08-13,9434,810,8557,4318,684,3628,13
2020-08-14,9699,767,8820,4878,679,4153,10
2020-08-15,3514,222,3266,1843,207,1633,5
2020-08-16,3086,206,2865,1681,183,1497,5
2020-08-17,11085,1147,9857,5928,1019,4890,9
2020-08-18,10560,838,9642,4960,770,4171,9
2020-08-19,9368,854,8452,4758,791,3953,4
2020-08-20,8937,815,8062,4509,737,3750,17
2020-08-21,9216,897,8245,4584,782,3787,11
2020-08-22,3069,311,2750,1738,286,1451,10
2020-08-23,3610,355,3232,1792,324,1463,12
2020-08-24,12397,1551,10737,6602,1445,5132,6
2020-08-25,11480,1333,10046,5675,1231,4431,11
2020-08-26,10455,1346,8973,5116,1245,3851,9
2020-08-27,10217,1309,8781,5407,1206,4179,12
2020-08-28,10628,1306,9273,5611,1195,4400,11
2020-08-29,3384,317,3056,1839,299,1539,12
2020-08-30,3575,293,3278,1775,279,1496,6
2020-08-31,13232,1270,11898,7062,1184,5871,10
2020-09-01,12526,1066,11421,6183,965,5211,10
2020-09-02,12996,1218,11724,5918,1144,4771,5
2020-09-03,13539,1010,12495,5447,926,4518,13
2020-09-04,12719,1018,11636,5328,909,4405,10
2020-09-05,3722,267,3448,1793,240,1552,6
2020-09-06,3795,262,3525,1923,243,1680,8
2020-09-07,3488,285,3196,1578,274,1304,13
2020-09-08,23293,1364,21870,8128,1239,6879,11
2020-09-09,14747,996,13715,6277,902,5371,9
2020-09-10,14944,942,13939,5580,864,4706,10
2020-09-11,15942,1016,14878,5999,912,5082,6
2020-09-12,3962,249,3709,2137,229,1908,4
2020-09-13,3657,275,3377,1809,244,1565,4
2020-09-14,20736,1674,18988,8305,1585,6707,8
2020-09-15,18525,1073,17412,6470,997,5469,4
2020-09-16,13090,1123,11939,5847,1033,4812,8
2020-09-17,16108,1067,15005,5590,988,4594,9
2020-09-18,14299,1128,13133,5958,1030,4920,6
2020-09-19,4431,344,4079,2280,320,1958,9
2020-09-20,3763,301,3456,1873,276,1597,5
2020-09-21,21042,1492,19505,8695,1426,7259,4
2020-09-22,20717,1290,19375,7749,1212,6532,6
2020-09-23,15742,1106,14602,6764,1047,5709,13
2020-09-24,17464,1003,16421,6125,929,5190,10
2020-09-25,15043,1001,14015,6355,943,5410,12
2020-09-26,4007,296,3700,2076,279,1794,12
2020-09-27,3745,266,3474,1860,247,1612,10
2020-09-28,22122,1537,20552,8515,1475,7038,10
2020-09-29,19621,1056,18524,6753,995,5750,11
2020-09-30,15330,1031,14268,6277,964,5308,12
2020-10-01,16486,941,15508,5472,876,4592,14
2020-10-02,14643,951,13643,6103,889,5205,7
2020-10-03,4177,390,3779,2267,356,1909,16
2020-10-04,4046,320,3721,2043,292,1749,9
2020-10-05,24847,1755,23032,9562,1680,7865,16
2020-10-06,23146,1308,21799,8015,1218,6793,5
2020-10-07,16369,1329,15000,7258,1261,5990,18
2020-10-08,18644,1330,17286,6588,1226,5357,15
2020-10-09,15881,1285,14570,6917,1206,5707,21
2020-10-10,4184,405,3772,2395,364,2030,10
2020-10-11,4117,348,3766,2102,323,1779,14
2020-10-12,25916,2010,23859,9579,1942,7628,15
2020-10-13,22639,1429,21174,8151,1332,6815,5
2020-10-14,15318,1354,13941,6954,1263,5687,14
2020-10-15,20230,1324,18886,6627,1240,5384,19
2020-10-16,15856,1226,14590,7104,1129,5970,21
2020-10-17,4385,432,3943,2618,372,2242,20
2020-10-18,4221,368,3845,2206,336,1867,11
2020-10-19,27352,2086,25156,10062,1987,8062,19
2020-10-20,22424,1495,20856,8147,1420,6721,26
2020-10-21,16314,1692,14581,7736,1594,6137,14
2020-10-22,20894,1807,19055,7483,1692,5784,19
2020-10-23,16792,1691,15055,7654,1567,6080,14
2020-10-24,4850,688,4152,2876,637,2237,11
2020-10-25,5428,593,4824,2670,552,2118,15
2020-10-26,30196,3299,26809,11378,3174,8193,13
2020-10-27,25770,2685,23026,10051,2526,7513,11
2020-10-28,19847,2798,16997,10049,2642,7396,21
2020-10-29,26415,3156,23201,10410,3029,7367,22
2020-10-30,21269,3003,18222,10326,2832,7486,21
2020-10-31,6349,1202,5135,3708,1140,2567,24
2020-11-01,7157,1243,5894,3670,1161,2506,31
2020-11-02,36619,5557,31002,15716,5374,10330,38
2020-11-03,32249,5081,27088,14797,4920,9852,26
2020-11-04,25337,5203,20069,14401,5016,9372,30
2020-11-05,34370,5405,28878,15211,5184,10004,51
2020-11-06,28589,5035,23405,15077,4786,10264,40
2020-11-07,8745,2110,6621,5806,2024,3780,32
2020-11-08,9973,2047,7883,5322,1832,3482,46
2020-11-09,44544,7675,36803,21342,7375,13945,34
2020-11-10,33241,5671,27493,17180,5414,11745,44
2020-11-11,22384,4584,17754,13866,4414,9443,38
2020-11-12,40458,5604,34772,18354,5342,12985,60
2020-11-13,30437,4558,25803,16546,4267,12262,33
2020-11-14,8777,1637,7106,5670,1505,4148,37
2020-11-15,8199,1507,6648,5349,1320,4014,46
2020-11-16,45234,6252,38905,21738,6017,15709,47
2020-11-17,34776,4949,29714,18655,4632,14000,54
2020-11-18,26233,4305,21826,17161,4069,13073,48
2020-11-19,38067,4060,33903,17196,3842,13326,66
2020-11-20,30248,3734,26429,16548,3490,13039,52
2020-11-21,9356,1377,7953,6227,1274,4943,54
2020-11-22,8513,1227,7250,5037,1102,3925,40
2020-11-23,43424,4530,38711,19738,4283,15420,48
2020-11-24,27257,3169,23943,14401,2955,11407,32
2020-11-25,27649,2861,24723,12351,2678,9659,49
2020-11-26,4902,460,4412,1893,340,1545,44
2020-11-27,22192,2637,19480,10082,2487,7576,41
2020-11-28,7014,1184,5815,4182,1094,3084,35
2020-11-29,6678,1033,5525,4238,875,3310,29
2020-11-30,37359,4325,32875,17518,4105,13378,33
2020-12-01,26114,3042,22965,14700,2844,11829,16
2020-12-02,18250,2431,15739,12610,2286,10312,12
2020-12-03,28665,2382,26222,13383,2235,11135,3
2020-12-04,21963,2101,19806,13134,1957,11165,4
2020-12-05,6152,879,5260,4427,805,3619,4
2020-12-06,5691,671,5006,4463,586,3872,3
2020-12-07,32594,2922,29611,22625,2712,19896,1
2020-12-08,21008,1938,19020,17928,1821,16089,0
2020-12-09,11138,1283,9829,10248,1203,9036,0
2020-12-10,12291,421,11869,11316,409,10906,0
2020-12-11,32,3,29,31,2,29,0
