Date,State - Total Tests,State - Positive Tests,State - Negative Tests,State - Individuals Tested,State - Individuals Positive,State - Individuals Negative,State - Deaths
2020-03-11,28,2,26,12,2,10,0
2020-03-12,69,3,66,28,2,26,0
2020-03-13,121,6,115,56,6,50,0
2020-03-14,99,3,96,52,2,50,0
2020-03-15,125,1,124,50,1,49,0
2020-03-16,436,20,416,192,20,172,0
2020-03-17,461,23,438,201,22,179,0
2020-03-18,437,27,410,185,26,159,0
2020-03-19,455,30,425,187,28,159,0
2020-03-20,497,27,469,190,26,164,0
2020-03-21,264,16,248,106,15,91,0
2020-03-22,272,19,253,105,18,87,0
2020-03-23,863,54,805,336,52,283,0
2020-03-24,849,58,791,324,56,268,1
2020-03-25,843,70,773,322,65,257,0
2020-03-26,934,67,866,339,64,275,1
2020-03-27,899,71,826,358,69,289,2
2020-03-28,453,41,411,183,40,143,1
2020-03-29,362,39,323,143,36,107,1
2020-03-30,1154,115,1039,455,114,341,1
2020-03-31,1010,81,929,386,78,308,4
2020-04-01,996,89,905,398,83,315,2
2020-04-02,1055,86,969,389,83,306,1
2020-04-03,966,100,865,396,94,302,5
2020-04-04,415,57,358,168,54,114,3
2020-04-05,435,68,364,191,67,123,5
2020-04-06,1293,138,1154,513,131,382,0
2020-04-07,1168,122,1044,460,116,343,2
2020-04-08,1069,117,951,439,112,327,3
2020-04-09,966,123,843,402,114,288,4
2020-04-10,1139,248,889,549,242,307,3
2020-04-11,454,80,372,196,73,123,4
2020-04-12,371,62,309,155,56,99,4
2020-04-13,1219,216,1001,541,200,340,6
2020-04-14,1215,171,1043,487,154,333,3
2020-04-15,1316,191,1124,508,182,326,6
2020-04-16,2106,509,1582,1211,490,713,5
2020-04-17,2214,524,1685,1255,502,751,7
2020-04-18,751,188,562,350,175,175,5
2020-04-19,746,183,562,355,169,186,7
2020-04-20,2391,537,1853,1094,507,587,7
2020-04-21,2481,480,1999,1077,449,628,6
2020-04-22,2297,548,1747,1168,531,637,7
2020-04-23,2510,494,2014,1162,467,695,11
2020-04-24,3476,722,2750,1674,683,989,5
2020-04-25,4734,1339,3360,2941,1280,1655,7
2020-04-26,1242,199,1014,512,161,348,8
2020-04-27,3381,603,2719,1501,561,925,9
2020-04-28,3821,699,3091,1829,660,1161,11
2020-04-29,4069,572,3374,1863,525,1306,13
2020-04-30,4049,490,3506,1843,448,1376,9
2020-05-01,3468,438,2988,1470,398,1065,10
2020-05-02,1241,201,1026,532,174,357,6
2020-05-03,1314,158,1154,482,125,357,14
2020-05-04,3942,654,3255,1891,602,1282,18
2020-05-05,4345,551,3770,2044,513,1524,10
2020-05-06,4291,410,3859,1648,373,1272,9
2020-05-07,3951,405,3503,1645,367,1262,12
2020-05-08,3707,380,3302,1633,340,1282,11
2020-05-09,1630,141,1488,670,121,549,12
2020-05-10,1592,142,1447,652,118,534,17
2020-05-11,5077,487,4514,2091,437,1643,14
2020-05-12,5276,444,4814,2065,406,1656,14
2020-05-13,4624,360,4255,1833,306,1525,13
2020-05-14,4950,404,4522,1749,351,1392,17
2020-05-15,4206,371,3815,1711,314,1390,7
2020-05-16,2113,184,1924,862,148,714,11
2020-05-17,2018,168,1843,811,122,689,11
2020-05-18,7779,861,6833,3168,788,2373,16
2020-05-19,6945,734,6160,2991,639,2347,17
2020-05-20,6233,503,5682,2372,443,1920,13
2020-05-21,5459,595,4825,2149,478,1662,11
2020-05-22,6114,368,5677,2458,308,2138,19
2020-05-23,1522,149,1370,650,119,531,7
2020-05-24,1830,164,1663,743,100,643,20
2020-05-25,1775,115,1656,713,88,625,10
2020-05-26,7645,565,6990,3165,468,2668,11
2020-05-27,7423,485,6905,2819,395,2418,13
2020-05-28,6962,539,6390,2859,437,2414,10
2020-05-29,6541,413,6102,2649,359,2286,12
2020-05-30,2195,158,2034,949,121,828,6
2020-05-31,2212,108,2101,920,76,844,10
2020-06-01,7376,578,6774,3100,478,2615,7
2020-06-02,6947,393,6535,2921,334,2583,12
2020-06-03,6768,467,6280,2783,383,2398,10
2020-06-04,6913,413,6477,2595,341,2248,8
2020-06-05,5965,430,5504,2637,357,2271,10
2020-06-06,2301,113,2180,941,90,851,8
2020-06-07,2126,89,2034,900,56,844,7
2020-06-08,8020,597,7393,3273,477,2789,8
2020-06-09,6956,369,6563,2866,312,2547,3
2020-06-10,6909,396,6478,2715,328,2377,8
2020-06-11,6626,318,6274,2518,266,2248,2
2020-06-12,6917,331,6548,2670,270,2392,5
2020-06-13,2222,96,2124,962,77,884,5
2020-06-14,2184,76,2105,910,55,855,5
2020-06-15,8503,527,7918,3396,442,2944,9
2020-06-16,7765,431,7299,3112,363,2743,4
2020-06-17,7439,437,6947,2913,375,2528,3
2020-06-18,7909,432,7133,2880,345,2476,2
2020-06-19,8339,516,7747,3400,456,2929,6
2020-06-20,2579,119,2453,1188,104,1083,3
2020-06-21,2348,98,2245,1029,82,947,0
2020-06-22,9990,640,9218,4263,552,3682,2
2020-06-23,9473,552,8889,3918,487,3423,4
2020-06-24,8603,470,8096,3525,424,3089,0
2020-06-25,9404,542,8807,3693,477,3207,4
2020-06-26,8470,522,7914,3576,451,3115,8
2020-06-27,2987,174,2808,1426,159,1267,2
2020-06-28,3021,187,2828,1399,169,1228,4
2020-06-29,11178,800,10293,4925,697,4212,0
2020-06-30,9814,770,9000,4155,685,3457,1
2020-07-01,9342,644,8648,3904,574,3310,4
2020-07-02,10145,769,9306,4495,683,3796,3
2020-07-03,3811,272,3534,1672,247,1424,9
2020-07-04,1915,122,1792,873,99,774,1
2020-07-05,3187,223,2959,1464,201,1263,3
2020-07-06,12208,875,11261,5689,764,4912,4
2020-07-07,11612,802,10758,5099,723,4362,3
2020-07-08,11357,920,10386,4619,811,3797,4
2020-07-09,10076,868,9164,4315,767,3536,2
2020-07-10,10099,627,9446,4410,559,3848,6
2020-07-11,3751,236,3505,1741,210,1529,6
2020-07-12,3267,217,3046,1532,202,1328,6
2020-07-13,12585,903,11613,5578,781,4782,7
2020-07-14,10974,737,10183,4690,625,4053,4
2020-07-15,10671,746,9866,4520,656,3851,6
2020-07-16,8998,670,8302,4061,556,3498,4
2020-07-17,8720,602,8074,3955,512,3437,7
2020-07-18,3323,178,3133,1617,152,1461,6
2020-07-19,2757,149,2604,1217,133,1084,3
2020-07-20,11940,895,10983,5327,738,4576,8
2020-07-21,10027,706,9271,4345,580,3754,9
2020-07-22,9444,742,8656,4082,583,3494,8
2020-07-23,8746,716,7972,3751,582,3157,7
2020-07-24,8985,661,8279,4002,549,3448,6
2020-07-25,2709,160,2537,1322,133,1186,6
2020-07-26,2617,168,2443,1213,143,1070,5
2020-07-27,10818,861,9890,5040,732,4299,13
2020-07-28,9603,730,8813,4263,586,3666,8
2020-07-29,8538,706,7792,3837,597,3233,6
2020-07-30,7783,737,7013,3591,624,2958,7
2020-07-31,8105,629,7449,3836,538,3292,3
2020-08-01,2601,165,2429,1226,136,1089,6
2020-08-02,2698,143,2547,1187,131,1056,8
2020-08-03,12523,946,11497,5524,829,4686,8
2020-08-04,10736,781,9900,4732,678,4044,9
2020-08-05,9741,647,9043,4126,533,3586,7
2020-08-06,8436,612,7773,3764,522,3231,6
2020-08-07,9413,680,8670,4166,538,3619,11
2020-08-08,2997,209,2781,1345,185,1160,7
2020-08-09,2772,168,2595,1168,155,1013,6
2020-08-10,9165,735,8340,4065,645,3408,7
2020-08-11,9234,635,8543,3905,540,3352,10
2020-08-12,11008,823,10074,4894,692,4188,3
2020-08-13,9453,810,8576,4044,681,3358,13
2020-08-14,9736,768,8856,4574,677,3852,10
2020-08-15,3521,222,3273,1742,205,1534,5
2020-08-16,3094,206,2873,1586,182,1403,5
2020-08-17,11124,1147,9896,5545,1018,4510,9
2020-08-18,10611,839,9692,4610,769,3822,9
2020-08-19,9398,855,8481,4414,788,3612,4
2020-08-20,8960,815,8085,4162,736,3405,17
2020-08-21,9241,897,8270,4265,778,3474,11
2020-08-22,3076,311,2757,1607,284,1322,10
2020-08-23,3614,355,3236,1660,323,1332,12
2020-08-24,12430,1550,10771,6191,1443,4725,6
2020-08-25,11507,1334,10072,5319,1228,4079,11
2020-08-26,10508,1346,9026,4763,1239,3504,9
2020-08-27,10229,1309,8793,5105,1202,3883,12
2020-08-28,10651,1306,9296,5254,1193,4045,11
2020-08-29,3390,317,3062,1719,299,1419,12
2020-08-30,3587,293,3290,1660,278,1382,6
2020-08-31,13278,1270,11944,6553,1179,5367,10
2020-09-01,12560,1066,11454,5750,964,4780,10
2020-09-02,13112,1219,11838,5525,1140,4382,5
2020-09-03,13740,1010,12696,5059,924,4132,14
2020-09-04,12859,1017,11777,4968,905,4052,10
2020-09-05,3742,267,3468,1674,240,1433,6
2020-09-06,3803,262,3533,1775,241,1534,8
2020-09-07,3515,285,3223,1459,274,1185,13
2020-09-08,23489,1363,22067,7569,1236,6324,11
2020-09-09,14840,995,13809,5833,901,4928,9
2020-09-10,15241,940,14238,5211,862,4340,10
2020-09-11,16084,1016,15019,5548,909,4634,6
2020-09-12,3972,249,3719,1983,229,1754,4
2020-09-13,3664,275,3384,1644,243,1401,4
2020-09-14,20957,1675,19208,7767,1577,6177,8
2020-09-15,18752,1072,17640,5982,994,4984,4
2020-09-16,13230,1122,12078,5477,1033,4442,8
2020-09-17,16277,1068,15173,5197,985,4206,9
2020-09-18,14449,1127,13284,5535,1029,4498,6
2020-09-19,4445,344,4093,2112,320,1790,9
2020-09-20,3786,301,3479,1740,275,1465,5
2020-09-21,21202,1492,19665,8087,1422,6655,4
2020-09-22,20931,1290,19589,7186,1210,5971,6
2020-09-23,15852,1106,14712,6281,1047,5226,13
2020-09-24,17687,1005,16642,5686,929,4751,11
2020-09-25,15143,1002,14114,5841,944,4895,12
2020-09-26,4027,296,3719,1933,275,1655,12
2020-09-27,3765,266,3494,1705,247,1457,10
2020-09-28,22404,1536,20834,7927,1473,6451,10
2020-09-29,19813,1062,18709,6224,995,5222,11
2020-09-30,15491,1031,14429,5841,963,4873,12
2020-10-01,16724,942,15745,5040,877,4159,14
2020-10-02,14901,950,13902,5626,889,4728,10
2020-10-03,4202,390,3804,2107,355,1750,17
2020-10-04,4063,320,3738,1874,292,1580,9
2020-10-05,25204,1758,23386,8807,1681,7109,17
2020-10-06,23354,1309,22006,7407,1219,6184,7
2020-10-07,16479,1330,15109,6678,1263,5409,22
2020-10-08,19090,1330,17732,6105,1226,4874,16
2020-10-09,16047,1286,14735,6408,1206,5198,23
2020-10-10,4204,405,3791,2202,364,1837,11
2020-10-11,4140,348,3789,1933,323,1610,15
2020-10-12,26469,2012,24410,8914,1944,6961,18
2020-10-13,22872,1433,21403,7543,1331,6208,6
2020-10-14,15420,1357,14040,6421,1264,5153,16
2020-10-15,20746,1325,19401,6152,1241,4908,20
2020-10-16,16065,1227,14798,6552,1129,5419,21
2020-10-17,4406,432,3964,2425,372,2049,20
2020-10-18,4271,368,3896,2057,335,1719,11
2020-10-19,27983,2087,25786,9289,1989,7287,20
2020-10-20,22638,1496,21067,7496,1420,6070,27
2020-10-21,16573,1692,14840,7131,1594,5532,16
2020-10-22,21452,1807,19612,6934,1693,5234,24
2020-10-23,16986,1692,15248,7028,1569,5452,17
2020-10-24,4871,688,4173,2643,635,2006,14
2020-10-25,5514,595,4909,2444,553,1891,15
2020-10-26,30779,3305,27386,10604,3179,7414,14
2020-10-27,26009,2685,23265,9269,2526,6732,12
2020-10-28,20018,2802,17165,9297,2644,6643,21
2020-10-29,27081,3159,23863,9688,3032,6642,22
2020-10-30,21649,3009,18596,9561,2832,6721,21
2020-10-31,6391,1205,5174,3432,1142,2289,24
2020-11-01,7272,1240,6011,3403,1163,2237,32
2020-11-02,37351,5566,31724,14696,5380,9305,39
2020-11-03,32492,5088,27323,13738,4925,8789,28
2020-11-04,25579,5210,20304,13522,5024,8485,30
2020-11-05,35256,5458,29710,14210,5235,8953,54
2020-11-06,29099,5096,23854,14040,4845,9169,39
2020-11-07,8824,2145,6665,5481,2059,3420,33
2020-11-08,10099,2064,7992,5015,1849,3158,47
2020-11-09,45583,7756,37760,19939,7460,12457,35
2020-11-10,34170,5716,28374,16101,5456,10626,44
2020-11-11,22738,4618,18072,12992,4444,8539,39
2020-11-12,41568,5656,35826,17086,5387,11673,62
2020-11-13,31072,4591,26404,15275,4300,10959,37
2020-11-14,8844,1673,7137,5265,1558,3690,39
2020-11-15,8293,1534,6714,4882,1345,3524,49
2020-11-16,46784,6328,40374,20077,6119,13946,49
2020-11-17,35538,4982,30443,17100,4664,12414,60
2020-11-18,26661,4348,22210,15704,4109,11578,59
2020-11-19,39052,4093,34851,15633,3867,11740,73
2020-11-20,31054,3781,27185,14786,3532,11237,60
2020-11-21,9442,1401,8015,5607,1297,4302,59
2020-11-22,8676,1250,7389,4515,1122,3384,49
2020-11-23,44771,4634,39944,17409,4386,12988,60
2020-11-24,28219,3229,24844,12821,3011,9775,37
2020-11-25,28464,2900,25499,10743,2715,8014,62
2020-11-26,5099,473,4596,1620,350,1262,62
2020-11-27,23121,2678,20367,8848,2518,6312,59
2020-11-28,7149,1195,5939,3775,1104,2669,60
2020-11-29,6772,1042,5610,3700,883,2768,52
2020-11-30,38705,4351,34189,14829,4127,10672,69
2020-12-01,27278,3069,24098,12075,2866,9186,59
2020-12-02,18622,2457,16084,10487,2309,8167,52
2020-12-03,29862,2405,27394,10091,2253,7828,56
2020-12-04,23049,2136,20859,9784,1981,7794,52
2020-12-05,6298,896,5388,3721,822,2898,46
2020-12-06,5919,693,5212,3359,609,2747,45
2020-12-07,36158,3193,32900,13451,2967,10470,43
2020-12-08,25108,2190,22855,10627,2034,8579,48
2020-12-09,16151,1864,14216,9097,1749,7338,40
2020-12-10,28517,1963,26492,9514,1836,7665,24
2020-12-11,20452,1732,18587,8947,1608,7322,30
2020-12-12,5252,567,4674,3071,515,2553,31
2020-12-13,5586,597,4962,3268,552,2714,24
2020-12-14,33527,2751,30642,12713,2605,10095,23
2020-12-15,23466,1862,21527,10704,1741,8950,10
2020-12-16,16255,1783,14409,9483,1649,7821,16
2020-12-17,28100,1673,26384,9706,1573,8124,10
2020-12-18,20921,1562,19316,10334,1464,8860,7
2020-12-19,6049,642,5393,3639,610,3026,4
2020-12-20,6157,597,5527,3699,531,3156,3
2020-12-21,36888,2570,34233,13832,2446,11375,4
2020-12-22,18877,1720,17117,10663,1577,9073,6
2020-12-23,21137,1399,19706,9326,1305,8011,5
2020-12-24,16709,995,15697,5581,910,4667,5
2020-12-25,2532,177,2354,1021,155,866,1
2020-12-26,6985,953,6022,4611,900,3706,4
2020-12-27,6292,709,5569,3788,612,3174,1
2020-12-28,33591,2825,30678,14145,2682,11450,1
2020-12-29,13164,1437,11713,7542,1351,6189,1
2020-12-30,18682,1936,16715,10879,1847,9025,1
2020-12-31,21115,1611,19490,10360,1521,8838,1
2021-01-01,4018,363,3651,2152,334,1816,0
2021-01-02,6656,1013,5636,4804,966,3835,1
2021-01-03,6035,759,5251,4915,659,4245,0
2021-01-04,31328,3162,28112,27709,3058,24640,0
2021-01-05,14016,1387,12624,12688,1325,11362,0
2021-01-06,4868,371,4497,4490,353,4137,0
2021-01-07,23,5,18,22,5,17,0
