Date,State - Total Tests,State - Positive Tests,State - Negative Tests,State - Individuals Tested,State - Individuals Positive,State - Individuals Negative,State - Deaths
2020-03-11,28,2,26,12,2,10,0
2020-03-12,68,2,66,26,2,24,0
2020-03-13,121,6,115,55,6,49,0
2020-03-14,100,3,97,52,2,50,0
2020-03-15,125,1,124,46,1,45,0
2020-03-16,436,19,417,179,20,159,0
2020-03-17,462,23,439,189,22,167,0
2020-03-18,437,27,410,173,26,147,0
2020-03-19,455,30,425,173,28,145,0
2020-03-20,497,27,469,177,26,151,0
2020-03-21,265,16,249,98,15,83,0
2020-03-22,272,19,253,101,18,83,0
2020-03-23,863,54,805,310,52,257,0
2020-03-24,849,58,791,301,56,245,1
2020-03-25,843,70,773,304,65,239,0
2020-03-26,934,67,866,310,64,246,1
2020-03-27,899,71,826,333,69,264,2
2020-03-28,453,41,411,169,40,129,1
2020-03-29,363,39,324,136,36,100,1
2020-03-30,1155,115,1040,426,114,312,1
2020-03-31,1011,81,930,357,78,279,4
2020-04-01,999,89,908,373,83,290,2
2020-04-02,1058,86,972,363,83,280,1
2020-04-03,966,100,865,377,94,283,5
2020-04-04,415,57,358,159,54,105,3
2020-04-05,435,68,364,186,66,120,5
2020-04-06,1297,138,1158,484,131,353,0
2020-04-07,1168,122,1044,426,116,310,2
2020-04-08,1069,117,951,411,112,299,3
2020-04-09,968,123,845,379,114,265,5
2020-04-10,1139,248,889,524,241,283,3
2020-04-11,454,80,372,190,73,117,4
2020-04-12,371,62,309,148,56,92,4
2020-04-13,1219,216,1001,518,200,317,6
2020-04-14,1215,171,1043,465,154,311,3
2020-04-15,1317,191,1125,465,182,283,6
2020-04-16,2108,510,1583,1166,490,668,5
2020-04-17,2217,524,1688,1203,501,701,7
2020-04-18,752,188,563,342,175,167,5
2020-04-19,746,183,562,341,169,172,8
2020-04-20,2395,537,1857,1055,507,548,7
2020-04-21,2482,480,2000,1029,449,580,6
2020-04-22,2302,548,1752,1126,528,598,7
2020-04-23,2511,494,2015,1115,465,650,11
2020-04-24,3483,722,2757,1583,683,898,5
2020-04-25,4749,1339,3374,2811,1280,1525,7
2020-04-26,1244,199,1016,480,161,316,8
2020-04-27,3400,604,2733,1446,562,868,9
2020-04-28,3837,699,3105,1726,657,1062,11
2020-04-29,4100,572,3401,1758,525,1204,13
2020-04-30,4070,490,3527,1755,447,1291,9
2020-05-01,3504,438,3021,1391,397,987,11
2020-05-02,1250,201,1035,513,174,338,6
2020-05-03,1319,158,1159,454,124,330,14
2020-05-04,4008,654,3318,1815,601,1206,18
2020-05-05,4460,551,3881,2003,513,1483,10
2020-05-06,4378,410,3945,1552,372,1177,9
2020-05-07,4038,405,3586,1550,366,1169,12
2020-05-08,3826,379,3418,1596,340,1245,11
2020-05-09,1643,142,1499,641,121,520,13
2020-05-10,1604,142,1459,606,118,488,17
2020-05-11,5179,487,4610,1981,436,1532,14
2020-05-12,5357,444,4894,1953,405,1545,14
2020-05-13,4709,360,4340,1747,306,1439,13
2020-05-14,4996,404,4568,1643,350,1287,17
2020-05-15,4282,371,3889,1616,313,1297,7
2020-05-16,2126,184,1937,796,148,648,11
2020-05-17,2037,168,1861,759,122,637,11
2020-05-18,7849,860,6904,2958,786,2166,16
2020-05-19,7006,734,6223,2793,635,2154,17
2020-05-20,6283,503,5732,2232,442,1781,13
2020-05-21,5492,596,4857,2002,477,1516,11
2020-05-22,6209,367,5773,2307,308,1988,19
2020-05-23,1547,149,1395,614,119,495,7
2020-05-24,1847,164,1680,704,100,604,20
2020-05-25,1800,115,1681,661,88,573,10
2020-05-26,7717,565,7061,3003,468,2506,11
2020-05-27,7552,484,7034,2622,394,2222,13
2020-05-28,7088,539,6516,2702,438,2256,10
2020-05-29,6669,413,6229,2502,359,2139,12
2020-05-30,2235,158,2074,905,121,784,6
2020-05-31,2233,108,2122,851,76,775,10
2020-06-01,7483,578,6879,2927,476,2445,7
2020-06-02,7082,393,6669,2754,334,2416,12
2020-06-03,6870,466,6383,2599,382,2215,10
2020-06-04,7022,413,6586,2436,340,2090,8
2020-06-05,6041,429,5581,2493,357,2127,10
2020-06-06,2322,113,2201,883,90,793,8
2020-06-07,2145,89,2053,842,56,786,7
2020-06-08,8087,597,7460,3046,476,2563,8
2020-06-09,6992,369,6599,2661,311,2343,3
2020-06-10,6957,396,6526,2524,328,2186,8
2020-06-11,6686,317,6334,2368,266,2098,2
2020-06-12,7034,330,6666,2513,269,2236,5
2020-06-13,2292,96,2194,927,77,849,5
2020-06-14,2213,76,2134,858,55,803,5
2020-06-15,8578,527,7993,3158,442,2706,9
2020-06-16,7828,431,7362,2910,363,2541,4
2020-06-17,7512,437,7019,2715,374,2332,3
2020-06-18,8011,432,7225,2691,344,2290,2
2020-06-19,8446,516,7853,3200,456,2731,6
2020-06-20,2593,119,2467,1094,104,989,3
2020-06-21,2367,98,2264,948,81,867,0
2020-06-22,10125,640,9350,4023,551,3444,2
2020-06-23,9589,552,9005,3654,485,3162,4
2020-06-24,8712,470,8204,3272,422,2839,0
2020-06-25,9542,542,8944,3485,476,3000,4
2020-06-26,8591,523,8033,3375,448,2917,8
2020-06-27,3043,174,2864,1320,159,1161,2
2020-06-28,3032,187,2839,1304,168,1134,4
2020-06-29,11281,800,10391,4615,697,3900,0
2020-06-30,9945,770,9131,3934,683,3238,1
2020-07-01,9506,643,8813,3699,572,3107,4
2020-07-02,10266,770,9426,4218,683,3520,3
2020-07-03,3915,271,3639,1621,247,1373,9
2020-07-04,1945,122,1822,823,99,724,1
2020-07-05,3210,223,2981,1366,200,1166,3
2020-07-06,12364,875,11416,5323,763,4547,4
2020-07-07,11720,802,10863,4666,721,3933,3
2020-07-08,11549,921,10576,4325,812,3504,4
2020-07-09,10190,867,9278,4032,763,3259,2
2020-07-10,10196,627,9542,4079,558,3518,6
2020-07-11,3787,236,3541,1608,209,1397,6
2020-07-12,3292,217,3071,1440,201,1237,6
2020-07-13,12713,903,11739,5150,781,4357,7
2020-07-14,11064,737,10273,4338,625,3701,4
2020-07-15,10795,747,9989,4196,655,3529,6
2020-07-16,9086,670,8390,3786,556,3223,5
2020-07-17,8795,604,8147,3686,513,3167,7
2020-07-18,3354,178,3164,1499,150,1345,6
2020-07-19,2785,149,2632,1150,132,1018,3
2020-07-20,12064,895,11107,4965,737,4215,9
2020-07-21,10093,706,9336,4021,577,3433,9
2020-07-22,9540,742,8751,3781,583,3193,8
2020-07-23,8839,717,8063,3500,579,2910,7
2020-07-24,9103,661,8397,3729,548,3176,6
2020-07-25,2730,159,2559,1224,133,1088,6
2020-07-26,2652,168,2478,1122,143,979,5
2020-07-27,10964,861,10036,4697,732,3958,13
2020-07-28,9699,730,8909,3936,585,3341,8
2020-07-29,8608,706,7862,3553,596,2951,6
2020-07-30,7859,736,7090,3357,621,2727,7
2020-07-31,8202,629,7546,3561,538,3017,3
2020-08-01,2641,165,2469,1129,136,992,6
2020-08-02,2723,143,2571,1089,129,960,8
2020-08-03,12623,947,11596,4991,828,4154,8
2020-08-04,10821,782,9984,4281,676,3597,9
2020-08-05,9853,646,9155,3693,533,3157,7
2020-08-06,8554,612,7891,3356,521,2825,6
2020-08-07,9517,680,8774,3774,537,3228,11
2020-08-08,3041,209,2825,1258,184,1074,7
2020-08-09,2805,168,2628,1069,154,915,6
2020-08-10,9294,735,8467,3730,645,3075,7
2020-08-11,9364,635,8674,3544,539,2993,10
2020-08-12,11183,823,10249,4354,691,3651,3
2020-08-13,9566,810,8688,3594,676,2913,13
2020-08-14,9818,767,8936,4131,677,3408,10
2020-08-15,3857,222,3606,1527,203,1321,5
2020-08-16,3250,207,3028,1426,181,1244,5
2020-08-17,11463,1146,10234,5096,1016,4068,9
2020-08-18,10819,840,9899,4192,765,3409,9
2020-08-19,9484,855,8567,4029,785,3230,4
2020-08-20,9069,815,8193,3805,736,3049,17
2020-08-21,9364,897,8393,3923,774,3137,11
2020-08-22,3104,311,2785,1461,284,1176,10
2020-08-23,3655,354,3278,1503,322,1176,12
2020-08-24,12622,1551,10958,5729,1434,4273,6
2020-08-25,11622,1334,10184,4858,1222,3627,11
2020-08-26,10634,1348,9148,4465,1234,3212,9
2020-08-27,10344,1304,8912,4743,1192,3531,12
2020-08-28,10782,1306,9426,4913,1188,3710,11
2020-08-29,3441,317,3112,1613,298,1315,12
2020-08-30,3635,293,3338,1508,275,1233,6
2020-08-31,13442,1272,12105,6047,1176,4864,10
2020-09-01,12670,1065,11565,5273,960,4309,10
2020-09-02,13289,1219,12013,5096,1130,3964,5
2020-09-03,13920,1011,12874,4741,922,3817,14
2020-09-04,13044,1018,11961,4643,902,3731,10
2020-09-05,3797,267,3523,1544,238,1305,6
2020-09-06,3850,262,3580,1654,241,1413,8
2020-09-07,3573,285,3281,1360,273,1087,13
2020-09-08,23906,1365,22480,7016,1233,5774,11
2020-09-09,15032,996,13999,5306,899,4403,9
2020-09-10,15373,942,14365,4782,861,3913,10
2020-09-11,16282,1016,15216,5113,905,4202,6
2020-09-12,4049,249,3796,1813,229,1584,4
2020-09-13,3698,275,3418,1523,243,1280,5
2020-09-14,21184,1675,19434,7185,1572,5600,8
2020-09-15,19144,1075,18029,5543,991,4549,4
2020-09-16,13464,1124,12307,5023,1026,3996,8
2020-09-17,16459,1068,15352,4801,982,3813,9
2020-09-18,14680,1129,13512,5109,1026,4074,6
2020-09-19,4487,345,4134,1950,321,1628,9
2020-09-20,3837,302,3529,1622,274,1348,5
2020-09-21,21493,1492,19956,7459,1419,6030,4
2020-09-22,21313,1291,19970,6625,1210,5410,6
2020-09-23,16102,1107,14961,5741,1045,4689,13
2020-09-24,17986,1005,16941,5233,928,4299,11
2020-09-25,15303,1004,14271,5367,942,4423,12
2020-09-26,4088,296,3778,1784,274,1507,12
2020-09-27,3858,266,3587,1588,247,1340,10
2020-09-28,22713,1538,21140,7301,1469,5830,10
2020-09-29,20195,1063,19089,5747,992,4749,11
2020-09-30,15741,1030,14680,5350,959,4386,12
2020-10-01,16907,942,15928,4602,878,3720,14
2020-10-02,15097,951,14096,5162,886,4268,10
2020-10-03,4273,390,3875,1961,354,1605,17
2020-10-04,4135,320,3809,1712,291,1419,9
2020-10-05,25702,1757,23885,8153,1675,6462,17
2020-10-06,23730,1308,22383,6818,1211,5603,7
2020-10-07,16713,1330,15341,6104,1256,4842,22
2020-10-08,19349,1329,17992,5569,1221,4343,16
2020-10-09,16207,1284,14897,5880,1197,4681,23
2020-10-10,4243,405,3830,1986,364,1621,11
2020-10-11,4275,372,3900,1825,347,1478,15
2020-10-12,26754,2014,24692,8159,1940,6210,18
2020-10-13,23225,1431,21758,6912,1327,5582,6
2020-10-14,15678,1356,14299,5863,1260,4599,17
2020-10-15,20920,1324,19576,5612,1236,4373,20
2020-10-16,16260,1228,14991,6002,1128,4870,21
2020-10-17,4471,433,4028,2239,372,1863,20
2020-10-18,4328,369,3951,1871,335,1533,11
2020-10-19,28288,2089,26089,8461,1986,6462,20
2020-10-20,22852,1498,21281,6807,1416,5385,27
2020-10-21,16742,1696,15004,6473,1590,4878,16
2020-10-22,21731,1814,19884,6349,1693,4649,24
2020-10-23,17198,1697,15455,6430,1570,4853,17
2020-10-24,4938,688,4240,2419,634,1783,14
2020-10-25,5582,594,4977,2254,552,1702,15
2020-10-26,31252,3312,27852,9771,3182,6578,14
2020-10-27,26263,2690,23513,8471,2527,5933,12
2020-10-28,20251,2809,17390,8489,2642,5837,21
2020-10-29,27417,3168,24189,8859,3037,5808,22
2020-10-30,21892,3013,18835,8820,2835,5977,22
2020-10-31,6491,1204,5275,3226,1141,2084,24
2020-11-01,7354,1243,6090,3175,1162,2010,33
2020-11-02,38036,5570,32402,13633,5372,8251,39
2020-11-03,32874,5094,27699,12747,4927,7796,28
2020-11-04,25926,5218,20643,12466,5022,7431,30
2020-11-05,35751,5470,30192,13127,5240,7866,54
2020-11-06,29483,5131,24202,13082,4878,8178,39
2020-11-07,8974,2185,6771,5125,2097,3025,33
2020-11-08,10217,2097,8077,4668,1879,2781,47
2020-11-09,46235,7853,38314,18519,7547,10952,36
2020-11-10,34604,5784,28740,14927,5515,9394,45
2020-11-11,23170,4660,18461,11948,4483,7457,40
2020-11-12,42162,5709,36368,15751,5436,10290,63
2020-11-13,31520,4617,26826,13945,4326,9604,37
2020-11-14,8918,1682,7201,4829,1567,3245,39
2020-11-15,8430,1545,6840,4492,1356,3124,50
2020-11-16,47324,6387,40855,18394,6176,12206,49
2020-11-17,36069,5022,30933,15571,4702,10847,60
2020-11-18,26973,4375,22495,14135,4135,9985,61
2020-11-19,39542,4115,35318,14239,3887,10327,74
2020-11-20,31538,3796,27654,13212,3547,9650,62
2020-11-21,9539,1407,8106,4956,1302,3646,61
2020-11-22,8773,1250,7486,4066,1124,2934,51
2020-11-23,45258,4641,40420,15560,4393,11133,61
2020-11-24,28638,3232,25259,11523,3015,8475,38
2020-11-25,28708,2909,25732,9632,2719,6903,64
2020-11-26,5153,473,4649,1448,351,1090,64
2020-11-27,23403,2680,20647,7988,2519,5452,60
2020-11-28,7230,1198,6017,3419,1106,2311,62
2020-11-29,6838,1047,5671,3339,886,2405,54
2020-11-30,39156,4353,34639,13330,4129,9171,71
2020-12-01,27623,3073,24437,10804,2871,7911,62
2020-12-02,18899,2462,16356,9362,2312,7039,55
2020-12-03,30248,2413,27771,9004,2260,6735,58
2020-12-04,23399,2145,21196,8694,1986,6699,54
2020-12-05,6380,895,5470,3338,822,2515,54
2020-12-06,5972,693,5264,2982,609,2370,52
2020-12-07,36701,3194,33442,11869,2970,8886,48
2020-12-08,25549,2194,23291,9224,2037,7174,55
2020-12-09,16421,1868,14481,8009,1752,6247,48
2020-12-10,28920,1975,26883,8136,1844,6280,36
2020-12-11,20768,1733,18902,7855,1610,6229,44
2020-12-12,5348,569,4768,2673,518,2152,46
2020-12-13,5671,599,5045,2873,554,2317,34
2020-12-14,34057,2758,31166,11039,2607,8420,40
2020-12-15,23789,1873,21838,8848,1751,7084,30
2020-12-16,16473,1797,14613,7979,1664,6304,47
2020-12-17,28566,1686,26835,7918,1584,6325,42
2020-12-18,21322,1575,19703,8628,1474,7144,26
2020-12-19,6125,646,5465,3160,614,2545,35
2020-12-20,6249,610,5606,3166,544,2611,17
2020-12-21,38022,2586,35349,11218,2456,8752,41
2020-12-22,19425,1736,17652,8570,1592,6965,34
2020-12-23,21707,1415,20260,7596,1320,6268,32
2020-12-24,17383,1012,16354,4515,927,3584,33
2020-12-25,2619,180,2438,785,158,627,36
2020-12-26,7156,979,6167,3965,925,3037,25
2020-12-27,6488,733,5740,3082,635,2446,35
2020-12-28,35266,2864,32313,10571,2713,7846,28
2020-12-29,13810,1457,12338,5603,1369,4230,19
2020-12-30,19705,1969,17704,7373,1879,5488,27
2020-12-31,22362,1669,20678,6395,1575,4820,23
2021-01-01,4270,381,3885,1433,350,1081,24
2021-01-02,6997,1078,5912,3897,1028,2866,32
2021-01-03,6424,815,5584,3499,714,2778,20
2021-01-04,36131,3450,32576,13029,3312,9706,20
2021-01-05,22013,2151,19792,9237,2012,7211,26
2021-01-06,15969,1876,14026,8119,1774,6339,32
2021-01-07,26101,1631,24428,8011,1556,6447,24
2021-01-08,19845,1679,18054,9042,1588,7436,34
2021-01-09,6007,588,5412,3279,533,2745,33
2021-01-10,5549,595,4945,3075,532,2539,29
2021-01-11,34125,2471,31550,11477,2325,9141,22
2021-01-12,20769,1513,19202,8610,1401,7202,20
2021-01-13,15412,1434,13927,8050,1326,6714,19
2021-01-14,25678,1360,24283,7878,1264,6609,18
2021-01-15,13262,872,12360,5221,820,4392,8
2021-01-16,5907,633,5262,3258,589,2668,17
2021-01-17,5533,470,5012,2958,399,2552,15
2021-01-18,28887,1600,27205,9172,1543,7616,18
2021-01-19,23594,1717,21814,10289,1589,8690,11
2021-01-20,15110,1238,13836,7689,1153,6534,12
2021-01-21,24967,1284,23641,8344,1198,7141,11
2021-01-22,18030,1194,16721,8304,1115,7184,19
2021-01-23,5730,507,5213,3220,466,2754,16
2021-01-24,5811,451,5334,3121,384,2734,17
2021-01-25,29166,1436,27613,9494,1356,8131,13
2021-01-26,16623,890,15703,6595,833,5758,9
2021-01-27,16621,1272,15221,8847,1192,7646,20
2021-01-28,22654,1048,21531,7924,985,6932,11
2021-01-29,17594,1072,16414,7734,982,6748,7
2021-01-30,5484,426,5047,3390,391,2998,8
2021-01-31,5215,352,4850,2931,320,2606,10
2021-02-01,29008,1489,27403,10819,1412,9392,8
2021-02-02,20149,1005,19068,8922,943,7974,7
2021-02-03,14697,916,13712,8293,857,7433,10
2021-02-04,15567,484,15028,4701,454,4241,5
2021-02-05,16387,868,15431,7552,791,6757,10
2021-02-06,4790,315,4471,2913,288,2624,9
2021-02-07,4871,312,4538,2955,269,2681,2
2021-02-08,27034,1236,25680,12474,1166,11305,6
2021-02-09,18872,819,17968,11164,767,10391,1
2021-02-10,12955,802,12097,9516,740,8775,4
2021-02-11,18324,703,17563,10215,649,9565,2
2021-02-12,12581,615,11872,8568,569,7990,1
2021-02-13,3654,194,3456,2968,185,2783,1
2021-02-14,3764,204,3553,3128,181,2944,1
2021-02-15,17950,684,17244,15278,629,14647,0
2021-02-16,7209,162,7045,5961,150,5811,0
2021-02-17,45,3,42,39,3,36,0
