Date,State - Total Tests,State - Positive Tests,State - Negative Tests,State - Individuals Tested,State - Individuals Positive,State - Individuals Negative,State - Deaths
2020-03-11,28,2,26,12,2,10,0
2020-03-12,68,2,66,26,2,24,0
2020-03-13,121,6,115,55,6,49,0
2020-03-14,100,3,97,52,2,50,0
2020-03-15,125,1,124,47,1,46,0
2020-03-16,436,19,417,180,20,160,0
2020-03-17,462,23,439,191,22,169,0
2020-03-18,437,27,410,173,26,147,0
2020-03-19,455,30,425,177,28,149,0
2020-03-20,497,27,469,177,26,151,0
2020-03-21,265,16,249,98,15,83,0
2020-03-22,272,19,253,102,18,84,0
2020-03-23,863,54,805,312,52,259,0
2020-03-24,849,58,791,302,56,246,1
2020-03-25,843,70,773,306,65,241,0
2020-03-26,934,67,866,311,64,247,1
2020-03-27,899,71,826,336,69,267,2
2020-03-28,453,41,411,171,40,131,1
2020-03-29,362,39,323,136,36,100,1
2020-03-30,1154,115,1039,430,114,316,1
2020-03-31,1010,81,929,360,78,282,4
2020-04-01,996,89,905,375,83,292,2
2020-04-02,1055,86,969,366,83,283,1
2020-04-03,966,100,865,377,94,283,5
2020-04-04,415,57,358,159,54,105,3
2020-04-05,435,68,364,188,66,121,5
2020-04-06,1295,138,1156,484,131,353,0
2020-04-07,1168,122,1044,428,116,312,2
2020-04-08,1069,117,951,416,112,304,3
2020-04-09,967,123,844,382,114,268,5
2020-04-10,1139,248,889,525,241,284,3
2020-04-11,454,80,372,190,73,117,4
2020-04-12,371,62,309,150,56,94,4
2020-04-13,1219,216,1001,519,200,318,6
2020-04-14,1215,171,1043,466,154,312,3
2020-04-15,1316,191,1124,470,182,288,6
2020-04-16,2108,510,1583,1168,490,670,5
2020-04-17,2216,525,1686,1208,501,706,7
2020-04-18,752,188,563,342,175,167,5
2020-04-19,746,183,562,341,169,172,8
2020-04-20,2393,537,1855,1058,507,551,7
2020-04-21,2481,480,1999,1032,449,583,6
2020-04-22,2298,548,1748,1127,528,599,7
2020-04-23,2511,494,2015,1115,465,650,11
2020-04-24,3481,722,2755,1587,683,902,5
2020-04-25,4740,1338,3367,2821,1279,1536,7
2020-04-26,1243,199,1015,483,161,319,8
2020-04-27,3387,603,2723,1440,561,864,9
2020-04-28,3827,699,3095,1728,658,1063,11
2020-04-29,4089,572,3391,1758,525,1204,13
2020-04-30,4062,489,3520,1767,447,1303,9
2020-05-01,3490,438,3007,1394,397,990,11
2020-05-02,1245,201,1030,514,174,339,6
2020-05-03,1317,158,1157,454,124,330,14
2020-05-04,3979,654,3290,1820,601,1212,18
2020-05-05,4437,551,3858,2008,513,1488,10
2020-05-06,4328,410,3895,1558,372,1183,9
2020-05-07,3977,405,3526,1555,366,1174,12
2020-05-08,3780,379,3372,1581,340,1230,11
2020-05-09,1634,142,1491,641,121,520,13
2020-05-10,1594,142,1449,606,118,488,17
2020-05-11,5129,487,4562,1975,436,1527,14
2020-05-12,5315,444,4852,1951,405,1543,14
2020-05-13,4670,360,4301,1739,306,1431,13
2020-05-14,4964,404,4536,1648,350,1292,17
2020-05-15,4262,371,3869,1625,313,1306,7
2020-05-16,2116,184,1927,799,148,651,11
2020-05-17,2021,168,1845,763,122,641,11
2020-05-18,7820,860,6875,2971,786,2179,16
2020-05-19,6970,734,6186,2794,635,2155,17
2020-05-20,6255,503,5704,2233,442,1782,13
2020-05-21,5474,596,4839,2009,477,1523,11
2020-05-22,6160,367,5724,2313,308,1994,19
2020-05-23,1531,149,1379,611,119,492,7
2020-05-24,1837,164,1670,699,100,599,20
2020-05-25,1792,115,1673,663,88,575,10
2020-05-26,7672,565,7017,3000,468,2503,11
2020-05-27,7467,484,6949,2629,394,2229,13
2020-05-28,7006,539,6434,2676,437,2231,10
2020-05-29,6581,413,6141,2472,359,2109,12
2020-05-30,2209,158,2048,902,121,781,6
2020-05-31,2223,108,2112,852,76,776,10
2020-06-01,7408,578,6804,2913,476,2431,7
2020-06-02,6994,393,6582,2740,334,2402,12
2020-06-03,6795,467,6307,2598,382,2214,10
2020-06-04,6936,413,6500,2434,340,2088,8
2020-06-05,5987,430,5526,2483,357,2117,10
2020-06-06,2314,113,2193,884,90,794,8
2020-06-07,2130,89,2038,843,56,787,7
2020-06-08,8045,597,7418,3062,477,2578,8
2020-06-09,6967,369,6574,2673,311,2355,3
2020-06-10,6923,396,6492,2530,328,2192,8
2020-06-11,6651,317,6299,2371,266,2101,2
2020-06-12,6942,330,6574,2480,269,2203,5
2020-06-13,2231,96,2133,893,77,815,5
2020-06-14,2193,76,2114,854,55,799,5
2020-06-15,8516,527,7931,3165,442,2713,9
2020-06-16,7784,431,7318,2912,363,2543,4
2020-06-17,7459,437,6967,2711,374,2327,3
2020-06-18,7933,432,7150,2693,344,2293,2
2020-06-19,8370,516,7778,3192,456,2723,6
2020-06-20,2586,119,2460,1102,104,997,3
2020-06-21,2351,98,2248,955,81,874,0
2020-06-22,10029,640,9254,4002,551,3423,2
2020-06-23,9503,551,8920,3651,486,3158,4
2020-06-24,8646,470,8138,3263,422,2830,0
2020-06-25,9430,542,8832,3459,476,2974,4
2020-06-26,8494,523,7937,3349,449,2890,8
2020-06-27,3002,174,2823,1318,159,1159,2
2020-06-28,3026,187,2833,1309,168,1139,4
2020-06-29,11223,799,10336,4618,697,3905,0
2020-06-30,9879,770,9065,3931,683,3235,1
2020-07-01,9400,643,8707,3656,572,3064,4
2020-07-02,10184,770,9344,4215,683,3516,3
2020-07-03,3824,271,3548,1584,247,1336,9
2020-07-04,1923,122,1800,823,99,724,1
2020-07-05,3194,223,2966,1377,200,1177,3
2020-07-06,12247,875,11299,5314,763,4538,4
2020-07-07,11639,802,10782,4669,721,3936,3
2020-07-08,11415,921,10442,4297,812,3476,4
2020-07-09,10096,867,9184,4038,763,3265,2
2020-07-10,10129,626,9476,4085,558,3524,6
2020-07-11,3765,236,3519,1612,209,1401,6
2020-07-12,3275,217,3054,1441,201,1238,6
2020-07-13,12629,903,11655,5158,781,4365,7
2020-07-14,11011,737,10220,4353,625,3716,4
2020-07-15,10724,746,9919,4188,655,3521,6
2020-07-16,9019,670,8323,3794,556,3231,5
2020-07-17,8739,604,8091,3692,513,3173,7
2020-07-18,3336,178,3146,1504,150,1350,6
2020-07-19,2769,149,2616,1150,132,1018,3
2020-07-20,11980,895,11023,4977,737,4227,9
2020-07-21,10056,706,9300,4032,577,3444,9
2020-07-22,9481,742,8692,3787,583,3199,8
2020-07-23,8787,717,8011,3498,579,2908,7
2020-07-24,9032,661,8326,3712,548,3159,6
2020-07-25,2724,159,2553,1229,133,1093,6
2020-07-26,2638,168,2464,1122,143,979,5
2020-07-27,10865,861,9937,4692,732,3953,13
2020-07-28,9634,730,8844,3935,585,3340,8
2020-07-29,8563,706,7817,3567,596,2964,6
2020-07-30,7818,736,7049,3361,621,2731,7
2020-07-31,8130,629,7474,3555,538,3011,3
2020-08-01,2607,165,2435,1126,136,989,6
2020-08-02,2710,143,2559,1095,129,966,8
2020-08-03,12569,947,11542,5000,828,4163,8
2020-08-04,10772,781,9936,4292,677,3607,9
2020-08-05,9788,647,9088,3685,533,3149,7
2020-08-06,8490,612,7827,3337,521,2806,6
2020-08-07,9443,680,8700,3754,537,3208,11
2020-08-08,3023,209,2807,1261,184,1077,7
2020-08-09,2781,168,2604,1073,154,919,6
2020-08-10,9211,735,8385,3734,645,3079,7
2020-08-11,9291,635,8601,3555,540,3003,10
2020-08-12,11063,823,10129,4315,692,3611,3
2020-08-13,9490,810,8613,3601,676,2920,13
2020-08-14,9764,767,8885,4124,677,3402,10
2020-08-15,3548,222,3300,1530,203,1324,5
2020-08-16,3127,207,2905,1425,181,1243,5
2020-08-17,11221,1146,9993,5089,1016,4061,9
2020-08-18,10683,839,9764,4201,765,3418,9
2020-08-19,9433,855,8516,4037,785,3238,4
2020-08-20,9005,815,8129,3797,736,3041,17
2020-08-21,9280,897,8309,3911,774,3125,11
2020-08-22,3086,311,2767,1458,284,1173,10
2020-08-23,3629,355,3251,1506,322,1179,12
2020-08-24,12525,1552,10863,5727,1435,4270,6
2020-08-25,11548,1334,10110,4855,1222,3624,11
2020-08-26,10545,1347,9062,4459,1234,3207,9
2020-08-27,10255,1304,8824,4726,1192,3514,12
2020-08-28,10698,1306,9343,4886,1188,3683,11
2020-08-29,3402,317,3074,1596,298,1297,12
2020-08-30,3604,293,3307,1505,275,1230,6
2020-08-31,13342,1272,12006,6052,1177,4868,10
2020-09-01,12609,1065,11504,5286,960,4322,10
2020-09-02,13184,1219,11909,5082,1130,3950,5
2020-09-03,13798,1011,12752,4719,922,3795,14
2020-09-04,12909,1018,11826,4628,902,3716,10
2020-09-05,3780,267,3506,1555,238,1316,6
2020-09-06,3840,262,3570,1663,241,1422,8
2020-09-07,3561,285,3269,1360,273,1087,13
2020-09-08,23744,1364,22319,7030,1233,5788,11
2020-09-09,14926,996,13894,5287,899,4384,9
2020-09-10,15294,942,14288,4787,861,3918,10
2020-09-11,16149,1016,15084,5079,905,4169,6
2020-09-12,3995,249,3742,1805,229,1576,4
2020-09-13,3676,275,3396,1518,243,1275,5
2020-09-14,21054,1675,19305,7182,1572,5597,8
2020-09-15,18978,1075,17863,5515,991,4521,4
2020-09-16,13374,1124,12220,5030,1027,4002,8
2020-09-17,16352,1068,15247,4791,982,3804,9
2020-09-18,14564,1129,13398,5085,1026,4051,6
2020-09-19,4463,345,4110,1954,321,1632,9
2020-09-20,3797,302,3489,1606,274,1332,5
2020-09-21,21367,1492,19830,7453,1420,6023,4
2020-09-22,21206,1291,19863,6631,1210,5416,6
2020-09-23,15988,1107,14847,5746,1046,4693,13
2020-09-24,17884,1006,16838,5235,929,4300,11
2020-09-25,15220,1004,14189,5365,942,4421,12
2020-09-26,4055,296,3747,1786,274,1509,12
2020-09-27,3817,266,3546,1570,247,1322,10
2020-09-28,22530,1537,20959,7256,1468,5786,10
2020-09-29,20099,1063,18993,5743,993,4744,11
2020-09-30,15651,1031,14589,5345,959,4381,12
2020-10-01,16830,943,15850,4613,878,3731,14
2020-10-02,14979,951,13978,5144,886,4250,10
2020-10-03,4232,390,3834,1949,355,1592,17
2020-10-04,4095,320,3769,1709,291,1416,9
2020-10-05,25527,1757,23710,8155,1675,6464,17
2020-10-06,23570,1309,22222,6768,1211,5553,7
2020-10-07,16637,1329,15267,6105,1255,4844,22
2020-10-08,19247,1329,17890,5580,1221,4354,16
2020-10-09,16102,1285,14791,5873,1198,4673,23
2020-10-10,4213,405,3800,1989,364,1624,11
2020-10-11,4252,372,3877,1827,347,1480,15
2020-10-12,26609,2014,24547,8151,1940,6202,18
2020-10-13,23111,1433,21642,6917,1328,5586,6
2020-10-14,15590,1356,14211,5862,1260,4598,17
2020-10-15,20830,1325,19485,5626,1236,4387,20
2020-10-16,16181,1228,14913,6009,1129,4876,21
2020-10-17,4434,432,3992,2235,371,1860,20
2020-10-18,4290,368,3914,1870,334,1533,11
2020-10-19,28116,2088,25918,8481,1985,6483,20
2020-10-20,22769,1496,21200,6835,1416,5413,27
2020-10-21,16637,1694,14902,6490,1590,4895,16
2020-10-22,21635,1812,19790,6351,1693,4651,24
2020-10-23,17080,1699,15335,6443,1572,4864,17
2020-10-24,4896,688,4198,2425,634,1789,14
2020-10-25,5544,596,4938,2250,552,1698,15
2020-10-26,31066,3312,27666,9752,3181,6560,14
2020-10-27,26134,2688,23386,8481,2526,5944,12
2020-10-28,20138,2804,17282,8497,2639,5848,21
2020-10-29,27328,3164,24105,8877,3033,5831,22
2020-10-30,21765,3012,18709,8835,2834,5993,22
2020-10-31,6444,1204,5228,3210,1142,2067,24
2020-11-01,7322,1243,6058,3186,1163,2020,33
2020-11-02,37824,5569,32193,13624,5371,8243,39
2020-11-03,32692,5089,27521,12751,4927,7800,28
2020-11-04,25785,5216,20503,12478,5021,7444,30
2020-11-05,35596,5463,30045,13145,5239,7885,54
2020-11-06,29304,5131,24023,13074,4879,8169,39
2020-11-07,8917,2185,6716,5126,2097,3028,33
2020-11-08,10182,2097,8042,4686,1881,2797,47
2020-11-09,46037,7850,38121,18560,7546,10994,36
2020-11-10,34446,5783,28583,14964,5518,9428,45
2020-11-11,22935,4658,18230,11963,4484,7471,40
2020-11-12,41991,5707,36200,15788,5439,10324,63
2020-11-13,31300,4619,26604,13975,4326,9634,37
2020-11-14,8881,1683,7163,4837,1567,3253,39
2020-11-15,8368,1544,6779,4486,1355,3119,50
2020-11-16,47138,6385,40672,18463,6175,12276,49
2020-11-17,35925,5019,30791,15616,4700,10894,60
2020-11-18,26827,4376,22348,14175,4136,10024,61
2020-11-19,39423,4110,35204,14284,3883,10376,74
2020-11-20,31417,3796,27534,13268,3546,9707,62
2020-11-21,9497,1407,8064,4972,1302,3662,61
2020-11-22,8738,1249,7452,4096,1123,2965,51
2020-11-23,45146,4639,40313,15628,4393,11201,61
2020-11-24,28552,3228,25177,11560,3012,8515,38
2020-11-25,28631,2906,25659,9674,2718,6946,64
2020-11-26,5135,473,4631,1456,351,1098,64
2020-11-27,23329,2679,20575,8032,2517,5498,60
2020-11-28,7204,1196,5993,3424,1105,2317,62
2020-11-29,6807,1047,5640,3345,886,2411,54
2020-11-30,39035,4355,34515,13378,4128,9220,71
2020-12-01,27537,3073,24352,10849,2871,7956,62
2020-12-02,18820,2460,16279,9397,2312,7074,55
2020-12-03,30161,2413,27685,9035,2259,6767,58
2020-12-04,23287,2144,21087,8720,1985,6726,54
2020-12-05,6354,897,5443,3355,822,2532,54
2020-12-06,5943,694,5235,2995,609,2383,52
2020-12-07,36587,3196,33327,11921,2969,8939,48
2020-12-08,25462,2193,23206,9270,2037,7220,55
2020-12-09,16357,1868,14417,8046,1753,6283,47
2020-12-10,28832,1973,26797,8194,1842,6340,36
2020-12-11,20684,1732,18819,7866,1609,6241,44
2020-12-12,5316,569,4736,2698,518,2177,46
2020-12-13,5632,598,5007,2873,554,2317,34
2020-12-14,33947,2757,31057,11092,2607,8473,40
2020-12-15,23717,1874,21765,8877,1751,7113,30
2020-12-16,16428,1795,14570,8025,1662,6352,47
2020-12-17,28514,1684,26785,7989,1584,6396,42
2020-12-18,21257,1574,19639,8669,1474,7185,26
2020-12-19,6115,647,5454,3189,614,2574,35
2020-12-20,6236,609,5594,3191,544,2636,17
2020-12-21,37991,2586,35318,11311,2455,8846,40
2020-12-22,19408,1735,17637,8660,1593,7054,34
2020-12-23,21692,1415,20245,7669,1320,6341,31
2020-12-24,17344,1012,16315,4544,927,3613,33
2020-12-25,2610,180,2429,799,158,641,36
2020-12-26,7148,978,6160,4010,925,3082,25
2020-12-27,6481,733,5733,3117,635,2481,35
2020-12-28,35239,2863,32287,10673,2714,7947,28
2020-12-29,13801,1456,12330,5656,1368,4284,18
2020-12-30,19685,1969,17684,7445,1879,5560,27
2020-12-31,22346,1668,20663,6502,1575,4927,23
2021-01-01,4261,381,3876,1456,350,1104,23
2021-01-02,6990,1077,5906,3942,1028,2911,30
2021-01-03,6422,816,5581,3545,714,2824,18
2021-01-04,36108,3450,32553,13255,3312,9932,20
2021-01-05,21990,2151,19769,9371,2012,7345,25
2021-01-06,15962,1876,14019,8218,1774,6438,28
2021-01-07,26083,1631,24410,8148,1555,6585,21
2021-01-08,19823,1677,18034,9214,1588,7608,32
2021-01-09,5970,589,5375,3340,533,2806,31
2021-01-10,5535,595,4931,3132,532,2596,26
2021-01-11,34095,2470,31522,11624,2324,9288,19
2021-01-12,20752,1514,19184,8766,1402,7357,17
2021-01-13,15405,1431,13923,8209,1323,6875,18
2021-01-14,25660,1360,24265,8022,1265,6752,17
2021-01-15,13247,871,12346,5309,820,4480,7
2021-01-16,5895,633,5250,3316,589,2726,16
2021-01-17,5526,470,5005,3000,399,2594,14
2021-01-18,28850,1599,27169,9440,1542,7885,16
2021-01-19,23574,1717,21794,10454,1589,8855,11
2021-01-20,15094,1237,13821,7820,1153,6665,11
2021-01-21,24942,1284,23616,8611,1198,7408,9
2021-01-22,17997,1195,16687,8511,1115,7391,18
2021-01-23,5705,507,5188,3319,466,2853,16
2021-01-24,5790,451,5313,3185,384,2798,17
2021-01-25,29115,1436,27562,9759,1356,8396,12
2021-01-26,16539,890,15619,6760,833,5923,8
2021-01-27,16584,1271,15185,9047,1192,7846,19
2021-01-28,22551,1047,21429,8265,985,7273,8
2021-01-29,17454,1071,16275,7999,982,7013,7
2021-01-30,5138,424,4703,3238,390,2847,7
2021-01-31,5062,352,4698,2910,320,2585,6
2021-02-01,28800,1489,27195,11445,1412,10018,6
2021-02-02,19756,1003,18676,9498,941,8552,6
2021-02-03,14608,916,13623,8768,857,7908,8
2021-02-04,15123,484,14584,5473,454,5013,2
2021-02-05,16111,866,15157,8518,789,7725,8
2021-02-06,4727,312,4411,3149,286,2862,4
2021-02-07,4793,313,4459,3488,269,3210,1
2021-02-08,26127,1230,24784,17789,1162,16620,1
2021-02-09,17720,799,16841,14218,751,13460,0
2021-02-10,10558,653,9887,9249,604,8642,0
2021-02-11,10050,250,9791,8547,238,8307,0
2021-02-12,385,17,368,312,14,298,0
