Date,State - Total Tests,State - Positive Tests,State - Negative Tests,State - Individuals Tested,State - Individuals Positive,State - Individuals Negative,State - Deaths
2020-03-11,28,2,26,12,2,10,0
2020-03-12,68,2,66,26,2,24,0
2020-03-13,121,6,115,55,6,49,0
2020-03-14,99,3,96,51,2,49,0
2020-03-15,125,1,124,47,1,46,0
2020-03-16,436,19,417,180,20,160,0
2020-03-17,462,23,439,192,22,170,0
2020-03-18,437,27,410,176,26,150,0
2020-03-19,455,30,425,178,28,150,0
2020-03-20,497,27,469,179,26,153,0
2020-03-21,265,16,249,99,15,84,0
2020-03-22,272,19,253,103,18,85,0
2020-03-23,863,54,805,315,52,262,0
2020-03-24,849,58,791,306,56,250,1
2020-03-25,843,70,773,308,65,243,0
2020-03-26,934,67,866,311,64,247,1
2020-03-27,899,71,826,338,69,269,2
2020-03-28,453,41,411,171,40,131,1
2020-03-29,362,39,323,138,36,102,1
2020-03-30,1154,115,1039,430,114,316,1
2020-03-31,1010,81,929,361,78,283,4
2020-04-01,996,89,905,377,83,294,2
2020-04-02,1055,86,969,367,83,284,1
2020-04-03,966,100,865,380,94,286,5
2020-04-04,415,57,358,159,54,105,3
2020-04-05,435,68,364,188,66,121,5
2020-04-06,1294,138,1155,486,131,355,0
2020-04-07,1168,122,1044,430,116,314,2
2020-04-08,1069,117,951,420,112,308,3
2020-04-09,967,123,844,387,114,273,5
2020-04-10,1139,248,889,526,241,285,3
2020-04-11,454,80,372,190,73,117,4
2020-04-12,371,62,309,151,56,95,4
2020-04-13,1219,216,1001,522,200,321,6
2020-04-14,1215,171,1043,467,154,313,3
2020-04-15,1316,191,1124,473,182,291,6
2020-04-16,2108,510,1583,1170,490,672,5
2020-04-17,2216,525,1686,1211,501,709,7
2020-04-18,752,188,563,344,175,169,5
2020-04-19,746,183,562,342,169,173,8
2020-04-20,2393,537,1855,1064,507,557,7
2020-04-21,2481,480,1999,1035,449,586,6
2020-04-22,2297,548,1747,1131,528,603,7
2020-04-23,2511,494,2015,1120,465,655,11
2020-04-24,3481,722,2755,1593,683,908,5
2020-04-25,4737,1338,3364,2836,1280,1550,7
2020-04-26,1243,199,1015,483,161,319,8
2020-04-27,3387,603,2723,1445,561,869,9
2020-04-28,3827,699,3095,1745,658,1080,11
2020-04-29,4088,572,3390,1765,525,1211,13
2020-04-30,4062,489,3520,1777,447,1313,9
2020-05-01,3489,438,3006,1402,397,998,11
2020-05-02,1245,201,1030,515,174,340,6
2020-05-03,1316,158,1156,457,124,333,14
2020-05-04,3975,654,3287,1828,601,1220,18
2020-05-05,4433,551,3854,2013,513,1493,10
2020-05-06,4328,410,3895,1572,372,1197,9
2020-05-07,3975,405,3524,1582,366,1201,12
2020-05-08,3779,379,3371,1591,340,1240,11
2020-05-09,1634,142,1491,643,121,522,13
2020-05-10,1594,142,1449,609,118,491,17
2020-05-11,5127,486,4563,1989,436,1542,14
2020-05-12,5315,444,4852,1967,405,1559,14
2020-05-13,4667,360,4298,1751,306,1443,13
2020-05-14,4964,404,4536,1657,350,1301,17
2020-05-15,4262,371,3869,1637,313,1318,7
2020-05-16,2116,184,1927,809,148,661,11
2020-05-17,2021,168,1845,769,122,647,11
2020-05-18,7818,860,6873,2992,786,2200,16
2020-05-19,6969,734,6185,2812,635,2172,17
2020-05-20,6254,503,5703,2246,442,1795,13
2020-05-21,5471,596,4836,2023,477,1537,11
2020-05-22,6156,368,5719,2328,308,2009,19
2020-05-23,1529,149,1377,613,119,494,7
2020-05-24,1837,164,1670,703,100,603,20
2020-05-25,1792,115,1673,672,88,584,10
2020-05-26,7672,564,7018,3017,468,2520,11
2020-05-27,7466,484,6948,2650,394,2250,13
2020-05-28,7002,539,6430,2695,437,2250,10
2020-05-29,6574,413,6134,2489,359,2126,12
2020-05-30,2207,158,2046,907,121,786,6
2020-05-31,2223,108,2112,860,76,784,10
2020-06-01,7406,578,6802,2934,476,2452,7
2020-06-02,6986,393,6574,2762,334,2424,12
2020-06-03,6792,467,6304,2620,382,2236,10
2020-06-04,6934,413,6498,2457,340,2111,8
2020-06-05,5984,430,5523,2499,357,2133,10
2020-06-06,2313,113,2192,890,90,800,8
2020-06-07,2130,89,2038,849,56,793,7
2020-06-08,8044,597,7417,3085,477,2601,8
2020-06-09,6967,369,6574,2687,311,2369,3
2020-06-10,6920,396,6489,2554,328,2216,8
2020-06-11,6651,318,6298,2391,266,2121,2
2020-06-12,6937,330,6569,2498,269,2221,5
2020-06-13,2231,96,2133,901,77,823,5
2020-06-14,2192,76,2113,856,55,801,5
2020-06-15,8516,527,7931,3190,442,2738,9
2020-06-16,7783,431,7317,2928,363,2559,4
2020-06-17,7455,437,6963,2729,374,2345,3
2020-06-18,7931,432,7148,2710,344,2310,2
2020-06-19,8366,516,7774,3209,456,2740,6
2020-06-20,2585,119,2459,1121,104,1016,3
2020-06-21,2351,98,2248,962,81,881,0
2020-06-22,10025,640,9250,4031,551,3452,2
2020-06-23,9501,551,8918,3680,486,3187,4
2020-06-24,8646,470,8138,3296,422,2863,0
2020-06-25,9429,542,8831,3495,476,3010,4
2020-06-26,8491,523,7934,3373,451,2912,8
2020-06-27,3001,174,2822,1330,159,1171,2
2020-06-28,3026,187,2833,1314,168,1144,4
2020-06-29,11222,799,10335,4650,697,3937,0
2020-06-30,9879,770,9065,3954,683,3258,1
2020-07-01,9399,643,8706,3686,572,3094,4
2020-07-02,10181,770,9341,4238,683,3539,3
2020-07-03,3822,272,3545,1588,247,1340,9
2020-07-04,1921,122,1798,829,99,730,1
2020-07-05,3192,223,2964,1386,200,1186,3
2020-07-06,12242,875,11294,5358,763,4582,4
2020-07-07,11637,802,10780,4706,721,3973,3
2020-07-08,11411,921,10438,4327,812,3506,4
2020-07-09,10096,867,9184,4067,763,3293,2
2020-07-10,10127,626,9474,4122,558,3561,6
2020-07-11,3764,236,3518,1623,209,1412,6
2020-07-12,3275,217,3054,1453,202,1249,6
2020-07-13,12626,903,11652,5203,781,4410,7
2020-07-14,11004,737,10212,4390,625,3753,4
2020-07-15,10716,746,9911,4230,655,3562,6
2020-07-16,9019,670,8323,3823,556,3260,5
2020-07-17,8738,604,8090,3717,513,3198,7
2020-07-18,3336,178,3146,1519,150,1365,6
2020-07-19,2768,149,2615,1152,132,1020,3
2020-07-20,11977,895,11020,5013,737,4263,9
2020-07-21,10055,706,9299,4068,577,3480,9
2020-07-22,9478,741,8690,3819,583,3231,8
2020-07-23,8784,716,8009,3534,579,2944,7
2020-07-24,9028,661,8322,3745,548,3192,6
2020-07-25,2724,159,2553,1238,133,1102,6
2020-07-26,2637,168,2463,1134,143,991,5
2020-07-27,10863,861,9935,4733,732,3994,13
2020-07-28,9630,730,8840,3970,584,3376,8
2020-07-29,8564,706,7818,3601,597,2997,6
2020-07-30,7816,737,7046,3387,624,2754,7
2020-07-31,8129,629,7473,3586,538,3042,3
2020-08-01,2607,165,2435,1143,136,1006,6
2020-08-02,2709,143,2558,1108,131,977,8
2020-08-03,12563,947,11536,5044,829,4206,8
2020-08-04,10771,781,9935,4325,677,3640,9
2020-08-05,9785,647,9085,3717,533,3180,7
2020-08-06,8486,612,7823,3374,521,2843,6
2020-08-07,9443,680,8700,3789,538,3242,11
2020-08-08,3022,209,2806,1274,185,1089,7
2020-08-09,2780,168,2603,1083,155,928,6
2020-08-10,9209,735,8383,3760,645,3105,7
2020-08-11,9290,635,8599,3588,540,3036,10
2020-08-12,11062,823,10128,4350,692,3646,3
2020-08-13,9483,810,8606,3631,677,2949,13
2020-08-14,9760,767,8881,4149,677,3427,10
2020-08-15,3546,222,3298,1544,204,1337,5
2020-08-16,3125,207,2903,1442,181,1260,5
2020-08-17,11216,1146,9988,5135,1016,4107,9
2020-08-18,10676,839,9757,4242,765,3458,9
2020-08-19,9430,855,8513,4070,785,3271,4
2020-08-20,9004,815,8128,3821,736,3065,17
2020-08-21,9277,897,8306,3950,774,3164,11
2020-08-22,3085,311,2766,1465,284,1180,10
2020-08-23,3629,355,3251,1516,322,1189,12
2020-08-24,12521,1551,10860,5774,1435,4317,6
2020-08-25,11545,1334,10108,4887,1223,3655,11
2020-08-26,10542,1347,9058,4482,1234,3230,9
2020-08-27,10253,1304,8822,4765,1192,3553,12
2020-08-28,10696,1307,9340,4922,1188,3719,11
2020-08-29,3402,317,3074,1607,298,1308,12
2020-08-30,3603,293,3306,1529,276,1253,6
2020-08-31,13337,1272,12001,6103,1178,4918,10
2020-09-01,12604,1065,11499,5341,960,4375,10
2020-09-02,13181,1219,11906,5134,1130,4002,5
2020-09-03,13783,1011,12737,4751,923,3826,14
2020-09-04,12894,1018,11811,4670,903,3756,10
2020-09-05,3754,267,3480,1555,238,1316,6
2020-09-06,3815,262,3545,1663,241,1422,8
2020-09-07,3538,285,3246,1360,273,1087,13
2020-09-08,23675,1364,22251,7047,1234,5805,11
2020-09-09,14915,996,13883,5340,900,4436,9
2020-09-10,15291,942,14285,4844,862,3974,10
2020-09-11,16145,1016,15080,5138,905,4228,6
2020-09-12,3994,249,3741,1823,229,1594,4
2020-09-13,3673,275,3393,1535,243,1292,5
2020-09-14,21044,1675,19295,7241,1572,5656,8
2020-09-15,18967,1075,17852,5552,991,4557,4
2020-09-16,13370,1123,12216,5096,1029,4066,8
2020-09-17,16341,1068,15237,4837,983,3849,9
2020-09-18,14556,1129,13390,5125,1027,4090,6
2020-09-19,4461,345,4108,1971,321,1648,9
2020-09-20,3796,302,3488,1624,274,1350,5
2020-09-21,21359,1492,19822,7531,1420,6101,4
2020-09-22,21198,1291,19855,6695,1210,5480,6
2020-09-23,15982,1107,14841,5806,1046,4753,13
2020-09-24,17881,1006,16835,5282,929,4347,11
2020-09-25,15213,1004,14182,5405,942,4461,12
2020-09-26,4054,296,3747,1802,274,1525,12
2020-09-27,3813,266,3542,1585,247,1337,10
2020-09-28,22522,1537,20951,7328,1468,5858,10
2020-09-29,20092,1063,18986,5801,993,4802,11
2020-09-30,15647,1031,14585,5405,960,4440,12
2020-10-01,16825,943,15845,4659,878,3777,14
2020-10-02,14975,951,13974,5200,887,4304,10
2020-10-03,4231,390,3833,1969,355,1612,17
2020-10-04,4095,320,3769,1727,291,1434,9
2020-10-05,25523,1757,23705,8224,1675,6533,17
2020-10-06,23560,1309,22212,6837,1212,5621,7
2020-10-07,16632,1330,15261,6167,1256,4905,22
2020-10-08,19242,1330,17884,5640,1222,4413,16
2020-10-09,16099,1287,14786,5934,1198,4733,23
2020-10-10,4213,405,3800,2014,364,1649,11
2020-10-11,4252,372,3877,1844,347,1497,15
2020-10-12,26600,2011,24541,8243,1940,6294,18
2020-10-13,23105,1434,21635,6983,1327,5653,6
2020-10-14,15575,1358,14194,5911,1260,4647,17
2020-10-15,20823,1324,19479,5694,1238,4453,20
2020-10-16,16174,1228,14906,6067,1129,4934,21
2020-10-17,4433,432,3991,2257,371,1882,20
2020-10-18,4290,368,3914,1890,334,1553,11
2020-10-19,28109,2087,25912,8572,1986,6573,20
2020-10-20,22762,1495,21193,6907,1417,5484,27
2020-10-21,16630,1692,14898,6559,1588,4966,16
2020-10-22,21616,1810,19773,6396,1693,4696,24
2020-10-23,17049,1694,15308,6493,1568,4918,17
2020-10-24,4888,688,4190,2446,634,1810,14
2020-10-25,5542,596,4936,2275,552,1723,15
2020-10-26,31050,3307,27655,9832,3176,6645,14
2020-10-27,26122,2684,23378,8556,2524,6021,12
2020-10-28,20133,2804,17277,8572,2641,5921,21
2020-10-29,27319,3163,24097,8950,3033,5903,22
2020-10-30,21750,3013,18693,8905,2835,6062,22
2020-10-31,6442,1204,5226,3235,1142,2092,24
2020-11-01,7317,1242,6054,3200,1161,2036,33
2020-11-02,37816,5570,32184,13774,5373,8391,39
2020-11-03,32681,5090,27509,12861,4929,7908,28
2020-11-04,25776,5215,20495,12616,5022,7581,30
2020-11-05,35579,5463,30028,13234,5240,7972,54
2020-11-06,29295,5131,24014,13176,4879,8271,39
2020-11-07,8914,2186,6712,5170,2097,3072,33
2020-11-08,10181,2097,8041,4729,1881,2840,47
2020-11-09,46022,7845,38111,18698,7543,11135,36
2020-11-10,34425,5784,28561,15103,5520,9565,45
2020-11-11,22908,4652,18209,12061,4478,7575,40
2020-11-12,41967,5705,36177,15930,5437,10468,63
2020-11-13,31287,4616,26594,14112,4323,9774,37
2020-11-14,8880,1684,7161,4885,1567,3301,39
2020-11-15,8365,1543,6777,4529,1354,3163,50
2020-11-16,47117,6379,40657,18641,6171,12458,49
2020-11-17,35907,5017,30775,15780,4698,11060,60
2020-11-18,26808,4371,22334,14330,4132,10182,61
2020-11-19,39402,4107,35186,14417,3882,10510,74
2020-11-20,31401,3796,27518,13426,3545,9865,62
2020-11-21,9495,1406,8063,5036,1302,3726,61
2020-11-22,8738,1251,7450,4147,1123,3016,50
2020-11-23,45131,4636,40301,15781,4391,11356,61
2020-11-24,28543,3227,25169,11693,3012,8647,38
2020-11-25,28618,2909,25644,9769,2717,7040,63
2020-11-26,5133,472,4630,1473,351,1115,63
2020-11-27,23322,2680,20567,8110,2518,5575,60
2020-11-28,7202,1196,5991,3467,1105,2360,61
2020-11-29,6806,1045,5641,3381,886,2447,54
2020-11-30,39021,4353,34503,13512,4129,9353,71
2020-12-01,27511,3068,24331,10972,2867,8083,62
2020-12-02,18810,2458,16271,9508,2312,7185,55
2020-12-03,30142,2410,27669,9149,2257,6883,58
2020-12-04,23271,2142,21073,8813,1982,6822,54
2020-12-05,6354,897,5443,3399,822,2576,54
2020-12-06,5943,693,5236,3037,609,2425,51
2020-12-07,36555,3192,33298,12076,2967,9096,48
2020-12-08,25445,2190,23192,9387,2035,7339,55
2020-12-09,16347,1868,14407,8149,1752,6387,47
2020-12-10,28816,1970,26784,8298,1840,6446,36
2020-12-11,20675,1735,18807,7965,1609,6340,44
2020-12-12,5310,567,4732,2735,516,2216,44
2020-12-13,5630,598,5005,2909,554,2353,34
2020-12-14,33932,2757,31042,11275,2608,8655,40
2020-12-15,23698,1871,21750,8965,1748,7204,29
2020-12-16,16416,1793,14560,8150,1660,6479,47
2020-12-17,28498,1682,26772,8111,1581,6521,41
2020-12-18,21233,1574,19614,8917,1474,7433,26
2020-12-19,6113,646,5453,3242,613,2628,33
2020-12-20,6234,609,5592,3243,544,2688,16
2020-12-21,37951,2584,35282,11470,2453,9007,40
2020-12-22,19390,1735,17617,8787,1591,7183,33
2020-12-23,21683,1415,20236,7785,1321,6456,30
2020-12-24,17331,1010,16304,4622,926,3692,28
2020-12-25,2608,181,2426,817,158,659,36
2020-12-26,7145,976,6159,4068,924,3141,24
2020-12-27,6478,732,5732,3170,634,2535,32
2020-12-28,35203,2866,32248,10836,2714,8110,25
2020-12-29,13790,1454,12320,5722,1366,4352,16
2020-12-30,19664,1967,17665,7578,1876,5696,25
2020-12-31,22334,1671,20648,6592,1575,5017,21
2021-01-01,4253,380,3869,1479,350,1127,23
2021-01-02,6983,1078,5898,3981,1028,2950,30
2021-01-03,6420,816,5579,3609,714,2888,18
2021-01-04,36064,3449,32510,13469,3311,10147,19
2021-01-05,21954,2149,19735,9548,2011,7523,23
2021-01-06,15871,1873,13931,8352,1773,6573,26
2021-01-07,26033,1630,24361,8288,1554,6726,17
2021-01-08,19778,1674,17991,9383,1587,7778,26
2021-01-09,5964,587,5371,3397,533,2863,29
2021-01-10,5529,596,4924,3200,532,2664,21
2021-01-11,34035,2467,31465,11970,2322,9636,18
2021-01-12,20732,1514,19164,8953,1402,7544,16
2021-01-13,15366,1432,13883,8359,1323,7025,18
2021-01-14,25622,1359,24228,8262,1263,6994,17
2021-01-15,13214,870,12314,5429,818,4602,7
2021-01-16,5869,633,5224,3383,589,2793,14
2021-01-17,5502,470,4981,3046,399,2640,13
2021-01-18,28704,1591,27031,9693,1535,8145,14
2021-01-19,23520,1713,21744,10795,1586,9199,11
2021-01-20,15049,1236,13777,8033,1152,6879,11
2021-01-21,24805,1284,23479,8890,1197,7688,9
2021-01-22,17956,1191,16650,8769,1111,7653,13
2021-01-23,5666,505,5151,3419,465,2954,14
2021-01-24,5760,445,5289,3333,378,2951,15
2021-01-25,28968,1435,27417,10580,1355,9218,12
2021-01-26,16412,888,15494,7241,831,6406,7
2021-01-27,16438,1266,15043,9488,1188,8291,13
2021-01-28,22299,1044,21180,9023,982,8034,4
2021-01-29,17281,1068,16105,8713,980,7729,7
2021-01-30,5082,422,4649,3443,389,3053,6
2021-01-31,4997,350,4636,3386,318,3063,3
2021-02-01,28218,1484,26618,16837,1405,15416,2
2021-02-02,19361,991,18291,13331,931,12392,2
2021-02-03,13830,901,12859,11347,845,10498,3
2021-02-04,13560,456,13050,11259,428,10820,0
2021-02-05,12659,668,11896,10839,620,10214,1
2021-02-06,2086,110,1976,1776,102,1674,0
2021-02-07,1458,77,1380,1309,71,1238,0
2021-02-08,30,3,27,28,3,25,0
