Date,State - Total Tests,State - Positive Tests,State - Negative Tests,State - Individuals Tested,State - Individuals Positive,State - Individuals Negative,State - Deaths
2020-03-11,28,2,26,13,2,11,0
2020-03-12,69,3,66,30,2,28,0
2020-03-13,121,6,115,56,6,50,0
2020-03-14,99,3,96,52,2,50,0
2020-03-15,125,1,124,50,1,49,0
2020-03-16,436,19,417,195,20,175,0
2020-03-17,461,23,438,205,22,183,0
2020-03-18,437,27,410,191,26,165,0
2020-03-19,455,30,425,191,28,163,0
2020-03-20,497,27,469,196,26,170,0
2020-03-21,264,16,248,107,15,92,0
2020-03-22,272,19,253,109,18,91,0
2020-03-23,863,54,805,342,53,288,0
2020-03-24,849,58,791,328,56,272,1
2020-03-25,843,70,773,328,65,263,0
2020-03-26,934,67,866,351,64,287,1
2020-03-27,899,71,826,371,69,302,2
2020-03-28,453,41,411,189,40,149,1
2020-03-29,362,39,323,146,36,110,1
2020-03-30,1154,115,1039,465,114,351,1
2020-03-31,1010,81,929,394,78,316,4
2020-04-01,996,89,905,408,83,325,2
2020-04-02,1055,86,969,403,83,320,1
2020-04-03,966,100,865,402,95,307,5
2020-04-04,415,57,358,175,55,120,3
2020-04-05,435,68,364,194,67,126,5
2020-04-06,1293,138,1154,537,131,406,0
2020-04-07,1168,122,1044,470,116,353,2
2020-04-08,1069,117,951,446,112,334,3
2020-04-09,966,123,843,409,114,295,5
2020-04-10,1139,249,889,556,242,314,3
2020-04-11,454,80,372,203,73,130,4
2020-04-12,371,62,309,160,56,104,4
2020-04-13,1219,216,1001,549,200,348,6
2020-04-14,1215,171,1043,502,154,348,3
2020-04-15,1316,191,1124,516,182,334,6
2020-04-16,2106,510,1581,1227,490,729,5
2020-04-17,2214,525,1684,1271,502,767,7
2020-04-18,751,188,562,354,175,179,5
2020-04-19,746,183,562,361,169,192,8
2020-04-20,2391,537,1853,1116,507,609,7
2020-04-21,2481,480,1999,1096,449,647,6
2020-04-22,2297,548,1747,1188,531,657,7
2020-04-23,2510,494,2014,1189,467,722,11
2020-04-24,3474,722,2748,1701,684,1015,5
2020-04-25,4733,1338,3360,2978,1280,1692,7
2020-04-26,1242,199,1014,520,161,356,8
2020-04-27,3381,603,2719,1530,561,954,9
2020-04-28,3820,699,3090,1867,661,1198,11
2020-04-29,4067,572,3372,1901,526,1343,13
2020-04-30,4047,490,3504,1876,448,1409,9
2020-05-01,3451,438,2971,1504,398,1099,11
2020-05-02,1240,201,1025,545,174,370,6
2020-05-03,1314,158,1154,489,125,364,14
2020-05-04,3936,654,3249,1927,602,1317,18
2020-05-05,4338,551,3763,2070,513,1550,10
2020-05-06,4285,410,3853,1684,373,1308,9
2020-05-07,3939,405,3491,1671,367,1288,12
2020-05-08,3702,378,3299,1664,340,1313,11
2020-05-09,1629,141,1487,681,120,561,13
2020-05-10,1592,142,1447,666,118,548,17
2020-05-11,5075,486,4513,2129,437,1680,14
2020-05-12,5268,444,4806,2104,406,1695,13
2020-05-13,4619,360,4250,1879,306,1571,13
2020-05-14,4947,404,4519,1797,351,1440,17
2020-05-15,4201,371,3810,1751,314,1430,7
2020-05-16,2112,184,1923,885,149,736,11
2020-05-17,2016,168,1840,827,122,705,11
2020-05-18,7777,861,6831,3256,788,2461,16
2020-05-19,6942,734,6158,3058,641,2412,17
2020-05-20,6227,503,5676,2428,444,1975,13
2020-05-21,5447,596,4812,2199,479,1711,11
2020-05-22,6093,367,5657,2523,308,2203,19
2020-05-23,1521,149,1369,666,119,547,7
2020-05-24,1829,164,1662,762,101,661,20
2020-05-25,1773,115,1654,729,88,641,10
2020-05-26,7643,565,6987,3240,468,2742,11
2020-05-27,7419,484,6902,2887,396,2484,13
2020-05-28,6956,539,6384,2935,437,2490,10
2020-05-29,6521,413,6082,2710,359,2347,12
2020-05-30,2189,158,2028,972,121,851,6
2020-05-31,2212,108,2101,946,76,870,10
2020-06-01,7369,578,6767,3151,478,2666,7
2020-06-02,6939,393,6527,3014,334,2676,12
2020-06-03,6766,466,6279,2861,383,2475,10
2020-06-04,6908,413,6472,2650,341,2303,8
2020-06-05,5963,429,5503,2694,357,2328,10
2020-06-06,2298,113,2177,978,90,888,8
2020-06-07,2126,89,2034,926,56,870,7
2020-06-08,8018,597,7391,3338,477,2854,8
2020-06-09,6950,369,6557,2942,313,2621,3
2020-06-10,6901,396,6470,2777,328,2439,8
2020-06-11,6622,317,6271,2586,266,2316,2
2020-06-12,6909,330,6541,2746,271,2466,5
2020-06-13,2217,96,2119,981,77,903,5
2020-06-14,2182,76,2103,938,55,883,5
2020-06-15,8481,527,7898,3506,444,3052,9
2020-06-16,7759,431,7293,3201,364,2831,4
2020-06-17,7433,437,6940,2988,375,2603,3
2020-06-18,7888,432,7113,2941,345,2532,2
2020-06-19,8332,516,7740,3484,456,3013,6
2020-06-20,2572,119,2446,1228,104,1123,3
2020-06-21,2346,98,2243,1056,82,974,0
2020-06-22,9975,640,9204,4384,556,3799,2
2020-06-23,9464,551,8881,4022,487,3527,4
2020-06-24,8598,470,8091,3604,424,3168,0
2020-06-25,9391,542,8794,3779,478,3292,4
2020-06-26,8462,522,7906,3678,451,3217,8
2020-06-27,2983,174,2804,1456,159,1297,2
2020-06-28,3019,187,2826,1433,169,1262,4
2020-06-29,11170,799,10286,5055,698,4340,0
2020-06-30,9804,770,8990,4260,687,3560,1
2020-07-01,9334,643,8641,4010,575,3415,4
2020-07-02,10136,769,9297,4599,683,3898,3
2020-07-03,3806,273,3528,1702,247,1454,9
2020-07-04,1911,122,1788,892,99,793,1
2020-07-05,3185,223,2957,1505,201,1304,3
2020-07-06,12191,875,11244,5839,765,5061,4
2020-07-07,11596,801,10743,5229,724,4491,3
2020-07-08,11337,919,10367,4755,810,3933,4
2020-07-09,10065,867,9154,4423,766,3645,2
2020-07-10,10091,626,9439,4530,559,3967,6
2020-07-11,3747,236,3501,1793,210,1581,6
2020-07-12,3265,217,3044,1573,202,1369,6
2020-07-13,12558,903,11586,5731,781,4935,7
2020-07-14,10959,737,10168,4821,625,4184,4
2020-07-15,10660,746,9855,4618,656,3949,6
2020-07-16,8989,670,8293,4165,556,3602,4
2020-07-17,8710,602,8064,4057,512,3539,7
2020-07-18,3321,178,3131,1657,152,1501,6
2020-07-19,2756,149,2603,1253,133,1120,3
2020-07-20,11915,895,10958,5451,738,4700,8
2020-07-21,10015,706,9260,4464,580,3873,9
2020-07-22,9428,742,8640,4190,583,3602,8
2020-07-23,8736,716,7962,3849,582,3253,7
2020-07-24,8970,661,8264,4127,549,3573,6
2020-07-25,2701,159,2530,1345,133,1209,6
2020-07-26,2611,168,2437,1247,143,1104,5
2020-07-27,10801,861,9874,5176,733,4434,13
2020-07-28,9592,730,8802,4382,586,3785,8
2020-07-29,8534,706,7788,3922,597,3318,6
2020-07-30,7776,737,7006,3667,625,3033,7
2020-07-31,8096,628,7441,3933,537,3390,3
2020-08-01,2599,165,2427,1252,136,1115,6
2020-08-02,2696,143,2545,1218,131,1087,8
2020-08-03,12509,946,11483,5669,829,4831,8
2020-08-04,10727,781,9891,4875,678,4187,9
2020-08-05,9732,646,9033,4257,533,3717,7
2020-08-06,8428,612,7765,3859,522,3326,6
2020-08-07,9401,680,8658,4288,536,3743,11
2020-08-08,2992,209,2776,1374,185,1189,7
2020-08-09,2771,168,2594,1210,156,1053,6
2020-08-10,9157,735,8332,4179,645,3522,7
2020-08-11,9205,635,8514,4009,543,3452,10
2020-08-12,10993,823,10059,5043,692,4337,3
2020-08-13,9449,810,8572,4149,682,3461,13
2020-08-14,9730,767,8851,4694,678,3970,10
2020-08-15,3519,222,3271,1786,205,1578,5
2020-08-16,3090,206,2869,1627,183,1443,5
2020-08-17,11108,1147,9880,5720,1019,4683,9
2020-08-18,10579,838,9661,4776,770,3987,9
2020-08-19,9387,855,8470,4576,790,3772,4
2020-08-20,8954,815,8079,4322,736,3565,17
2020-08-21,9228,897,8257,4377,779,3585,11
2020-08-22,3073,311,2754,1650,284,1365,10
2020-08-23,3613,354,3236,1718,324,1389,12
2020-08-24,12419,1551,10759,6363,1443,4897,6
2020-08-25,11500,1333,10066,5463,1228,4223,11
2020-08-26,10486,1346,9003,4910,1243,3647,9
2020-08-27,10223,1309,8787,5220,1203,3996,12
2020-08-28,10643,1306,9288,5396,1193,4187,11
2020-08-29,3389,317,3061,1776,299,1476,12
2020-08-30,3583,293,3286,1711,278,1433,6
2020-08-31,13263,1270,11929,6739,1182,5550,10
2020-09-01,12548,1066,11443,5910,965,4939,10
2020-09-02,13097,1218,11824,5671,1143,4525,5
2020-09-03,13710,1010,12666,5214,925,4286,13
2020-09-04,12847,1018,11764,5106,907,4186,10
2020-09-05,3734,267,3460,1719,240,1478,6
2020-09-06,3802,262,3532,1833,241,1592,8
2020-09-07,3508,285,3216,1502,274,1228,13
2020-09-08,23445,1364,22022,7781,1237,6535,11
2020-09-09,14811,996,13779,5998,901,5093,9
2020-09-10,15116,941,14112,5338,864,4464,10
2020-09-11,16063,1016,14999,5734,911,4818,6
2020-09-12,3967,249,3714,2043,229,1814,4
2020-09-13,3662,275,3382,1717,243,1474,4
2020-09-14,20918,1674,19170,7973,1582,6378,8
2020-09-15,18666,1072,17554,6139,996,5139,4
2020-09-16,13197,1123,12045,5616,1033,4581,8
2020-09-17,16262,1067,15159,5358,988,4362,9
2020-09-18,14415,1128,13249,5699,1029,4662,6
2020-09-19,4440,344,4088,2173,320,1851,9
2020-09-20,3776,301,3469,1788,276,1512,5
2020-09-21,21166,1492,19629,8310,1425,6875,4
2020-09-22,20854,1290,19512,7421,1212,6204,6
2020-09-23,15826,1106,14686,6444,1047,5389,13
2020-09-24,17658,1004,16614,5859,930,4923,10
2020-09-25,15115,1003,14085,6020,945,5073,12
2020-09-26,4018,296,3711,2005,278,1724,12
2020-09-27,3758,266,3487,1754,247,1506,10
2020-09-28,22369,1536,20799,8148,1475,6670,10
2020-09-29,19759,1060,18658,6423,996,5419,11
2020-09-30,15451,1031,14389,6011,964,5042,12
2020-10-01,16701,941,15723,5188,877,4307,14
2020-10-02,14878,951,13878,5811,889,4913,7
2020-10-03,4199,390,3801,2156,356,1798,16
2020-10-04,4061,320,3736,1958,292,1664,9
2020-10-05,25163,1756,23347,9105,1681,7407,16
2020-10-06,23296,1309,21948,7616,1219,6393,5
2020-10-07,16461,1330,15091,6914,1262,5645,18
2020-10-08,19037,1330,17679,6297,1226,5066,15
2020-10-09,16034,1284,14724,6604,1206,5394,22
2020-10-10,4198,405,3785,2272,364,1907,10
2020-10-11,4136,348,3785,2012,323,1689,14
2020-10-12,26346,2013,24286,9182,1945,7228,15
2020-10-13,22805,1431,21338,7788,1331,6453,5
2020-10-14,15400,1356,14021,6634,1264,5366,14
2020-10-15,20686,1323,19343,6330,1240,5087,19
2020-10-16,15993,1227,14726,6753,1130,5619,21
2020-10-17,4399,432,3957,2492,372,2116,20
2020-10-18,4268,368,3892,2121,336,1782,11
2020-10-19,27892,2087,25695,9605,1988,7604,19
2020-10-20,22583,1496,21014,7731,1420,6305,26
2020-10-21,16560,1693,14826,7379,1594,5780,14
2020-10-22,21360,1807,19520,7193,1693,5493,20
2020-10-23,16956,1694,15216,7270,1569,5694,14
2020-10-24,4866,688,4168,2749,635,2112,11
2020-10-25,5501,594,4896,2538,553,1985,15
2020-10-26,30674,3304,27282,10944,3179,7754,13
2020-10-27,25950,2685,23206,9572,2526,7034,11
2020-10-28,20004,2801,17152,9614,2643,6961,21
2020-10-29,26988,3159,23770,10004,3032,6958,22
2020-10-30,21612,3007,18561,9852,2833,7011,21
2020-10-31,6382,1203,5167,3561,1142,2418,24
2020-11-01,7208,1243,5945,3539,1161,2375,32
2020-11-02,37198,5567,31568,15104,5378,9715,39
2020-11-03,32437,5086,27271,14109,4924,9160,26
2020-11-04,25555,5208,20282,13917,5019,8885,30
2020-11-05,35110,5434,29588,14598,5212,9363,53
2020-11-06,28903,5065,23689,14431,4816,9588,39
2020-11-07,8783,2118,6651,5598,2032,3564,33
2020-11-08,10079,2055,7981,5127,1840,3279,47
2020-11-09,45307,7702,37539,20408,7399,12987,35
2020-11-10,34043,5694,28269,16509,5435,11053,44
2020-11-11,22701,4605,18049,13350,4430,8911,39
2020-11-12,41334,5627,35622,17609,5363,12220,61
2020-11-13,31006,4573,26357,15762,4284,11462,35
2020-11-14,8826,1661,7131,5411,1547,3847,39
2020-11-15,8264,1517,6702,5053,1330,3710,49
2020-11-16,46587,6313,40192,20697,6103,14582,49
2020-11-17,35393,4972,30308,17638,4655,12961,58
2020-11-18,26626,4341,22183,16277,4101,12159,58
2020-11-19,38837,4083,34645,16165,3860,12279,72
2020-11-20,30887,3772,27028,15396,3525,11853,58
2020-11-21,9417,1393,7998,5824,1288,4528,59
2020-11-22,8637,1235,7366,4677,1109,3560,44
2020-11-23,44518,4613,39713,18041,4367,13639,59
2020-11-24,28089,3222,24721,13334,3003,10296,35
2020-11-25,28362,2897,25398,11260,2712,8534,61
2020-11-26,5071,472,4569,1699,350,1341,61
2020-11-27,22849,2670,20104,9260,2512,6729,56
2020-11-28,7121,1191,5915,3948,1101,2844,55
2020-11-29,6741,1041,5580,3861,881,2930,50
2020-11-30,38463,4335,33963,15489,4114,11343,64
2020-12-01,27049,3063,23873,12635,2861,9751,53
2020-12-02,18533,2453,16000,11004,2304,8689,47
2020-12-03,29726,2400,27264,10722,2247,8465,41
2020-12-04,22784,2131,20597,10314,1978,8327,42
2020-12-05,6262,892,5356,3886,819,3065,35
2020-12-06,5892,693,5185,3605,608,2994,39
2020-12-07,35925,3191,32670,14237,2964,11259,26
2020-12-08,24900,2189,22648,11389,2033,9342,27
2020-12-09,16014,1860,14083,9567,1744,7813,22
2020-12-10,28265,1954,26250,10116,1822,8280,14
2020-12-11,20120,1730,18257,9565,1606,7941,9
2020-12-12,5182,563,4608,3279,512,2764,16
2020-12-13,5552,594,4930,3521,552,2966,4
2020-12-14,33203,2739,30331,14366,2592,11760,6
2020-12-15,22952,1854,21022,12274,1732,10528,3
2020-12-16,16108,1774,14271,10784,1642,9129,6
2020-12-17,27483,1650,25789,12204,1555,10639,4
2020-12-18,20354,1553,18758,12207,1451,10744,5
2020-12-19,5894,625,5255,4030,590,3437,2
2020-12-20,5854,572,5250,4412,505,3895,3
2020-12-21,34226,2472,31674,22712,2358,20336,2
2020-12-22,16258,1507,14723,13679,1379,12289,1
2020-12-23,15708,1063,14633,14351,980,13366,0
2020-12-24,7746,269,7477,7112,260,6852,0
2020-12-25,29,4,25,27,4,23,0
