Date,State - Total Tests,State - Positive Tests,State - Negative Tests,State - Individuals Tested,State - Individuals Positive,State - Individuals Negative,State - Deaths
2020-03-11,28,2,26,12,2,10,0
2020-03-12,68,2,66,26,2,24,0
2020-03-13,121,6,115,55,6,49,0
2020-03-14,99,3,96,51,2,49,0
2020-03-15,125,1,124,47,1,46,0
2020-03-16,436,19,417,180,20,160,0
2020-03-17,462,23,439,192,22,170,0
2020-03-18,437,27,410,177,26,151,0
2020-03-19,455,30,425,178,28,150,0
2020-03-20,497,27,469,179,26,153,0
2020-03-21,265,16,249,99,15,84,0
2020-03-22,272,19,253,103,18,85,0
2020-03-23,863,54,805,315,52,262,0
2020-03-24,849,58,791,306,56,250,1
2020-03-25,843,70,773,308,65,243,0
2020-03-26,934,67,866,312,64,248,1
2020-03-27,899,71,826,338,69,269,2
2020-03-28,453,41,411,171,40,131,1
2020-03-29,362,39,323,138,36,102,1
2020-03-30,1154,115,1039,430,114,316,1
2020-03-31,1010,81,929,363,78,285,4
2020-04-01,996,89,905,379,83,296,2
2020-04-02,1055,86,969,367,83,284,1
2020-04-03,966,100,865,380,94,286,5
2020-04-04,415,57,358,159,54,105,3
2020-04-05,435,68,364,189,66,122,5
2020-04-06,1294,138,1155,488,131,357,0
2020-04-07,1168,122,1044,431,116,315,2
2020-04-08,1069,117,951,420,112,308,3
2020-04-09,967,123,844,387,114,273,5
2020-04-10,1139,249,889,526,241,285,3
2020-04-11,454,80,372,190,73,117,4
2020-04-12,371,62,309,151,56,95,4
2020-04-13,1219,216,1001,522,200,321,6
2020-04-14,1215,171,1043,468,154,314,3
2020-04-15,1316,191,1124,475,182,293,6
2020-04-16,2108,510,1583,1170,490,672,5
2020-04-17,2216,525,1686,1212,501,710,7
2020-04-18,752,188,563,344,175,169,5
2020-04-19,746,183,562,342,169,173,8
2020-04-20,2393,537,1855,1064,507,557,7
2020-04-21,2481,481,1998,1037,449,588,6
2020-04-22,2297,548,1747,1131,528,603,7
2020-04-23,2511,494,2015,1121,465,656,11
2020-04-24,3481,722,2755,1593,683,908,5
2020-04-25,4737,1338,3364,2837,1280,1551,7
2020-04-26,1243,199,1015,483,161,319,8
2020-04-27,3387,603,2723,1447,561,871,9
2020-04-28,3827,699,3095,1756,658,1091,11
2020-04-29,4088,572,3390,1768,525,1214,13
2020-04-30,4062,489,3520,1778,447,1314,9
2020-05-01,3489,438,3006,1403,397,999,11
2020-05-02,1245,202,1029,515,174,340,6
2020-05-03,1316,158,1156,458,124,334,14
2020-05-04,3975,654,3287,1830,601,1222,18
2020-05-05,4433,551,3854,2015,513,1495,10
2020-05-06,4327,410,3894,1576,372,1201,9
2020-05-07,3975,405,3524,1587,366,1206,12
2020-05-08,3779,379,3371,1591,340,1240,11
2020-05-09,1634,142,1491,645,121,524,13
2020-05-10,1594,142,1449,609,118,491,17
2020-05-11,5127,487,4559,1990,436,1543,14
2020-05-12,5315,444,4852,1971,405,1563,14
2020-05-13,4667,360,4298,1753,306,1445,13
2020-05-14,4964,404,4536,1660,350,1304,17
2020-05-15,4262,371,3869,1642,313,1323,7
2020-05-16,2116,183,1928,813,148,665,11
2020-05-17,2021,168,1845,770,122,648,11
2020-05-18,7817,860,6872,2996,786,2204,16
2020-05-19,6969,734,6185,2814,635,2174,17
2020-05-20,6253,503,5702,2249,442,1798,13
2020-05-21,5471,596,4836,2027,477,1541,11
2020-05-22,6156,367,5720,2333,308,2014,19
2020-05-23,1529,149,1377,614,119,495,7
2020-05-24,1837,164,1670,705,100,605,20
2020-05-25,1792,115,1673,674,88,586,10
2020-05-26,7672,565,7016,3023,468,2526,11
2020-05-27,7466,484,6948,2653,394,2253,13
2020-05-28,7002,540,6429,2699,438,2253,10
2020-05-29,6573,413,6133,2493,359,2130,12
2020-05-30,2207,158,2046,910,121,789,6
2020-05-31,2223,108,2112,862,76,786,10
2020-06-01,7406,579,6801,2937,476,2455,7
2020-06-02,6986,393,6574,2766,334,2428,12
2020-06-03,6790,466,6303,2625,382,2241,10
2020-06-04,6934,413,6498,2460,340,2114,8
2020-06-05,5984,429,5524,2503,357,2137,10
2020-06-06,2313,113,2192,893,90,803,8
2020-06-07,2130,89,2038,849,56,793,7
2020-06-08,8043,597,7416,3088,477,2604,8
2020-06-09,6967,369,6574,2693,311,2375,3
2020-06-10,6920,396,6489,2559,328,2221,8
2020-06-11,6651,317,6299,2396,266,2126,2
2020-06-12,6936,330,6568,2503,269,2226,5
2020-06-13,2231,96,2133,904,77,826,5
2020-06-14,2192,76,2113,856,55,801,5
2020-06-15,8516,527,7931,3195,442,2743,9
2020-06-16,7783,431,7317,2934,363,2565,4
2020-06-17,7455,437,6963,2733,374,2349,3
2020-06-18,7931,432,7148,2716,344,2316,2
2020-06-19,8366,516,7774,3212,456,2743,6
2020-06-20,2585,119,2459,1126,104,1021,3
2020-06-21,2351,98,2248,965,81,884,0
2020-06-22,10025,640,9250,4040,551,3461,2
2020-06-23,9499,551,8916,3693,486,3200,4
2020-06-24,8646,470,8138,3298,422,2865,0
2020-06-25,9427,542,8829,3501,476,3016,4
2020-06-26,8491,523,7934,3377,451,2916,8
2020-06-27,3001,174,2822,1333,159,1174,2
2020-06-28,3026,187,2833,1315,168,1145,4
2020-06-29,11221,799,10335,4665,697,3952,0
2020-06-30,9879,770,9065,3958,683,3262,1
2020-07-01,9399,643,8706,3698,572,3106,4
2020-07-02,10180,770,9340,4247,683,3548,3
2020-07-03,3821,272,3544,1592,247,1344,9
2020-07-04,1921,122,1798,829,99,730,1
2020-07-05,3192,223,2964,1387,200,1187,3
2020-07-06,12242,875,11294,5370,763,4594,4
2020-07-07,11637,801,10781,4722,721,3989,3
2020-07-08,11411,921,10438,4335,812,3514,4
2020-07-09,10096,867,9184,4072,763,3298,2
2020-07-10,10126,626,9473,4135,558,3574,6
2020-07-11,3764,236,3518,1629,209,1418,6
2020-07-12,3275,217,3054,1457,202,1253,6
2020-07-13,12626,903,11652,5213,781,4420,7
2020-07-14,11004,737,10213,4395,625,3758,4
2020-07-15,10715,747,9909,4241,655,3573,6
2020-07-16,9019,670,8323,3830,556,3267,5
2020-07-17,8738,604,8090,3724,513,3205,7
2020-07-18,3336,178,3146,1523,150,1369,6
2020-07-19,2768,149,2615,1156,132,1024,3
2020-07-20,11977,895,11020,5018,737,4268,9
2020-07-21,10055,706,9299,4073,577,3485,9
2020-07-22,9478,742,8689,3828,583,3240,8
2020-07-23,8784,717,8008,3543,579,2953,7
2020-07-24,9028,662,8322,3757,548,3204,6
2020-07-25,2724,159,2553,1241,133,1105,6
2020-07-26,2637,168,2463,1135,143,992,5
2020-07-27,10862,861,9934,4746,732,4007,13
2020-07-28,9630,730,8840,3976,584,3382,8
2020-07-29,8564,706,7818,3609,597,3005,6
2020-07-30,7816,737,7047,3393,624,2760,7
2020-07-31,8129,629,7473,3590,538,3046,3
2020-08-01,2607,165,2435,1145,136,1008,6
2020-08-02,2709,143,2558,1109,131,978,8
2020-08-03,12562,947,11535,5050,829,4212,8
2020-08-04,10771,781,9935,4335,677,3650,9
2020-08-05,9785,647,9085,3725,533,3188,7
2020-08-06,8486,612,7823,3379,521,2848,6
2020-08-07,9443,679,8700,3797,538,3250,11
2020-08-08,3022,209,2806,1277,185,1092,7
2020-08-09,2780,168,2603,1088,155,933,6
2020-08-10,9208,735,8383,3773,645,3117,7
2020-08-11,9290,635,8599,3601,540,3049,10
2020-08-12,11062,823,10128,4357,692,3653,3
2020-08-13,9482,810,8605,3637,677,2955,13
2020-08-14,9760,766,8882,4158,677,3436,10
2020-08-15,3545,222,3297,1546,204,1339,5
2020-08-16,3125,207,2903,1443,181,1261,5
2020-08-17,11214,1146,9986,5150,1016,4122,9
2020-08-18,10676,839,9757,4252,765,3468,9
2020-08-19,9430,855,8513,4077,785,3278,4
2020-08-20,9004,815,8128,3839,736,3083,17
2020-08-21,9276,897,8305,3959,774,3173,11
2020-08-22,3085,311,2766,1468,284,1183,10
2020-08-23,3629,355,3251,1522,322,1195,12
2020-08-24,12520,1553,10857,5785,1435,4328,6
2020-08-25,11545,1334,10108,4902,1223,3670,11
2020-08-26,10541,1348,9056,4494,1234,3242,9
2020-08-27,10253,1304,8822,4773,1192,3561,12
2020-08-28,10695,1306,9340,4930,1188,3727,11
2020-08-29,3402,317,3074,1609,298,1310,12
2020-08-30,3603,293,3306,1532,276,1256,6
2020-08-31,13335,1272,11999,6116,1178,4931,10
2020-09-01,12604,1065,11499,5357,960,4391,10
2020-09-02,13181,1220,11905,5140,1130,4008,5
2020-09-03,13783,1011,12737,4762,923,3837,14
2020-09-04,12894,1018,11810,4682,903,3768,10
2020-09-05,3754,267,3480,1556,238,1317,6
2020-09-06,3815,262,3545,1667,241,1426,8
2020-09-07,3538,285,3246,1365,273,1092,13
2020-09-08,23673,1364,22249,7063,1234,5821,11
2020-09-09,14914,996,13882,5353,900,4449,9
2020-09-10,15291,942,14285,4856,862,3986,10
2020-09-11,16144,1016,15079,5147,905,4237,6
2020-09-12,3993,249,3740,1825,229,1596,4
2020-09-13,3673,275,3393,1538,243,1295,5
2020-09-14,21043,1674,19295,7254,1572,5669,8
2020-09-15,18967,1075,17852,5567,991,4572,4
2020-09-16,13370,1124,12216,5112,1029,4082,8
2020-09-17,16341,1068,15238,4843,983,3855,9
2020-09-18,14556,1129,13390,5142,1027,4107,6
2020-09-19,4461,345,4108,1974,321,1651,9
2020-09-20,3796,302,3488,1629,274,1355,5
2020-09-21,21359,1492,19822,7550,1421,6119,4
2020-09-22,21198,1291,19855,6714,1210,5499,6
2020-09-23,15982,1107,14841,5824,1046,4771,13
2020-09-24,17880,1006,16834,5293,929,4358,11
2020-09-25,15213,1004,14182,5417,942,4473,12
2020-09-26,4054,295,3747,1804,274,1527,12
2020-09-27,3813,266,3542,1587,247,1339,10
2020-09-28,22522,1537,20951,7343,1468,5873,10
2020-09-29,20092,1063,18986,5811,993,4812,11
2020-09-30,15647,1031,14585,5416,960,4451,12
2020-10-01,16825,943,15845,4676,878,3794,14
2020-10-02,14974,951,13973,5213,887,4317,10
2020-10-03,4230,390,3832,1973,355,1616,17
2020-10-04,4095,320,3769,1730,291,1437,9
2020-10-05,25523,1756,23707,8238,1675,6547,17
2020-10-06,23560,1309,22213,6854,1212,5638,7
2020-10-07,16631,1328,15262,6175,1256,4913,22
2020-10-08,19242,1329,17885,5658,1222,4431,16
2020-10-09,16099,1285,14787,5947,1198,4746,23
2020-10-10,4213,405,3800,2021,364,1656,11
2020-10-11,4252,372,3877,1850,347,1503,15
2020-10-12,26599,2014,24537,8264,1940,6315,18
2020-10-13,23104,1431,21637,7003,1327,5673,6
2020-10-14,15575,1356,14196,5931,1260,4667,17
2020-10-15,20823,1324,19479,5709,1238,4468,20
2020-10-16,16174,1228,14906,6079,1129,4946,21
2020-10-17,4433,432,3991,2263,371,1888,20
2020-10-18,4290,368,3914,1897,335,1559,11
2020-10-19,28109,2089,25910,8596,1986,6597,20
2020-10-20,22761,1498,21190,6924,1417,5501,27
2020-10-21,16630,1691,14898,6582,1588,4989,16
2020-10-22,21616,1810,19773,6416,1693,4716,24
2020-10-23,17049,1694,15309,6503,1568,4928,17
2020-10-24,4888,688,4190,2453,634,1817,14
2020-10-25,5542,595,4936,2284,553,1731,15
2020-10-26,31049,3307,27654,9857,3176,6670,14
2020-10-27,26122,2685,23377,8577,2523,6043,12
2020-10-28,20133,2803,17278,8599,2642,5947,21
2020-10-29,27318,3164,24095,8973,3034,5925,22
2020-10-30,21749,3013,18692,8922,2835,6079,22
2020-10-31,6442,1203,5227,3243,1142,2100,24
2020-11-01,7317,1242,6054,3210,1162,2045,33
2020-11-02,37816,5567,32186,13808,5375,8423,39
2020-11-03,32680,5089,27509,12890,4929,7937,28
2020-11-04,25776,5216,20495,12649,5022,7614,30
2020-11-05,35579,5462,30029,13269,5240,8007,54
2020-11-06,29295,5131,24015,13203,4879,8298,39
2020-11-07,8914,2185,6713,5188,2097,3090,33
2020-11-08,10181,2098,8040,4738,1881,2849,47
2020-11-09,46022,7847,38109,18737,7542,11175,36
2020-11-10,34423,5783,28560,15131,5520,9593,45
2020-11-11,22907,4651,18209,12091,4478,7605,40
2020-11-12,41967,5706,36177,15954,5437,10492,63
2020-11-13,31287,4615,26595,14156,4323,9818,37
2020-11-14,8880,1683,7162,4896,1567,3312,39
2020-11-15,8365,1543,6777,4544,1354,3178,50
2020-11-16,47117,6380,40656,18682,6170,12500,49
2020-11-17,35906,5017,30775,15811,4698,11091,60
2020-11-18,26808,4371,22334,14368,4132,10220,61
2020-11-19,39402,4110,35182,14451,3881,10545,74
2020-11-20,31401,3795,27519,13472,3545,9911,62
2020-11-21,9494,1408,8060,5048,1302,3738,61
2020-11-22,8738,1250,7451,4157,1123,3026,50
2020-11-23,45131,4638,40300,15821,4391,11396,61
2020-11-24,28543,3230,25166,11723,3012,8677,38
2020-11-25,28616,2904,25645,9787,2716,7059,63
2020-11-26,5132,472,4629,1474,350,1117,63
2020-11-27,23322,2678,20569,8134,2518,5599,60
2020-11-28,7202,1195,5992,3475,1105,2368,61
2020-11-29,6806,1046,5640,3387,885,2454,54
2020-11-30,39020,4352,34502,13544,4128,9386,71
2020-12-01,27510,3070,24329,11004,2867,8115,62
2020-12-02,18810,2460,16269,9542,2309,7222,55
2020-12-03,30142,2410,27670,9175,2257,6909,58
2020-12-04,23270,2141,21073,8848,1982,6857,54
2020-12-05,6354,897,5443,3405,822,2582,54
2020-12-06,5943,693,5236,3045,609,2433,51
2020-12-07,36555,3191,33300,12119,2967,9139,48
2020-12-08,25445,2188,23194,9415,2035,7367,55
2020-12-09,16347,1867,14408,8170,1752,6408,47
2020-12-10,28816,1969,26785,8334,1840,6482,36
2020-12-11,20675,1732,18810,7987,1609,6362,44
2020-12-12,5310,567,4732,2743,516,2224,44
2020-12-13,5630,598,5005,2919,554,2363,34
2020-12-14,33932,2759,31040,11295,2608,8675,40
2020-12-15,23697,1871,21748,8992,1748,7231,29
2020-12-16,16416,1792,14561,8181,1660,6510,47
2020-12-17,28498,1683,26770,8137,1581,6547,41
2020-12-18,21233,1574,19615,8961,1474,7477,26
2020-12-19,6113,646,5453,3254,613,2640,33
2020-12-20,6234,608,5593,3256,544,2701,16
2020-12-21,37951,2584,35282,11495,2453,9032,40
2020-12-22,19389,1734,17617,8822,1591,7218,32
2020-12-23,21683,1417,20234,7806,1321,6477,30
2020-12-24,17331,1012,16302,4643,926,3713,28
2020-12-25,2608,180,2427,820,158,662,36
2020-12-26,7145,979,6156,4081,924,3154,24
2020-12-27,6478,733,5731,3180,634,2545,32
2020-12-28,35203,2863,32250,10858,2714,8132,25
2020-12-29,13790,1455,12319,5742,1366,4372,16
2020-12-30,19664,1969,17664,7595,1877,5712,25
2020-12-31,22334,1668,20651,6656,1575,5081,21
2021-01-01,4253,381,3868,1491,350,1139,23
2021-01-02,6983,1077,5899,3998,1028,2967,30
2021-01-03,6420,816,5579,3626,714,2905,18
2021-01-04,36064,3452,32507,13518,3311,10196,19
2021-01-05,21911,2150,19691,9590,2011,7565,23
2021-01-06,15860,1874,13919,8391,1773,6612,26
2021-01-07,25993,1629,24323,8333,1554,6771,17
2021-01-08,19749,1676,17961,9437,1587,7832,26
2021-01-09,5962,589,5367,3411,533,2877,29
2021-01-10,5526,595,4922,3216,532,2680,21
2021-01-11,34021,2468,31449,12031,2322,9697,18
2021-01-12,20675,1514,19107,8988,1402,7579,16
2021-01-13,15360,1432,13877,8405,1324,7070,18
2021-01-14,25565,1358,24172,8313,1263,7045,17
2021-01-15,13200,870,12300,5463,818,4636,7
2021-01-16,5869,632,5225,3409,589,2819,14
2021-01-17,5500,469,4980,3065,399,2659,13
2021-01-18,28698,1593,27023,9776,1535,8228,14
2021-01-19,23474,1712,21699,10857,1586,9261,11
2021-01-20,15034,1236,13762,8087,1152,6933,11
2021-01-21,24745,1284,23419,8947,1197,7745,9
2021-01-22,17935,1191,16629,8891,1111,7775,13
2021-01-23,5664,504,5150,3457,464,2993,14
2021-01-24,5758,446,5286,3370,378,2988,15
2021-01-25,28929,1436,27377,10688,1356,9325,12
2021-01-26,16380,889,15461,7387,830,6553,7
2021-01-27,16437,1266,15042,9636,1187,8440,13
2021-01-28,22262,1041,21146,9273,982,8282,4
2021-01-29,17185,1068,16009,8991,979,8008,7
2021-01-30,5079,422,4646,3508,388,3119,6
2021-01-31,4992,350,4631,3498,318,3175,3
2021-02-01,28117,1484,26516,17740,1405,16318,2
2021-02-02,19137,991,18072,14040,930,13104,2
2021-02-03,13456,870,12522,11320,813,10504,3
2021-02-04,11470,335,11102,9597,313,9283,0
2021-02-05,6400,139,6261,5476,135,5341,0
2021-02-06,1,0,1,0,0,0,0
