Date,State - Total Tests,State - Positive Tests,State - Negative Tests,State - Individuals Tested,State - Individuals Positive,State - Individuals Negative,State - Deaths
2020-03-11,28,2,26,13,2,11,0
2020-03-12,69,3,66,30,2,28,0
2020-03-13,121,6,115,56,6,50,0
2020-03-14,99,3,96,52,2,50,0
2020-03-15,125,1,124,50,1,49,0
2020-03-16,436,20,416,195,20,175,0
2020-03-17,461,23,438,204,22,182,0
2020-03-18,437,27,410,191,26,165,0
2020-03-19,455,30,425,191,28,163,0
2020-03-20,497,27,469,194,26,168,0
2020-03-21,264,16,248,107,15,92,0
2020-03-22,272,19,253,108,18,90,0
2020-03-23,863,54,805,342,53,288,0
2020-03-24,849,58,791,327,56,271,1
2020-03-25,843,70,773,328,65,263,0
2020-03-26,934,67,866,349,64,285,1
2020-03-27,899,71,826,366,69,297,2
2020-03-28,453,41,411,188,40,148,1
2020-03-29,362,39,323,146,36,110,1
2020-03-30,1154,115,1039,464,114,350,1
2020-03-31,1010,81,929,393,78,315,4
2020-04-01,996,89,905,406,83,323,2
2020-04-02,1055,86,969,400,83,317,1
2020-04-03,966,100,865,401,95,306,5
2020-04-04,415,57,358,174,55,119,3
2020-04-05,435,68,364,194,67,126,5
2020-04-06,1293,138,1154,528,131,397,0
2020-04-07,1168,122,1044,469,116,352,2
2020-04-08,1069,117,951,446,112,334,3
2020-04-09,966,123,843,408,114,294,5
2020-04-10,1139,249,889,555,242,313,3
2020-04-11,454,80,372,202,73,129,4
2020-04-12,371,62,309,159,56,103,4
2020-04-13,1219,216,1001,547,200,346,6
2020-04-14,1215,171,1043,497,154,343,3
2020-04-15,1316,191,1124,515,182,333,6
2020-04-16,2106,510,1581,1223,490,725,5
2020-04-17,2214,525,1684,1268,502,764,7
2020-04-18,751,188,562,353,175,178,5
2020-04-19,746,183,562,359,169,190,8
2020-04-20,2391,537,1853,1114,507,607,7
2020-04-21,2481,480,1999,1093,449,644,6
2020-04-22,2297,548,1747,1181,531,650,7
2020-04-23,2510,494,2014,1180,467,713,11
2020-04-24,3475,722,2749,1697,684,1011,5
2020-04-25,4733,1339,3359,2971,1280,1685,7
2020-04-26,1242,199,1014,520,161,356,8
2020-04-27,3381,603,2719,1527,561,951,9
2020-04-28,3820,699,3090,1861,660,1193,11
2020-04-29,4068,572,3373,1894,526,1336,13
2020-04-30,4047,490,3504,1869,448,1402,9
2020-05-01,3457,438,2977,1498,398,1093,11
2020-05-02,1240,201,1025,541,174,366,6
2020-05-03,1314,158,1154,489,125,364,14
2020-05-04,3937,654,3250,1920,602,1310,18
2020-05-05,4339,551,3764,2064,513,1544,10
2020-05-06,4286,410,3854,1677,373,1301,9
2020-05-07,3941,405,3493,1663,367,1280,12
2020-05-08,3703,378,3300,1655,340,1304,11
2020-05-09,1629,141,1487,679,120,559,13
2020-05-10,1592,142,1447,663,118,545,17
2020-05-11,5075,487,4513,2123,437,1674,14
2020-05-12,5271,444,4809,2097,406,1688,13
2020-05-13,4620,360,4251,1870,306,1562,13
2020-05-14,4948,404,4520,1791,351,1434,17
2020-05-15,4202,371,3811,1739,314,1418,7
2020-05-16,2112,184,1923,880,149,731,11
2020-05-17,2017,168,1841,823,122,701,11
2020-05-18,7777,861,6831,3241,788,2446,16
2020-05-19,6942,734,6158,3041,639,2397,17
2020-05-20,6230,503,5679,2416,444,1963,13
2020-05-21,5447,595,4813,2189,479,1701,11
2020-05-22,6095,367,5659,2508,308,2188,19
2020-05-23,1522,149,1370,664,119,545,7
2020-05-24,1829,164,1662,754,100,654,20
2020-05-25,1774,115,1655,724,88,636,10
2020-05-26,7643,565,6987,3227,468,2729,11
2020-05-27,7420,485,6902,2884,396,2481,13
2020-05-28,6956,539,6384,2921,438,2475,10
2020-05-29,6521,413,6082,2700,359,2337,12
2020-05-30,2190,158,2029,968,121,847,6
2020-05-31,2212,108,2101,938,76,862,10
2020-06-01,7371,578,6769,3140,478,2655,7
2020-06-02,6943,393,6531,2994,334,2656,12
2020-06-03,6768,467,6280,2843,383,2457,10
2020-06-04,6910,413,6474,2641,341,2294,8
2020-06-05,5964,430,5503,2682,357,2316,10
2020-06-06,2299,113,2178,971,90,881,8
2020-06-07,2126,89,2034,918,56,862,7
2020-06-08,8018,597,7391,3323,477,2839,8
2020-06-09,6951,369,6558,2926,313,2605,3
2020-06-10,6903,396,6472,2764,328,2426,8
2020-06-11,6622,317,6271,2577,266,2307,2
2020-06-12,6914,331,6545,2729,271,2449,5
2020-06-13,2218,96,2120,975,77,897,5
2020-06-14,2182,76,2103,931,55,876,5
2020-06-15,8483,527,7900,3489,444,3035,9
2020-06-16,7761,431,7295,3180,364,2810,4
2020-06-17,7434,437,6942,2974,375,2589,3
2020-06-18,7905,432,7129,2930,345,2522,2
2020-06-19,8333,516,7741,3470,456,2999,6
2020-06-20,2572,119,2446,1218,104,1113,3
2020-06-21,2346,97,2244,1049,82,967,0
2020-06-22,9977,640,9206,4353,556,3768,2
2020-06-23,9465,552,8881,3995,487,3500,4
2020-06-24,8599,470,8092,3586,424,3150,0
2020-06-25,9395,542,8798,3768,478,3281,4
2020-06-26,8464,522,7908,3655,451,3194,8
2020-06-27,2986,174,2807,1451,159,1292,2
2020-06-28,3020,187,2827,1424,169,1253,4
2020-06-29,11175,799,10291,5028,698,4313,0
2020-06-30,9811,770,8997,4237,687,3537,1
2020-07-01,9336,643,8643,3991,575,3396,4
2020-07-02,10140,769,9301,4586,683,3885,3
2020-07-03,3807,272,3530,1698,247,1450,9
2020-07-04,1912,122,1789,890,99,791,1
2020-07-05,3185,223,2957,1494,201,1293,3
2020-07-06,12199,875,11252,5804,765,5026,4
2020-07-07,11599,802,10745,5205,724,4467,3
2020-07-08,11341,919,10371,4729,810,3907,4
2020-07-09,10068,867,9157,4401,766,3623,2
2020-07-10,10092,626,9440,4507,559,3944,6
2020-07-11,3747,236,3501,1776,210,1564,6
2020-07-12,3266,217,3045,1566,202,1362,6
2020-07-13,12561,903,11589,5688,781,4892,7
2020-07-14,10962,737,10171,4793,625,4156,4
2020-07-15,10663,746,9858,4597,656,3928,6
2020-07-16,8989,670,8293,4150,556,3587,4
2020-07-17,8713,602,8067,4037,512,3519,7
2020-07-18,3321,178,3131,1648,152,1492,6
2020-07-19,2756,149,2603,1243,133,1110,3
2020-07-20,11921,895,10964,5426,738,4675,8
2020-07-21,10020,706,9265,4445,580,3854,9
2020-07-22,9430,742,8642,4169,583,3581,8
2020-07-23,8737,716,7963,3833,582,3237,7
2020-07-24,8975,661,8269,4103,549,3549,6
2020-07-25,2701,159,2530,1338,133,1202,6
2020-07-26,2612,168,2438,1240,143,1097,5
2020-07-27,10801,861,9874,5149,733,4407,13
2020-07-28,9593,730,8803,4363,586,3766,8
2020-07-29,8535,706,7789,3906,597,3302,6
2020-07-30,7776,737,7006,3653,625,3019,7
2020-07-31,8097,628,7442,3914,537,3371,3
2020-08-01,2601,165,2429,1247,136,1110,6
2020-08-02,2697,143,2546,1211,131,1080,8
2020-08-03,12512,946,11486,5638,829,4800,8
2020-08-04,10729,781,9893,4846,678,4158,9
2020-08-05,9732,646,9034,4231,533,3691,7
2020-08-06,8431,612,7768,3835,522,3302,6
2020-08-07,9402,680,8659,4264,536,3719,11
2020-08-08,2992,209,2776,1368,185,1183,7
2020-08-09,2771,168,2594,1199,156,1042,6
2020-08-10,9159,735,8334,4164,645,3507,7
2020-08-11,9206,635,8515,3990,542,3435,10
2020-08-12,10996,824,10061,5014,692,4308,3
2020-08-13,9450,810,8573,4130,682,3442,13
2020-08-14,9732,767,8853,4665,678,3941,10
2020-08-15,3519,222,3271,1776,205,1568,5
2020-08-16,3092,206,2871,1619,183,1435,5
2020-08-17,11110,1147,9882,5691,1019,4654,9
2020-08-18,10584,840,9664,4742,770,3953,9
2020-08-19,9388,855,8471,4546,790,3742,4
2020-08-20,8955,815,8080,4299,736,3542,17
2020-08-21,9231,897,8260,4356,779,3564,11
2020-08-22,3073,311,2754,1639,284,1354,10
2020-08-23,3613,355,3235,1711,324,1382,12
2020-08-24,12421,1551,10762,6328,1443,4862,6
2020-08-25,11502,1333,10068,5440,1228,4200,11
2020-08-26,10487,1346,9006,4887,1242,3625,9
2020-08-27,10224,1309,8788,5201,1203,3977,12
2020-08-28,10644,1306,9289,5365,1193,4156,11
2020-08-29,3389,318,3060,1766,299,1466,12
2020-08-30,3585,293,3288,1695,278,1417,6
2020-08-31,13271,1270,11937,6703,1182,5514,10
2020-09-01,12551,1066,11446,5878,965,4907,10
2020-09-02,13105,1219,11831,5645,1141,4501,5
2020-09-03,13714,1010,12670,5182,925,4254,13
2020-09-04,12849,1018,11766,5077,907,4158,10
2020-09-05,3737,267,3463,1712,240,1471,6
2020-09-06,3802,262,3532,1821,241,1580,8
2020-09-07,3512,285,3220,1492,274,1218,13
2020-09-08,23454,1363,22032,7741,1237,6495,11
2020-09-09,14813,995,13782,5971,901,5066,9
2020-09-10,15123,942,14118,5322,863,4449,10
2020-09-11,16069,1016,15005,5693,909,4779,6
2020-09-12,3969,249,3716,2029,229,1800,4
2020-09-13,3663,275,3383,1707,243,1464,4
2020-09-14,20938,1675,19189,7924,1581,6330,8
2020-09-15,18672,1072,17560,6101,996,5101,4
2020-09-16,13201,1123,12049,5590,1033,4555,8
2020-09-17,16267,1067,15164,5319,988,4325,9
2020-09-18,14417,1128,13251,5669,1029,4632,6
2020-09-19,4441,344,4089,2160,320,1838,9
2020-09-20,3780,301,3473,1779,276,1503,5
2020-09-21,21187,1492,19650,8279,1425,6844,4
2020-09-22,20866,1290,19524,7363,1212,6146,6
2020-09-23,15828,1106,14688,6409,1047,5354,13
2020-09-24,17667,1004,16623,5817,930,4881,10
2020-09-25,15117,1002,14088,5988,944,5042,12
2020-09-26,4020,296,3712,1990,278,1709,12
2020-09-27,3758,266,3487,1746,247,1498,10
2020-09-28,22391,1538,20819,8107,1475,6629,10
2020-09-29,19773,1061,18671,6385,996,5382,11
2020-09-30,15455,1031,14393,5975,964,5006,12
2020-10-01,16705,941,15727,5162,877,4281,14
2020-10-02,14881,950,13881,5771,889,4873,7
2020-10-03,4200,390,3802,2149,356,1791,16
2020-10-04,4060,320,3735,1938,292,1644,9
2020-10-05,25169,1757,23352,9046,1681,7348,16
2020-10-06,23308,1309,21960,7585,1219,6362,5
2020-10-07,16466,1330,15096,6866,1262,5597,18
2020-10-08,19048,1330,17690,6254,1226,5023,15
2020-10-09,16036,1285,14725,6564,1206,5354,22
2020-10-10,4200,405,3787,2252,364,1887,10
2020-10-11,4138,348,3787,1993,323,1670,14
2020-10-12,26356,2013,24296,9141,1945,7187,15
2020-10-13,22816,1433,21347,7748,1332,6412,5
2020-10-14,15405,1357,14025,6592,1264,5324,14
2020-10-15,20707,1323,19364,6285,1240,5042,19
2020-10-16,15998,1227,14731,6715,1130,5581,21
2020-10-17,4401,432,3959,2481,372,2105,20
2020-10-18,4269,369,3893,2104,336,1765,11
2020-10-19,27907,2088,25709,9544,1988,7543,19
2020-10-20,22595,1496,21025,7687,1420,6261,26
2020-10-21,16562,1693,14829,7333,1594,5734,14
2020-10-22,21385,1807,19545,7143,1693,5443,20
2020-10-23,16959,1693,15220,7214,1569,5638,14
2020-10-24,4867,688,4169,2718,635,2081,11
2020-10-25,5508,594,4903,2523,553,1970,15
2020-10-26,30698,3305,27305,10871,3179,7681,13
2020-10-27,25957,2684,23214,9511,2526,6973,11
2020-10-28,20010,2800,17159,9552,2643,6899,21
2020-10-29,26999,3160,23780,9937,3032,6891,22
2020-10-30,21613,3009,18560,9797,2833,6956,21
2020-10-31,6387,1204,5171,3533,1142,2390,24
2020-11-01,7261,1241,6000,3510,1162,2345,32
2020-11-02,37250,5565,31623,15030,5378,9641,39
2020-11-03,32448,5086,27282,14023,4924,9074,26
2020-11-04,25566,5208,20293,13846,5021,8812,30
2020-11-05,35126,5434,29604,14523,5212,9288,53
2020-11-06,29002,5064,23789,14351,4816,9508,39
2020-11-07,8785,2118,6653,5567,2032,3533,33
2020-11-08,10086,2055,7988,5096,1840,3248,47
2020-11-09,45411,7696,37648,20299,7399,12878,35
2020-11-10,34059,5695,28285,16427,5435,10972,44
2020-11-11,22707,4603,18057,13271,4430,8832,39
2020-11-12,41410,5632,35693,17505,5364,12115,61
2020-11-13,31013,4573,26364,15652,4283,11353,36
2020-11-14,8827,1661,7132,5375,1548,3810,39
2020-11-15,8267,1517,6705,5003,1330,3660,49
2020-11-16,46653,6311,40260,20546,6103,14431,49
2020-11-17,35454,4972,30369,17524,4655,12847,58
2020-11-18,26629,4341,22186,16157,4102,12038,58
2020-11-19,38879,4083,34687,16014,3860,12128,72
2020-11-20,30993,3773,27133,15235,3525,11692,59
2020-11-21,9427,1398,8003,5775,1293,4474,59
2020-11-22,8654,1240,7377,4641,1113,3519,46
2020-11-23,44619,4618,39808,17886,4370,13481,59
2020-11-24,28102,3221,24735,13218,3004,10179,36
2020-11-25,28386,2893,25427,11093,2712,8367,61
2020-11-26,5080,472,4578,1675,350,1317,62
2020-11-27,23019,2671,20272,9182,2512,6651,57
2020-11-28,7122,1191,5916,3900,1101,2796,55
2020-11-29,6745,1041,5584,3816,881,2886,51
2020-11-30,38486,4337,33983,15336,4112,11192,65
2020-12-01,27147,3062,23974,12505,2861,9621,53
2020-12-02,18544,2454,16010,10901,2304,8586,47
2020-12-03,29754,2399,27292,10612,2247,8355,48
2020-12-04,22876,2133,20689,10205,1978,8218,45
2020-12-05,6270,892,5364,3838,819,3018,38
2020-12-06,5899,693,5192,3524,608,2913,41
2020-12-07,35964,3188,32712,14020,2964,11042,31
2020-12-08,24933,2190,22680,11214,2033,9167,33
2020-12-09,16070,1860,14139,9459,1744,7705,30
2020-12-10,28307,1953,26293,9938,1822,8102,18
2020-12-11,20240,1731,18376,9385,1606,7762,16
2020-12-12,5216,565,4640,3196,512,2681,18
2020-12-13,5570,595,4947,3436,553,2881,8
2020-12-14,33248,2739,30376,13720,2592,11115,10
2020-12-15,23003,1853,21074,11743,1732,9997,3
2020-12-16,16164,1775,14326,10215,1641,8561,6
2020-12-17,27680,1664,25973,11036,1564,9462,5
2020-12-18,20693,1553,19097,11479,1454,10015,5
2020-12-19,5976,631,5331,3898,598,3297,3
2020-12-20,6054,584,5438,3992,517,3464,3
2020-12-21,35752,2532,33137,18586,2414,16160,3
2020-12-22,18182,1698,16444,13576,1555,12007,2
2020-12-23,19882,1361,18490,14355,1263,13081,0
2020-12-24,15053,929,14107,10103,849,9248,0
2020-12-25,2243,175,2067,1641,152,1489,0
2020-12-26,5578,764,4810,5031,727,4303,0
2020-12-27,4170,446,3719,3715,424,3290,0
2020-12-28,13248,608,12638,12098,592,11506,0
2020-12-29,39,4,35,36,3,33,0
