Date,State - Total Tests,State - Positive Tests,State - Negative Tests,State - Individuals Tested,State - Individuals Positive,State - Individuals Negative,State - Deaths
2020-03-11,28,2,26,12,2,10,0
2020-03-12,69,3,66,28,2,26,0
2020-03-13,121,6,115,56,6,50,0
2020-03-14,99,3,96,52,2,50,0
2020-03-15,125,1,124,50,1,49,0
2020-03-16,436,20,416,188,20,168,0
2020-03-17,462,23,439,198,22,176,0
2020-03-18,437,27,410,182,26,156,0
2020-03-19,455,30,425,184,28,156,0
2020-03-20,497,27,469,187,26,161,0
2020-03-21,265,16,249,105,15,90,0
2020-03-22,272,19,253,105,18,87,0
2020-03-23,863,54,805,331,52,278,0
2020-03-24,849,58,791,315,56,259,1
2020-03-25,843,70,773,317,65,252,0
2020-03-26,934,67,866,331,64,267,1
2020-03-27,899,71,826,353,69,284,2
2020-03-28,453,41,411,181,40,141,1
2020-03-29,362,39,323,141,36,105,1
2020-03-30,1154,115,1039,449,114,335,1
2020-03-31,1010,81,929,383,78,305,4
2020-04-01,996,89,905,393,83,310,2
2020-04-02,1055,86,969,383,83,300,1
2020-04-03,966,100,865,392,94,298,5
2020-04-04,415,57,358,163,54,109,3
2020-04-05,435,68,364,190,67,122,5
2020-04-06,1293,138,1154,510,131,379,0
2020-04-07,1168,122,1044,453,116,336,2
2020-04-08,1069,117,951,431,112,319,3
2020-04-09,966,123,843,396,114,282,4
2020-04-10,1139,248,889,546,242,304,3
2020-04-11,454,80,372,194,73,121,4
2020-04-12,371,62,309,155,56,99,4
2020-04-13,1219,216,1001,538,200,337,6
2020-04-14,1215,171,1043,481,154,327,3
2020-04-15,1316,191,1124,499,182,317,6
2020-04-16,2106,509,1582,1199,490,701,5
2020-04-17,2214,524,1685,1250,502,746,7
2020-04-18,751,188,562,350,175,175,5
2020-04-19,746,183,562,352,169,183,7
2020-04-20,2391,537,1853,1088,507,581,7
2020-04-21,2481,480,1999,1072,449,623,6
2020-04-22,2297,548,1747,1164,530,634,7
2020-04-23,2510,494,2014,1153,467,686,11
2020-04-24,3477,722,2751,1657,683,972,5
2020-04-25,4734,1338,3361,2921,1280,1635,7
2020-04-26,1242,199,1013,507,161,343,8
2020-04-27,3382,603,2720,1486,561,910,9
2020-04-28,3822,699,3092,1811,659,1144,11
2020-04-29,4070,572,3375,1843,525,1288,13
2020-04-30,4050,490,3507,1820,448,1353,9
2020-05-01,3469,438,2989,1454,398,1049,10
2020-05-02,1242,201,1027,527,174,352,6
2020-05-03,1314,158,1154,474,125,349,14
2020-05-04,3943,654,3256,1874,602,1265,18
2020-05-05,4351,551,3776,2027,513,1507,10
2020-05-06,4293,411,3861,1626,372,1251,9
2020-05-07,3954,405,3505,1632,367,1250,12
2020-05-08,3711,379,3307,1618,340,1267,11
2020-05-09,1631,142,1488,666,121,545,12
2020-05-10,1592,142,1447,640,118,522,17
2020-05-11,5083,486,4519,2074,436,1627,14
2020-05-12,5281,444,4819,2047,406,1638,14
2020-05-13,4635,359,4267,1808,306,1500,13
2020-05-14,4951,404,4523,1727,351,1370,17
2020-05-15,4211,371,3819,1695,314,1374,7
2020-05-16,2114,184,1925,852,148,704,11
2020-05-17,2018,168,1843,807,122,685,11
2020-05-18,7790,860,6845,3127,787,2333,16
2020-05-19,6954,734,6173,2961,638,2318,17
2020-05-20,6238,503,5687,2336,443,1884,13
2020-05-21,5462,596,4827,2120,478,1633,11
2020-05-22,6120,368,5683,2437,308,2117,19
2020-05-23,1523,149,1371,641,119,522,7
2020-05-24,1835,164,1668,736,100,636,20
2020-05-25,1786,115,1667,705,88,617,10
2020-05-26,7657,564,7003,3128,468,2631,11
2020-05-27,7432,484,6914,2787,395,2386,13
2020-05-28,6964,539,6392,2821,438,2375,10
2020-05-29,6545,413,6106,2613,359,2250,12
2020-05-30,2197,158,2036,940,121,819,6
2020-05-31,2216,108,2105,904,76,828,10
2020-06-01,7387,578,6785,3074,478,2590,7
2020-06-02,6957,393,6545,2890,334,2552,12
2020-06-03,6775,466,6288,2741,382,2357,10
2020-06-04,6916,413,6480,2567,341,2220,8
2020-06-05,5970,430,5509,2597,357,2231,10
2020-06-06,2310,113,2189,932,90,842,8
2020-06-07,2127,89,2035,892,56,836,7
2020-06-08,8025,597,7397,3233,477,2749,8
2020-06-09,6959,369,6566,2821,312,2502,3
2020-06-10,6912,395,6483,2676,328,2338,8
2020-06-11,6630,317,6279,2492,266,2222,2
2020-06-12,6920,330,6552,2629,270,2351,5
2020-06-13,2224,96,2126,951,77,873,5
2020-06-14,2185,76,2106,895,55,840,5
2020-06-15,8506,527,7921,3349,442,2897,9
2020-06-16,7769,431,7303,3081,363,2712,4
2020-06-17,7441,437,6948,2864,375,2479,3
2020-06-18,7913,431,7137,2833,344,2430,2
2020-06-19,8342,516,7750,3344,456,2874,6
2020-06-20,2579,119,2453,1174,104,1069,3
2020-06-21,2348,98,2245,1012,82,930,0
2020-06-22,10000,640,9228,4212,551,3633,2
2020-06-23,9479,551,8896,3862,486,3369,4
2020-06-24,8623,470,8116,3476,423,3041,0
2020-06-25,9411,542,8814,3647,477,3161,4
2020-06-26,8473,522,7917,3518,451,3057,8
2020-06-27,2990,174,2811,1406,159,1247,2
2020-06-28,3023,187,2830,1373,168,1203,4
2020-06-29,11181,800,10296,4866,697,4153,0
2020-06-30,9825,769,9012,4101,685,3403,1
2020-07-01,9351,643,8658,3854,573,3261,4
2020-07-02,10153,769,9314,4441,683,3742,3
2020-07-03,3812,271,3536,1653,247,1405,9
2020-07-04,1916,122,1793,865,99,766,1
2020-07-05,3189,223,2961,1448,201,1247,3
2020-07-06,12213,875,11266,5611,764,4834,4
2020-07-07,11617,802,10763,5024,723,4287,3
2020-07-08,11376,920,10405,4545,811,3723,4
2020-07-09,10081,867,9170,4253,766,3475,2
2020-07-10,10104,627,9451,4347,559,3785,6
2020-07-11,3754,236,3508,1706,210,1494,6
2020-07-12,3268,215,3049,1515,202,1311,6
2020-07-13,12592,903,11620,5498,781,4702,7
2020-07-14,10981,737,10190,4613,625,3976,4
2020-07-15,10675,746,9870,4446,656,3777,6
2020-07-16,9004,671,8307,3990,556,3427,4
2020-07-17,8723,602,8077,3902,512,3384,7
2020-07-18,3324,178,3134,1601,152,1445,6
2020-07-19,2759,149,2606,1202,133,1069,3
2020-07-20,11942,895,10985,5242,738,4491,8
2020-07-21,10030,706,9274,4280,578,3691,9
2020-07-22,9451,741,8664,4026,583,3438,8
2020-07-23,8751,716,7977,3705,581,3112,7
2020-07-24,8995,661,8289,3943,549,3389,6
2020-07-25,2711,159,2540,1299,133,1163,6
2020-07-26,2618,168,2444,1199,143,1056,5
2020-07-27,10822,862,9893,4966,732,4226,13
2020-07-28,9609,729,8820,4187,586,3591,8
2020-07-29,8541,706,7795,3775,597,3171,6
2020-07-30,7789,737,7019,3547,624,2914,7
2020-07-31,8108,629,7452,3780,538,3236,3
2020-08-01,2603,165,2431,1214,136,1077,6
2020-08-02,2700,143,2549,1169,131,1038,8
2020-08-03,12527,949,11498,5434,829,4596,8
2020-08-04,10741,781,9905,4672,678,3984,9
2020-08-05,9749,647,9050,4057,533,3518,7
2020-08-06,8444,612,7781,3702,521,3171,6
2020-08-07,9415,681,8671,4083,538,3536,11
2020-08-08,3002,209,2786,1328,185,1143,7
2020-08-09,2776,167,2600,1149,155,994,6
2020-08-10,9172,735,8347,3987,645,3330,7
2020-08-11,9241,635,8550,3795,540,3242,10
2020-08-12,11026,822,10093,4824,692,4119,3
2020-08-13,9457,811,8579,3971,679,3287,13
2020-08-14,9742,769,8861,4487,677,3765,10
2020-08-15,3528,223,3279,1721,205,1513,5
2020-08-16,3101,206,2880,1560,182,1377,5
2020-08-17,11165,1148,9935,5440,1018,4406,9
2020-08-18,10624,841,9703,4522,767,3736,9
2020-08-19,9403,854,8487,4333,788,3531,4
2020-08-20,8968,815,8093,4078,736,3321,17
2020-08-21,9251,897,8280,4176,776,3387,11
2020-08-22,3076,311,2757,1549,284,1264,10
2020-08-23,3615,354,3238,1610,323,1282,12
2020-08-24,12477,1552,10813,6077,1437,4617,6
2020-08-25,11520,1335,10084,5186,1224,3953,11
2020-08-26,10520,1345,9039,4686,1235,3431,9
2020-08-27,10234,1310,8797,5030,1202,3808,12
2020-08-28,10667,1307,9311,5177,1191,3970,11
2020-08-29,3394,316,3067,1691,298,1392,12
2020-08-30,3591,293,3294,1634,278,1356,6
2020-08-31,13299,1270,11965,6443,1178,5258,10
2020-09-01,12572,1066,11467,5667,964,4697,10
2020-09-02,13143,1218,11869,5440,1136,4301,5
2020-09-03,13747,1010,12703,4996,923,4070,14
2020-09-04,12866,1016,11785,4890,904,3975,10
2020-09-05,3747,267,3473,1646,240,1405,6
2020-09-06,3805,262,3535,1754,241,1513,8
2020-09-07,3521,286,3228,1443,274,1169,13
2020-09-08,23552,1362,22129,7427,1236,6182,11
2020-09-09,14858,997,13826,5741,901,4836,9
2020-09-10,15254,940,14251,5141,862,4270,10
2020-09-11,16097,1018,15030,5457,909,4543,6
2020-09-12,3978,249,3725,1938,229,1709,4
2020-09-13,3666,275,3386,1620,243,1377,4
2020-09-14,20987,1675,19238,7666,1576,6077,8
2020-09-15,18794,1073,17681,5889,994,4891,4
2020-09-16,13247,1124,12093,5389,1032,4355,8
2020-09-17,16292,1069,15187,5114,985,4124,9
2020-09-18,14465,1128,13300,5437,1028,4401,6
2020-09-19,4448,344,4096,2072,320,1750,9
2020-09-20,3788,300,3482,1708,274,1434,5
2020-09-21,21236,1491,19700,7952,1420,6522,4
2020-09-22,20973,1292,19630,7074,1209,5860,6
2020-09-23,15878,1106,14738,6153,1047,5098,13
2020-09-24,17705,1005,16660,5581,929,4646,11
2020-09-25,15154,1003,14124,5740,944,4794,12
2020-09-26,4029,296,3722,1900,275,1622,12
2020-09-27,3784,266,3513,1675,247,1427,10
2020-09-28,22421,1537,20849,7786,1471,6312,10
2020-09-29,19833,1060,18731,6086,993,5087,11
2020-09-30,15502,1033,14438,5736,962,4769,12
2020-10-01,16741,941,15763,4954,876,4074,14
2020-10-02,14919,951,13919,5519,889,4621,10
2020-10-03,4205,390,3807,2073,355,1716,17
2020-10-04,4066,320,3741,1832,292,1538,9
2020-10-05,25254,1758,23435,8671,1680,6974,17
2020-10-06,23369,1309,22021,7263,1218,6041,7
2020-10-07,16490,1331,15119,6542,1262,5274,22
2020-10-08,19195,1326,17841,5991,1223,4763,16
2020-10-09,16057,1285,14746,6296,1205,5088,23
2020-10-10,4205,405,3792,2155,364,1790,11
2020-10-11,4141,348,3790,1888,323,1565,15
2020-10-12,26494,2013,24434,8748,1944,6795,18
2020-10-13,22887,1434,21417,7401,1329,6068,6
2020-10-14,15437,1357,14057,6315,1264,5047,16
2020-10-15,20780,1322,19437,6038,1241,4794,20
2020-10-16,16099,1226,14832,6448,1128,5316,21
2020-10-17,4409,432,3967,2377,372,2001,20
2020-10-18,4273,368,3897,2022,335,1684,11
2020-10-19,28031,2087,25834,9111,1990,7108,20
2020-10-20,22646,1493,21080,7357,1420,5931,27
2020-10-21,16593,1694,14860,6987,1594,5388,16
2020-10-22,21475,1804,19639,6819,1693,5119,24
2020-10-23,17006,1694,15265,6907,1569,5331,17
2020-10-24,4873,688,4174,2600,635,1963,14
2020-10-25,5516,595,4911,2397,553,1844,15
2020-10-26,30820,3303,27429,10425,3179,7235,14
2020-10-27,26019,2681,23279,9103,2526,6566,12
2020-10-28,20041,2802,17187,9089,2644,6435,21
2020-10-29,27125,3157,23911,9513,3032,6467,22
2020-10-30,21661,3009,18608,9404,2832,6564,22
2020-10-31,6397,1204,5181,3372,1142,2229,24
2020-11-01,7279,1239,6017,3354,1163,2188,32
2020-11-02,37434,5567,31804,14430,5378,9041,39
2020-11-03,32515,5088,27345,13511,4925,8562,28
2020-11-04,25595,5208,20321,13282,5024,8245,30
2020-11-05,35283,5468,29727,14017,5243,8752,54
2020-11-06,29154,5119,23886,13855,4866,8963,39
2020-11-07,8847,2163,6670,5429,2075,3352,33
2020-11-08,10103,2066,7993,4928,1849,3071,47
2020-11-09,45640,7761,37811,19657,7461,12174,36
2020-11-10,34188,5723,28385,15819,5457,10343,44
2020-11-11,22774,4618,18109,12789,4445,8335,40
2020-11-12,41588,5660,35842,16756,5388,11343,62
2020-11-13,31109,4592,26440,14980,4302,10662,37
2020-11-14,8851,1677,7140,5183,1561,3605,39
2020-11-15,8300,1536,6718,4801,1345,3443,50
2020-11-16,46866,6333,40452,19718,6123,13583,49
2020-11-17,35598,4981,30505,16790,4663,12105,60
2020-11-18,26684,4348,22232,15371,4109,11245,60
2020-11-19,39096,4092,34895,15293,3867,11400,73
2020-11-20,31090,3780,27223,14472,3533,10922,60
2020-11-21,9449,1403,8019,5508,1298,4202,59
2020-11-22,8693,1248,7409,4438,1122,3307,50
2020-11-23,44842,4638,40012,17035,4387,12613,61
2020-11-24,28306,3226,24934,12571,3012,9525,38
2020-11-25,28502,2902,25535,10520,2714,7792,62
2020-11-26,5104,471,4603,1562,350,1204,62
2020-11-27,23140,2674,20389,8680,2518,6145,59
2020-11-28,7161,1197,5949,3689,1104,2583,60
2020-11-29,6779,1042,5618,3619,883,2688,52
2020-11-30,38759,4350,34245,14494,4127,10337,70
2020-12-01,27296,3071,24110,11769,2866,8881,60
2020-12-02,18657,2454,16122,10238,2309,7918,53
2020-12-03,29917,2406,27447,9821,2253,7558,57
2020-12-04,23082,2135,20889,9541,1981,7551,53
2020-12-05,6304,897,5393,3647,822,2824,53
2020-12-06,5925,693,5218,3276,609,2664,48
2020-12-07,36342,3190,33087,13112,2968,10130,46
2020-12-08,25164,2194,22908,10275,2035,8226,51
2020-12-09,16222,1865,14286,8846,1749,7088,42
2020-12-10,28584,1969,26553,9169,1837,7319,32
2020-12-11,20504,1733,18638,8657,1608,7032,35
2020-12-12,5263,565,4687,2987,515,2469,38
2020-12-13,5591,597,4967,3170,553,2615,28
2020-12-14,33637,2749,30754,12249,2605,9631,32
2020-12-15,23570,1863,21631,10008,1743,8252,16
2020-12-16,16322,1790,14469,9020,1657,7351,32
2020-12-17,28302,1678,26579,9085,1577,7499,21
2020-12-18,21057,1571,19441,9843,1470,8363,14
2020-12-19,6088,644,5430,3540,612,2925,13
2020-12-20,6207,607,5567,3592,542,3039,7
2020-12-21,37569,2579,34905,13059,2450,10599,13
2020-12-22,19188,1731,17418,9910,1587,8310,13
2020-12-23,21495,1412,20051,8755,1321,7425,7
2020-12-24,17028,999,16012,5202,915,4283,7
2020-12-25,2555,178,2376,939,155,784,2
2020-12-26,7101,975,6116,4473,920,3549,5
2020-12-27,6382,726,5642,3591,629,2961,4
2020-12-28,34724,2853,31780,12610,2706,9892,4
2020-12-29,13513,1450,12047,6673,1360,5309,1
2020-12-30,19227,1949,17246,8833,1860,6966,3
2020-12-31,21829,1631,20184,7805,1537,6267,4
2021-01-01,4177,371,3802,1784,343,1439,1
2021-01-02,6932,1072,5853,4453,1024,3426,6
2021-01-03,6377,806,5545,4150,703,3440,4
2021-01-04,35227,3417,31705,17122,3280,13827,2
2021-01-05,21146,2111,18964,12991,1983,10992,2
2021-01-06,15290,1860,13362,11400,1761,9630,2
2021-01-07,24913,1592,23280,13730,1516,12205,1
2021-01-08,17139,1570,15510,12413,1486,10920,0
2021-01-09,5369,532,4830,4270,483,3786,0
2021-01-10,4869,513,4349,4241,476,3762,0
2021-01-11,25007,1781,23189,22380,1675,20698,0
2021-01-12,6609,339,6270,5993,328,5665,0
2021-01-13,35,3,32,33,3,30,0
