Date,State - Total Tests,State - Positive Tests,State - Negative Tests,State - Individuals Tested,State - Individuals Positive,State - Individuals Negative,State - Deaths
2020-03-11,28,2,26,13,2,11,0
2020-03-12,69,3,66,30,2,28,0
2020-03-13,121,6,115,60,6,54,0
2020-03-14,99,3,96,53,2,51,0
2020-03-15,125,1,124,51,1,50,0
2020-03-16,436,20,416,204,20,184,0
2020-03-17,461,23,438,208,22,186,0
2020-03-18,437,27,410,195,26,169,0
2020-03-19,455,30,425,202,28,174,0
2020-03-20,497,27,469,201,26,175,0
2020-03-21,264,16,248,109,15,94,0
2020-03-22,272,19,253,112,18,94,0
2020-03-23,863,54,805,350,53,296,0
2020-03-24,849,58,791,341,56,285,1
2020-03-25,843,70,773,336,65,271,0
2020-03-26,934,67,866,359,64,295,1
2020-03-27,899,71,826,376,69,307,2
2020-03-28,453,41,411,197,40,157,1
2020-03-29,362,39,323,150,36,114,1
2020-03-30,1154,115,1039,476,114,362,1
2020-03-31,1010,81,929,411,78,333,4
2020-04-01,996,89,905,419,83,336,2
2020-04-02,1055,86,969,414,83,331,1
2020-04-03,966,100,865,411,95,316,5
2020-04-04,415,57,358,181,55,126,3
2020-04-05,435,68,364,202,67,134,5
2020-04-06,1293,138,1154,555,131,424,0
2020-04-07,1167,122,1043,482,116,365,2
2020-04-08,1069,117,951,452,112,340,3
2020-04-09,966,123,843,416,114,302,5
2020-04-10,1139,249,889,563,242,321,3
2020-04-11,454,80,372,204,73,131,4
2020-04-12,371,62,309,164,56,108,4
2020-04-13,1219,216,1001,564,200,363,6
2020-04-14,1215,171,1043,513,154,359,3
2020-04-15,1316,191,1124,531,182,349,6
2020-04-16,2106,510,1581,1246,490,748,5
2020-04-17,2214,524,1685,1283,502,779,7
2020-04-18,751,188,562,365,176,189,5
2020-04-19,746,183,562,369,169,200,8
2020-04-20,2389,537,1851,1135,508,627,7
2020-04-21,2481,480,1999,1114,449,665,6
2020-04-22,2297,548,1747,1210,532,678,7
2020-04-23,2510,494,2014,1214,467,747,11
2020-04-24,3472,722,2746,1735,685,1048,5
2020-04-25,4731,1337,3359,3022,1278,1738,7
2020-04-26,1241,199,1013,531,161,367,8
2020-04-27,3381,603,2719,1571,562,994,9
2020-04-28,3812,699,3083,1920,661,1251,11
2020-04-29,4065,572,3370,1981,526,1423,13
2020-04-30,4044,491,3500,1921,448,1454,9
2020-05-01,3437,438,2958,1538,398,1133,11
2020-05-02,1237,201,1022,560,174,385,6
2020-05-03,1314,158,1154,505,125,380,14
2020-05-04,3918,653,3232,1955,602,1345,18
2020-05-05,4331,550,3758,2121,512,1602,10
2020-05-06,4280,410,3848,1726,373,1350,9
2020-05-07,3923,405,3475,1719,367,1335,12
2020-05-08,3693,380,3288,1695,342,1342,11
2020-05-09,1629,140,1488,698,120,578,13
2020-05-10,1592,142,1447,679,118,561,17
2020-05-11,5055,487,4492,2186,439,1735,14
2020-05-12,5258,444,4796,2164,406,1755,13
2020-05-13,4598,360,4229,1935,307,1626,13
2020-05-14,4941,404,4513,1858,351,1501,17
2020-05-15,4196,371,3805,1796,315,1474,7
2020-05-16,2112,184,1923,921,150,771,11
2020-05-17,2015,168,1839,849,122,727,11
2020-05-18,7763,861,6817,3356,789,2560,16
2020-05-19,6935,734,6150,3141,644,2492,17
2020-05-20,6222,503,5671,2506,447,2050,13
2020-05-21,5440,595,4807,2289,480,1800,11
2020-05-22,6085,367,5649,2600,308,2279,19
2020-05-23,1508,149,1356,685,119,566,7
2020-05-24,1828,164,1661,792,101,691,20
2020-05-25,1771,115,1652,758,88,670,10
2020-05-26,7634,565,6979,3351,468,2850,11
2020-05-27,7410,485,6892,2990,396,2586,13
2020-05-28,6944,539,6372,3030,438,2583,10
2020-05-29,6502,413,6063,2828,359,2465,12
2020-05-30,2187,158,2026,1006,122,884,6
2020-05-31,2205,108,2094,976,76,900,10
2020-06-01,7343,578,6741,3253,479,2766,7
2020-06-02,6916,393,6504,3112,334,2774,12
2020-06-03,6759,468,6272,2950,383,2564,10
2020-06-04,6895,413,6459,2732,341,2385,8
2020-06-05,5957,430,5496,2771,358,2404,10
2020-06-06,2297,113,2176,1000,90,910,8
2020-06-07,2126,89,2034,967,56,911,7
2020-06-08,8013,597,7386,3476,479,2989,8
2020-06-09,6937,369,6544,3041,316,2717,3
2020-06-10,6896,396,6465,2892,328,2554,8
2020-06-11,6610,317,6259,2661,268,2389,2
2020-06-12,6898,331,6529,2850,271,2570,5
2020-06-13,2213,96,2116,1010,77,932,5
2020-06-14,2180,76,2101,964,57,907,5
2020-06-15,8473,527,7890,3621,444,3167,9
2020-06-16,7748,431,7282,3300,364,2929,4
2020-06-17,7423,437,6931,3114,375,2729,3
2020-06-18,7853,432,7078,3067,345,2656,2
2020-06-19,8321,516,7729,3601,457,3127,6
2020-06-20,2570,119,2444,1274,104,1169,3
2020-06-21,2346,98,2243,1111,82,1029,0
2020-06-22,9966,640,9195,4534,557,3948,2
2020-06-23,9443,552,8859,4179,488,3683,4
2020-06-24,8594,470,8087,3727,425,3290,0
2020-06-25,9363,542,8766,3902,478,3414,4
2020-06-26,8455,522,7899,3805,452,3343,8
2020-06-27,2980,174,2801,1499,159,1340,2
2020-06-28,3012,187,2819,1464,169,1293,4
2020-06-29,11153,800,10269,5210,699,4494,0
2020-06-30,9785,771,8970,4410,688,3708,1
2020-07-01,9313,643,8620,4141,575,3546,4
2020-07-02,10070,769,9231,4721,683,4019,3
2020-07-03,3802,271,3526,1769,247,1521,9
2020-07-04,1909,122,1786,933,99,834,1
2020-07-05,3184,223,2956,1546,201,1345,3
2020-07-06,12182,875,11235,6015,766,5236,4
2020-07-07,11584,802,10730,5395,727,4653,3
2020-07-08,11329,919,10359,4887,810,4065,4
2020-07-09,10050,867,9139,4593,767,3814,2
2020-07-10,10073,627,9420,4693,560,4128,6
2020-07-11,3742,237,3495,1858,211,1645,6
2020-07-12,3263,217,3042,1633,202,1429,6
2020-07-13,12517,903,11545,5932,781,5136,7
2020-07-14,10953,737,10162,4999,625,4362,4
2020-07-15,10648,746,9843,4811,658,4139,6
2020-07-16,8975,670,8279,4304,556,3741,4
2020-07-17,8705,602,8059,4197,512,3679,7
2020-07-18,3318,178,3128,1719,152,1563,6
2020-07-19,2755,149,2602,1293,133,1160,3
2020-07-20,11905,895,10948,5645,740,4892,8
2020-07-21,10006,706,9251,4647,581,4055,9
2020-07-22,9422,742,8634,4322,585,3732,8
2020-07-23,8725,715,7952,3997,583,3399,7
2020-07-24,8965,661,8259,4264,550,3708,6
2020-07-25,2698,160,2526,1398,133,1262,6
2020-07-26,2607,168,2433,1282,144,1138,5
2020-07-27,10761,861,9834,5351,733,4609,13
2020-07-28,9580,730,8790,4551,586,3953,8
2020-07-29,8526,706,7780,4071,597,3466,6
2020-07-30,7766,737,6995,3788,626,3153,7
2020-07-31,8090,627,7436,4079,537,3536,3
2020-08-01,2597,165,2425,1290,136,1153,6
2020-08-02,2695,143,2544,1263,131,1132,9
2020-08-03,12502,946,11477,5851,830,5011,8
2020-08-04,10715,781,9879,5049,679,4360,9
2020-08-05,9719,646,9022,4411,533,3871,7
2020-08-06,8410,612,7747,3971,522,3438,6
2020-08-07,9373,680,8630,4443,538,3895,11
2020-08-08,2989,209,2773,1430,185,1245,7
2020-08-09,2768,168,2591,1259,156,1102,6
2020-08-10,9140,735,8315,4318,645,3661,7
2020-08-11,9175,635,8484,4186,543,3628,10
2020-08-12,10975,823,10041,5212,692,4506,3
2020-08-13,9434,810,8557,4294,684,3604,13
2020-08-14,9699,768,8819,4844,679,4119,10
2020-08-15,3514,222,3266,1829,207,1619,5
2020-08-16,3086,206,2865,1673,183,1489,5
2020-08-17,11085,1147,9857,5904,1019,4866,9
2020-08-18,10561,840,9641,4926,770,4137,9
2020-08-19,9368,854,8452,4733,791,3928,4
2020-08-20,8937,815,8062,4478,737,3719,17
2020-08-21,9216,897,8245,4539,780,3745,11
2020-08-22,3069,311,2750,1727,285,1441,10
2020-08-23,3610,355,3232,1782,324,1453,12
2020-08-24,12397,1551,10738,6560,1445,5090,6
2020-08-25,11481,1333,10047,5648,1231,4404,11
2020-08-26,10455,1346,8974,5078,1244,3814,9
2020-08-27,10217,1309,8781,5378,1204,4152,12
2020-08-28,10628,1306,9273,5579,1195,4368,11
2020-08-29,3384,317,3056,1830,299,1530,12
2020-08-30,3575,293,3278,1767,279,1488,6
2020-08-31,13232,1270,11898,7008,1183,5818,10
2020-09-01,12526,1066,11421,6142,965,5170,10
2020-09-02,13049,1218,11777,5873,1144,4726,5
2020-09-03,13608,1010,12564,5417,926,4488,13
2020-09-04,12766,1018,11683,5295,909,4372,10
2020-09-05,3722,267,3448,1781,240,1540,6
2020-09-06,3795,262,3525,1905,243,1662,8
2020-09-07,3491,285,3199,1569,274,1295,13
2020-09-08,23293,1365,21869,8079,1239,6830,11
2020-09-09,14748,996,13716,6229,902,5323,9
2020-09-10,14996,942,13991,5536,864,4662,10
2020-09-11,15942,1016,14878,5957,911,5041,6
2020-09-12,3962,249,3709,2125,229,1896,4
2020-09-13,3657,275,3377,1795,244,1551,4
2020-09-14,20736,1675,18987,8252,1585,6654,8
2020-09-15,18526,1073,17413,6417,997,5416,4
2020-09-16,13090,1123,11939,5805,1033,4770,8
2020-09-17,16112,1067,15009,5552,988,4556,9
2020-09-18,14301,1128,13135,5910,1030,4872,6
2020-09-19,4431,344,4079,2264,320,1942,9
2020-09-20,3763,301,3456,1862,276,1586,5
2020-09-21,21047,1492,19510,8646,1426,7210,4
2020-09-22,20725,1291,19382,7694,1212,6477,6
2020-09-23,15751,1106,14611,6716,1047,5661,13
2020-09-24,17524,1004,16480,6093,930,5157,10
2020-09-25,15044,1001,14016,6309,943,5364,12
2020-09-26,4007,296,3699,2069,279,1787,12
2020-09-27,3745,266,3474,1846,247,1598,10
2020-09-28,22129,1537,20559,8460,1475,6983,10
2020-09-29,19621,1057,18523,6708,995,5705,11
2020-09-30,15333,1031,14271,6245,964,5276,12
2020-10-01,16492,941,15516,5427,876,4547,14
2020-10-02,14704,950,13704,6063,889,5165,7
2020-10-03,4180,390,3782,2258,356,1900,16
2020-10-04,4047,319,3723,2032,292,1738,9
2020-10-05,24915,1755,23100,9507,1680,7810,16
2020-10-06,23150,1308,21803,7955,1218,6733,5
2020-10-07,16369,1329,15000,7217,1261,5949,18
2020-10-08,18703,1329,17346,6541,1226,5310,15
2020-10-09,15883,1284,14573,6864,1206,5654,21
2020-10-10,4184,405,3772,2380,364,2015,10
2020-10-11,4117,348,3766,2090,323,1767,14
2020-10-12,25976,2009,23920,9513,1942,7562,15
2020-10-13,22647,1431,21180,8086,1332,6750,5
2020-10-14,15320,1355,13942,6904,1262,5638,14
2020-10-15,20288,1322,18946,6578,1240,5335,19
2020-10-16,15858,1227,14591,7041,1129,5908,21
2020-10-17,4386,432,3944,2594,372,2218,20
2020-10-18,4222,368,3847,2195,336,1856,11
2020-10-19,27412,2086,25216,10006,1987,8006,19
2020-10-20,22433,1495,20861,8088,1420,6662,26
2020-10-21,16445,1694,14711,7679,1594,6080,14
2020-10-22,20953,1808,19113,7432,1692,5733,19
2020-10-23,16798,1688,15064,7607,1567,6033,14
2020-10-24,4850,688,4152,2856,637,2217,11
2020-10-25,5428,592,4825,2648,552,2096,15
2020-10-26,30256,3299,26869,11300,3174,8115,13
2020-10-27,25777,2684,23034,9986,2526,7448,11
2020-10-28,19850,2798,17000,9981,2642,7328,21
2020-10-29,26548,3156,23334,10339,3029,7296,22
2020-10-30,21338,3008,18286,10250,2833,7409,21
2020-10-31,6349,1203,5134,3686,1140,2545,24
2020-11-01,7158,1240,5898,3649,1161,2485,31
2020-11-02,36681,5554,31066,15613,5372,10229,38
2020-11-03,32262,5084,27098,14652,4920,9707,26
2020-11-04,25341,5203,20073,14316,5017,9286,30
2020-11-05,34564,5405,29072,15101,5184,9894,51
2020-11-06,28606,5036,23421,14966,4789,10150,40
2020-11-07,8746,2110,6622,5775,2024,3749,32
2020-11-08,9975,2049,7883,5300,1834,3458,46
2020-11-09,44702,7682,36953,21231,7385,13824,34
2020-11-10,33265,5672,27517,17087,5415,11651,44
2020-11-11,22440,4591,17803,13786,4418,9359,38
2020-11-12,40639,5609,34949,18210,5345,12839,60
2020-11-13,30490,4554,25860,16415,4268,12130,33
2020-11-14,8780,1635,7111,5625,1506,4102,37
2020-11-15,8202,1509,6649,5296,1321,3960,47
2020-11-16,45396,6264,39054,21591,6034,15545,47
2020-11-17,34824,4952,29759,18531,4635,13873,53
2020-11-18,26297,4324,21871,17035,4087,12931,49
2020-11-19,38241,4063,34075,17068,3841,13200,66
2020-11-20,30329,3738,26506,16420,3492,12909,52
2020-11-21,9364,1377,7961,6168,1274,4884,54
2020-11-22,8570,1229,7305,5004,1103,3891,40
2020-11-23,43535,4561,38789,19373,4314,15024,48
2020-11-24,27292,3188,23959,14263,2974,11251,33
2020-11-25,27742,2880,24797,12198,2699,9485,49
2020-11-26,4908,464,4414,1869,346,1515,44
2020-11-27,22292,2665,19551,9940,2513,7408,41
2020-11-28,7059,1189,5855,4165,1098,3063,35
2020-11-29,6698,1038,5540,4202,879,3270,30
2020-11-30,37461,4329,32973,17101,4107,12960,33
2020-12-01,26147,3055,22984,14015,2857,11132,17
2020-12-02,18284,2441,15763,12039,2295,9732,13
2020-12-03,28845,2390,26393,12482,2240,10230,6
2020-12-04,22042,2115,19872,11981,1963,10007,6
2020-12-05,6178,879,5285,4260,806,3451,4
2020-12-06,5800,678,5108,4248,593,3650,4
2020-12-07,33595,2997,30536,19439,2787,16638,2
2020-12-08,23212,2108,21043,16049,1960,14070,1
2020-12-09,14536,1753,12718,12688,1653,11019,3
2020-12-10,23708,1675,22002,21683,1565,20109,0
2020-12-11,12877,1106,11659,11993,1022,10929,0
2020-12-12,1210,124,1084,1143,114,1029,0
2020-12-13,31,2,29,30,2,28,0
