Date,State - Total Tests,State - Positive Tests,State - Negative Tests,State - Individuals Tested,State - Individuals Positive,State - Individuals Negative,State - Deaths
2020-03-11,28,2,26,13,2,11,0
2020-03-12,69,3,66,30,2,28,0
2020-03-13,121,6,115,56,6,50,0
2020-03-14,99,3,96,52,2,50,0
2020-03-15,125,1,124,50,1,49,0
2020-03-16,436,19,417,195,20,175,0
2020-03-17,461,23,438,204,22,182,0
2020-03-18,437,27,410,191,26,165,0
2020-03-19,455,30,425,191,28,163,0
2020-03-20,497,27,469,194,26,168,0
2020-03-21,264,16,248,106,15,91,0
2020-03-22,272,19,253,108,18,90,0
2020-03-23,863,54,805,341,53,287,0
2020-03-24,849,58,791,327,56,271,1
2020-03-25,843,70,773,328,65,263,0
2020-03-26,934,67,866,348,64,284,1
2020-03-27,899,71,826,366,69,297,2
2020-03-28,453,41,411,188,40,148,1
2020-03-29,362,39,323,146,36,110,1
2020-03-30,1154,115,1039,464,114,350,1
2020-03-31,1010,81,929,393,78,315,4
2020-04-01,996,89,905,405,83,322,2
2020-04-02,1055,86,969,400,83,317,1
2020-04-03,966,100,865,400,95,305,5
2020-04-04,415,57,358,173,55,118,3
2020-04-05,435,68,364,194,67,126,5
2020-04-06,1293,138,1154,526,131,395,0
2020-04-07,1168,122,1044,469,116,352,2
2020-04-08,1069,117,951,445,112,333,3
2020-04-09,966,123,843,408,114,294,5
2020-04-10,1139,249,889,555,242,313,3
2020-04-11,454,80,372,200,73,127,4
2020-04-12,371,62,309,157,56,101,4
2020-04-13,1219,216,1001,547,200,346,6
2020-04-14,1215,171,1043,496,154,342,3
2020-04-15,1316,191,1124,514,182,332,6
2020-04-16,2106,510,1581,1222,490,724,5
2020-04-17,2214,524,1685,1268,502,764,7
2020-04-18,751,188,562,353,175,178,5
2020-04-19,746,183,562,359,169,190,8
2020-04-20,2391,537,1853,1112,507,605,7
2020-04-21,2481,480,1999,1091,449,642,6
2020-04-22,2297,548,1747,1180,531,649,7
2020-04-23,2510,494,2014,1173,467,706,11
2020-04-24,3475,722,2749,1692,684,1006,5
2020-04-25,4733,1338,3360,2969,1280,1683,7
2020-04-26,1242,199,1014,520,161,356,8
2020-04-27,3381,603,2719,1523,561,947,9
2020-04-28,3821,699,3091,1856,660,1188,11
2020-04-29,4068,572,3373,1893,526,1335,13
2020-04-30,4047,491,3503,1868,448,1401,9
2020-05-01,3459,438,2979,1496,398,1091,11
2020-05-02,1240,201,1025,539,174,364,6
2020-05-03,1314,158,1154,487,125,362,14
2020-05-04,3938,654,3251,1917,602,1307,18
2020-05-05,4341,551,3766,2063,513,1543,10
2020-05-06,4286,410,3854,1672,373,1296,9
2020-05-07,3948,405,3500,1658,367,1275,12
2020-05-08,3704,378,3301,1651,340,1300,11
2020-05-09,1629,141,1487,679,120,559,13
2020-05-10,1592,142,1447,661,118,543,17
2020-05-11,5075,487,4513,2122,437,1673,14
2020-05-12,5271,444,4809,2091,406,1682,13
2020-05-13,4620,360,4251,1865,306,1557,13
2020-05-14,4948,404,4520,1788,351,1431,17
2020-05-15,4202,371,3811,1734,314,1413,7
2020-05-16,2113,184,1924,877,149,728,11
2020-05-17,2017,168,1841,823,122,701,11
2020-05-18,7777,861,6831,3235,788,2440,16
2020-05-19,6943,734,6160,3038,639,2394,17
2020-05-20,6230,503,5679,2411,444,1958,13
2020-05-21,5447,596,4812,2186,479,1698,11
2020-05-22,6098,367,5662,2501,308,2181,19
2020-05-23,1522,149,1370,660,119,541,7
2020-05-24,1829,164,1662,751,100,651,20
2020-05-25,1774,115,1655,722,88,634,10
2020-05-26,7643,565,6987,3221,468,2723,11
2020-05-27,7420,484,6903,2876,396,2473,13
2020-05-28,6956,539,6384,2919,438,2473,10
2020-05-29,6522,413,6083,2693,359,2330,12
2020-05-30,2190,158,2029,968,121,847,6
2020-05-31,2212,108,2101,937,76,861,10
2020-06-01,7371,578,6769,3133,478,2648,7
2020-06-02,6943,393,6531,2988,334,2650,12
2020-06-03,6768,467,6280,2829,383,2443,10
2020-06-04,6911,413,6475,2636,341,2289,8
2020-06-05,5964,429,5504,2677,357,2311,10
2020-06-06,2299,113,2178,965,90,875,8
2020-06-07,2126,89,2034,918,56,862,7
2020-06-08,8018,597,7391,3317,477,2833,8
2020-06-09,6951,369,6558,2920,313,2599,3
2020-06-10,6905,396,6474,2759,328,2421,8
2020-06-11,6622,317,6271,2570,266,2300,2
2020-06-12,6914,330,6546,2725,271,2445,5
2020-06-13,2219,96,2121,975,77,897,5
2020-06-14,2182,76,2103,929,55,874,5
2020-06-15,8497,527,7914,3478,443,3025,9
2020-06-16,7761,431,7295,3174,364,2804,4
2020-06-17,7435,437,6942,2966,375,2581,3
2020-06-18,7905,432,7129,2925,345,2517,2
2020-06-19,8333,516,7741,3461,456,2990,6
2020-06-20,2575,119,2449,1215,104,1110,3
2020-06-21,2348,98,2245,1047,82,965,0
2020-06-22,9981,640,9210,4339,556,3754,2
2020-06-23,9469,552,8885,3989,487,3494,4
2020-06-24,8600,470,8093,3581,424,3145,0
2020-06-25,9396,542,8799,3750,478,3263,4
2020-06-26,8465,522,7909,3651,451,3190,8
2020-06-27,2986,174,2807,1446,159,1287,2
2020-06-28,3020,187,2827,1418,169,1247,4
2020-06-29,11175,799,10291,5015,698,4300,0
2020-06-30,9812,770,8998,4226,686,3527,1
2020-07-01,9337,643,8644,3972,574,3378,4
2020-07-02,10141,769,9302,4577,683,3876,3
2020-07-03,3808,271,3532,1694,247,1446,9
2020-07-04,1913,122,1790,887,99,788,1
2020-07-05,3185,223,2957,1490,201,1289,3
2020-07-06,12200,875,11253,5793,765,5015,4
2020-07-07,11599,802,10745,5192,724,4454,3
2020-07-08,11342,920,10371,4716,810,3895,4
2020-07-09,10069,867,9158,4390,766,3612,2
2020-07-10,10092,627,9439,4495,559,3932,6
2020-07-11,3747,236,3501,1771,210,1559,6
2020-07-12,3266,217,3045,1565,202,1361,6
2020-07-13,12562,903,11590,5676,781,4880,7
2020-07-14,10964,737,10173,4776,625,4139,4
2020-07-15,10663,746,9858,4595,656,3926,6
2020-07-16,8990,670,8294,4136,556,3573,4
2020-07-17,8714,602,8068,4027,512,3509,7
2020-07-18,3321,178,3131,1646,152,1490,6
2020-07-19,2756,149,2603,1241,133,1108,3
2020-07-20,11924,895,10967,5408,738,4657,8
2020-07-21,10021,706,9266,4429,580,3838,9
2020-07-22,9434,742,8646,4157,583,3569,8
2020-07-23,8738,716,7964,3828,582,3232,7
2020-07-24,8976,661,8270,4092,549,3538,6
2020-07-25,2702,159,2531,1338,133,1202,6
2020-07-26,2613,168,2439,1236,143,1093,5
2020-07-27,10802,861,9875,5130,733,4388,13
2020-07-28,9595,730,8805,4352,586,3755,8
2020-07-29,8536,706,7790,3898,597,3294,6
2020-07-30,7777,737,7007,3642,625,3008,7
2020-07-31,8098,628,7443,3904,537,3361,3
2020-08-01,2601,165,2429,1245,136,1108,6
2020-08-02,2697,143,2546,1207,131,1076,8
2020-08-03,12512,946,11486,5624,829,4786,8
2020-08-04,10731,781,9895,4834,678,4146,9
2020-08-05,9734,646,9036,4224,533,3684,7
2020-08-06,8431,612,7768,3824,522,3291,6
2020-08-07,9406,680,8663,4248,536,3703,11
2020-08-08,2995,209,2779,1367,185,1182,7
2020-08-09,2771,168,2594,1195,156,1038,6
2020-08-10,9160,735,8335,4150,645,3493,7
2020-08-11,9209,635,8518,3980,542,3425,10
2020-08-12,11002,823,10068,5009,692,4303,3
2020-08-13,9450,810,8573,4116,682,3428,13
2020-08-14,9733,767,8854,4658,678,3934,10
2020-08-15,3519,222,3271,1772,205,1564,5
2020-08-16,3092,206,2871,1614,183,1430,5
2020-08-17,11111,1147,9883,5677,1019,4640,9
2020-08-18,10586,838,9668,4729,770,3940,9
2020-08-19,9388,855,8471,4536,789,3733,4
2020-08-20,8955,815,8080,4284,736,3527,17
2020-08-21,9232,897,8261,4350,779,3558,11
2020-08-22,3073,311,2754,1634,284,1349,10
2020-08-23,3613,355,3235,1704,323,1376,12
2020-08-24,12422,1551,10761,6311,1443,4845,6
2020-08-25,11502,1333,10068,5425,1228,4185,11
2020-08-26,10487,1346,9006,4875,1242,3613,9
2020-08-27,10224,1309,8788,5190,1203,3966,12
2020-08-28,10644,1306,9289,5349,1193,4140,11
2020-08-29,3389,317,3061,1759,299,1459,12
2020-08-30,3585,293,3288,1690,278,1412,6
2020-08-31,13271,1270,11937,6680,1182,5491,10
2020-09-01,12551,1066,11446,5854,965,4883,10
2020-09-02,13105,1218,11832,5635,1141,4491,5
2020-09-03,13717,1010,12673,5171,925,4243,13
2020-09-04,12851,1018,11768,5065,907,4147,10
2020-09-05,3737,267,3463,1707,240,1466,6
2020-09-06,3802,262,3532,1816,241,1575,8
2020-09-07,3512,285,3220,1487,274,1213,13
2020-09-08,23456,1364,22033,7710,1236,6465,11
2020-09-09,14814,996,13782,5956,901,5051,9
2020-09-10,15124,941,14120,5309,863,4436,10
2020-09-11,16070,1016,15006,5674,909,4760,6
2020-09-12,3969,249,3716,2025,229,1796,4
2020-09-13,3663,275,3383,1701,243,1458,4
2020-09-14,20938,1675,19189,7896,1581,6302,8
2020-09-15,18676,1072,17564,6082,996,5082,4
2020-09-16,13217,1123,12065,5578,1033,4543,8
2020-09-17,16268,1067,15165,5310,988,4316,9
2020-09-18,14418,1128,13252,5654,1029,4617,6
2020-09-19,4441,344,4089,2153,320,1831,9
2020-09-20,3781,301,3474,1774,276,1498,5
2020-09-21,21191,1492,19654,8259,1425,6824,4
2020-09-22,20887,1290,19545,7347,1210,6132,6
2020-09-23,15836,1106,14696,6394,1046,5340,13
2020-09-24,17672,1004,16628,5793,930,4857,10
2020-09-25,15122,1003,14092,5968,944,5022,12
2020-09-26,4020,296,3712,1979,278,1698,12
2020-09-27,3759,266,3488,1739,247,1491,10
2020-09-28,22393,1537,20822,8087,1475,6609,10
2020-09-29,19783,1060,18681,6370,996,5367,11
2020-09-30,15460,1031,14398,5965,964,4996,12
2020-10-01,16707,941,15729,5139,877,4258,14
2020-10-02,14885,951,13885,5751,889,4853,7
2020-10-03,4200,390,3802,2145,356,1787,16
2020-10-04,4060,320,3735,1930,292,1636,9
2020-10-05,25171,1757,23354,9021,1682,7322,16
2020-10-06,23314,1309,21966,7567,1219,6344,5
2020-10-07,16474,1330,15104,6836,1262,5567,18
2020-10-08,19051,1330,17693,6236,1226,5005,15
2020-10-09,16038,1284,14728,6548,1206,5338,22
2020-10-10,4202,405,3789,2246,364,1881,10
2020-10-11,4138,348,3787,1986,323,1663,14
2020-10-12,26358,2013,24298,9115,1945,7161,15
2020-10-13,22823,1430,21357,7719,1331,6384,5
2020-10-14,15410,1355,14032,6565,1264,5297,14
2020-10-15,20732,1325,19387,6270,1242,5025,19
2020-10-16,16006,1227,14739,6695,1129,5562,21
2020-10-17,4401,432,3959,2479,372,2103,20
2020-10-18,4269,368,3893,2096,336,1757,11
2020-10-19,27936,2087,25739,9521,1988,7520,19
2020-10-20,22604,1496,21036,7665,1420,6239,26
2020-10-21,16566,1693,14832,7315,1594,5716,14
2020-10-22,21416,1806,19577,7122,1693,5422,20
2020-10-23,16961,1692,15223,7192,1569,5616,14
2020-10-24,4867,688,4169,2703,635,2066,11
2020-10-25,5509,594,4904,2515,553,1962,15
2020-10-26,30730,3305,27337,10832,3178,7643,13
2020-10-27,25961,2684,23218,9480,2526,6942,11
2020-10-28,20014,2800,17163,9526,2643,6873,21
2020-10-29,27036,3160,23817,9901,3032,6855,22
2020-10-30,21629,3007,18578,9767,2833,6926,21
2020-10-31,6387,1203,5172,3522,1142,2379,24
2020-11-01,7265,1243,6002,3499,1162,2334,32
2020-11-02,37299,5565,31672,14988,5378,9599,39
2020-11-03,32454,5086,27288,13976,4924,9027,26
2020-11-04,25569,5210,20294,13810,5022,8775,30
2020-11-05,35183,5434,29661,14486,5212,9251,53
2020-11-06,29018,5064,23805,14312,4816,9469,39
2020-11-07,8789,2118,6657,5552,2032,3518,33
2020-11-08,10086,2055,7988,5082,1840,3234,47
2020-11-09,45438,7699,37672,20252,7399,12831,35
2020-11-10,34085,5694,28311,16372,5435,10917,44
2020-11-11,22711,4605,18059,13244,4429,8806,39
2020-11-12,41482,5630,35767,17430,5364,12040,61
2020-11-13,31024,4570,26378,15611,4283,11312,36
2020-11-14,8829,1660,7135,5358,1548,3793,39
2020-11-15,8269,1517,6707,4990,1330,3647,49
2020-11-16,46686,6313,40291,20484,6103,14369,49
2020-11-17,35478,4972,30393,17461,4655,12784,58
2020-11-18,26635,4341,22192,16085,4101,11967,58
2020-11-19,38925,4085,34731,15955,3861,12068,72
2020-11-20,31015,3774,27154,15181,3527,11636,59
2020-11-21,9435,1400,8009,5754,1295,4451,59
2020-11-22,8664,1247,7380,4631,1121,3501,46
2020-11-23,44684,4628,39865,17822,4381,13406,59
2020-11-24,28142,3225,24771,13156,3008,10113,36
2020-11-25,28433,2897,25471,11045,2714,8317,61
2020-11-26,5090,472,4588,1669,350,1311,62
2020-11-27,23054,2672,20307,9109,2514,6576,57
2020-11-28,7134,1193,5926,3886,1102,2781,56
2020-11-29,6749,1042,5587,3802,882,2871,51
2020-11-30,38576,4342,34068,15260,4119,11109,65
2020-12-01,27205,3068,24026,12423,2866,9534,53
2020-12-02,18583,2457,16046,10854,2307,8536,47
2020-12-03,29814,2402,27350,10569,2250,8309,49
2020-12-04,22994,2132,20807,10171,1978,8184,45
2020-12-05,6281,895,5372,3833,821,3011,40
2020-12-06,5902,692,5196,3503,608,2892,42
2020-12-07,36068,3193,32811,13961,2967,10980,32
2020-12-08,24964,2190,22711,11052,2034,9004,33
2020-12-09,16092,1861,14160,9418,1744,7664,30
2020-12-10,28382,1962,26359,9866,1831,8021,18
2020-12-11,20328,1730,18465,9325,1606,7702,17
2020-12-12,5226,563,4652,3169,512,2654,19
2020-12-13,5577,596,4953,3410,553,2855,8
2020-12-14,33378,2745,30500,13528,2598,10917,10
2020-12-15,23282,1857,21349,11767,1735,10018,3
2020-12-16,16189,1776,14350,10093,1644,8436,6
2020-12-17,27786,1669,26074,10688,1567,9112,5
2020-12-18,20732,1557,19132,11240,1455,9775,5
2020-12-19,5987,634,5339,3858,602,3253,3
2020-12-20,6074,585,5457,3923,517,3395,3
2020-12-21,36061,2536,33441,17171,2417,14742,3
2020-12-22,18378,1699,16639,12792,1557,11221,2
2020-12-23,20188,1363,18794,12616,1266,11340,1
2020-12-24,15630,949,14664,8414,867,7541,1
2020-12-25,2341,177,2163,1449,154,1295,0
2020-12-26,6054,795,5254,5009,755,4252,0
2020-12-27,5419,587,4821,4760,556,4202,0
2020-12-28,24176,1746,22396,21872,1691,20171,0
2020-12-29,4372,304,4068,4022,287,3735,0
2020-12-30,38,1,37,37,1,36,0
