Date,State - Total Tests,State - Positive Tests,State - Negative Tests,State - Individuals Tested,State - Individuals Positive,State - Individuals Negative,State - Deaths
2020-03-11,28,2,26,12,2,10,0
2020-03-12,69,3,66,29,2,27,0
2020-03-13,121,6,115,56,6,50,0
2020-03-14,99,3,96,52,2,50,0
2020-03-15,125,1,124,50,1,49,0
2020-03-16,436,19,417,192,20,172,0
2020-03-17,461,23,438,201,22,179,0
2020-03-18,437,27,410,186,26,160,0
2020-03-19,455,30,425,187,28,159,0
2020-03-20,497,27,469,190,26,164,0
2020-03-21,264,16,248,106,15,91,0
2020-03-22,272,19,253,105,18,87,0
2020-03-23,863,54,805,337,52,284,0
2020-03-24,849,58,791,324,56,268,1
2020-03-25,843,70,773,322,65,257,0
2020-03-26,934,67,866,340,64,276,1
2020-03-27,899,71,826,360,69,291,2
2020-03-28,453,41,411,184,40,144,1
2020-03-29,362,39,323,143,36,107,1
2020-03-30,1154,115,1039,455,114,341,1
2020-03-31,1010,81,929,388,78,310,4
2020-04-01,996,89,905,400,83,317,2
2020-04-02,1055,86,969,391,83,308,1
2020-04-03,966,100,865,397,94,303,5
2020-04-04,415,57,358,169,55,114,3
2020-04-05,435,68,364,192,67,124,5
2020-04-06,1293,138,1154,514,131,383,0
2020-04-07,1168,122,1044,461,116,344,2
2020-04-08,1069,117,951,440,112,328,3
2020-04-09,966,123,843,404,114,290,4
2020-04-10,1139,249,889,549,242,307,3
2020-04-11,454,80,372,197,73,124,4
2020-04-12,371,62,309,156,56,100,4
2020-04-13,1219,216,1001,541,200,340,6
2020-04-14,1215,171,1043,488,154,334,3
2020-04-15,1316,191,1124,508,182,326,6
2020-04-16,2106,510,1581,1214,490,716,5
2020-04-17,2214,525,1684,1256,502,752,7
2020-04-18,751,188,562,351,175,176,5
2020-04-19,746,183,562,356,169,187,7
2020-04-20,2391,537,1853,1099,507,592,7
2020-04-21,2481,480,1999,1077,449,628,6
2020-04-22,2297,548,1747,1169,531,638,7
2020-04-23,2510,494,2014,1164,467,697,11
2020-04-24,3476,722,2750,1676,683,991,5
2020-04-25,4734,1338,3361,2947,1280,1661,7
2020-04-26,1242,199,1014,513,161,349,8
2020-04-27,3381,603,2719,1506,561,930,9
2020-04-28,3821,699,3091,1836,660,1168,11
2020-04-29,4069,572,3374,1868,525,1311,13
2020-04-30,4049,490,3506,1849,448,1382,9
2020-05-01,3468,438,2987,1472,398,1067,10
2020-05-02,1241,201,1026,534,174,359,6
2020-05-03,1314,158,1154,482,125,357,14
2020-05-04,3942,654,3255,1894,602,1285,18
2020-05-05,4345,551,3770,2048,513,1528,10
2020-05-06,4290,410,3858,1650,373,1274,9
2020-05-07,3950,405,3502,1648,367,1265,12
2020-05-08,3707,379,3303,1635,341,1283,11
2020-05-09,1630,142,1487,673,121,552,12
2020-05-10,1592,142,1447,653,118,535,17
2020-05-11,5077,486,4514,2094,437,1646,14
2020-05-12,5276,444,4814,2070,406,1661,14
2020-05-13,4623,360,4254,1835,306,1527,13
2020-05-14,4950,404,4522,1756,351,1399,17
2020-05-15,4206,371,3815,1714,314,1393,7
2020-05-16,2113,184,1924,863,148,715,11
2020-05-17,2018,168,1842,813,122,691,11
2020-05-18,7779,861,6833,3174,788,2379,16
2020-05-19,6944,734,6160,2998,639,2354,17
2020-05-20,6232,503,5681,2378,443,1926,13
2020-05-21,5459,596,4824,2158,478,1671,11
2020-05-22,6113,367,5677,2466,308,2146,19
2020-05-23,1522,149,1370,650,119,531,7
2020-05-24,1830,164,1663,743,100,643,20
2020-05-25,1775,115,1656,713,88,625,10
2020-05-26,7645,564,6990,3171,468,2674,11
2020-05-27,7423,484,6906,2826,395,2425,13
2020-05-28,6961,539,6389,2866,437,2421,10
2020-05-29,6541,413,6102,2652,359,2289,12
2020-05-30,2195,158,2034,951,121,830,6
2020-05-31,2212,108,2101,922,76,846,10
2020-06-01,7375,578,6773,3106,478,2621,7
2020-06-02,6944,393,6532,2935,334,2597,12
2020-06-03,6768,467,6280,2792,383,2406,10
2020-06-04,6912,413,6476,2604,341,2257,8
2020-06-05,5965,430,5504,2644,357,2278,10
2020-06-06,2300,113,2179,947,90,857,8
2020-06-07,2126,89,2034,901,56,845,7
2020-06-08,8021,597,7394,3281,477,2797,8
2020-06-09,6956,369,6563,2873,312,2554,3
2020-06-10,6908,396,6477,2721,328,2383,8
2020-06-11,6626,317,6275,2528,266,2258,2
2020-06-12,6916,330,6548,2675,270,2397,5
2020-06-13,2221,96,2123,964,77,886,5
2020-06-14,2184,76,2105,911,55,856,5
2020-06-15,8502,527,7918,3410,442,2958,9
2020-06-16,7764,431,7298,3117,363,2748,4
2020-06-17,7439,437,6947,2918,375,2533,3
2020-06-18,7909,432,7133,2884,345,2480,2
2020-06-19,8338,516,7746,3410,456,2939,6
2020-06-20,2579,119,2453,1191,104,1086,3
2020-06-21,2348,98,2245,1033,82,951,0
2020-06-22,9988,640,9217,4275,553,3693,2
2020-06-23,9473,551,8890,3926,487,3431,4
2020-06-24,8601,470,8094,3532,424,3096,0
2020-06-25,9403,542,8806,3701,477,3215,4
2020-06-26,8468,522,7912,3588,451,3127,8
2020-06-27,2987,174,2808,1430,159,1271,2
2020-06-28,3021,187,2828,1402,169,1231,4
2020-06-29,11178,799,10294,4937,697,4223,0
2020-06-30,9814,770,9000,4164,685,3466,1
2020-07-01,9342,643,8649,3919,574,3325,4
2020-07-02,10145,769,9306,4507,683,3807,3
2020-07-03,3811,273,3533,1674,247,1426,9
2020-07-04,1915,122,1792,875,99,776,1
2020-07-05,3187,223,2959,1470,201,1269,3
2020-07-06,12209,875,11262,5707,765,4929,4
2020-07-07,11612,801,10759,5110,724,4372,3
2020-07-08,11357,920,10386,4635,811,3813,4
2020-07-09,10076,868,9164,4322,767,3543,2
2020-07-10,10098,626,9446,4423,559,3861,6
2020-07-11,3750,236,3504,1746,210,1534,6
2020-07-12,3267,217,3046,1537,202,1333,6
2020-07-13,12584,903,11612,5589,781,4793,7
2020-07-14,10972,737,10181,4706,625,4069,4
2020-07-15,10670,746,9865,4527,656,3858,6
2020-07-16,8998,670,8302,4072,556,3509,4
2020-07-17,8720,602,8074,3964,512,3446,7
2020-07-18,3323,178,3133,1620,152,1464,6
2020-07-19,2757,149,2604,1222,133,1089,3
2020-07-20,11940,895,10983,5341,738,4590,8
2020-07-21,10026,706,9270,4361,580,3770,9
2020-07-22,9444,742,8656,4096,583,3508,8
2020-07-23,8746,717,7971,3762,582,3168,7
2020-07-24,8985,662,8279,4015,549,3461,6
2020-07-25,2709,159,2538,1329,133,1193,6
2020-07-26,2617,168,2443,1217,143,1074,5
2020-07-27,10818,861,9890,5051,732,4310,13
2020-07-28,9602,730,8812,4283,586,3686,8
2020-07-29,8538,706,7792,3849,597,3245,6
2020-07-30,7782,737,7012,3598,625,2964,7
2020-07-31,8105,629,7449,3848,538,3304,3
2020-08-01,2601,165,2429,1231,136,1094,6
2020-08-02,2698,143,2547,1190,131,1059,8
2020-08-03,12522,946,11496,5542,829,4704,8
2020-08-04,10736,781,9900,4754,678,4066,9
2020-08-05,9740,646,9041,4145,533,3605,7
2020-08-06,8435,612,7772,3774,522,3241,6
2020-08-07,9412,680,8669,4180,538,3633,11
2020-08-08,2997,209,2781,1347,185,1162,7
2020-08-09,2772,168,2595,1172,156,1016,6
2020-08-10,9165,735,8340,4082,645,3425,7
2020-08-11,9233,635,8542,3921,540,3368,10
2020-08-12,11007,823,10073,4917,692,4211,3
2020-08-13,9452,810,8575,4049,681,3363,13
2020-08-14,9736,767,8857,4594,677,3872,10
2020-08-15,3521,222,3273,1749,205,1541,5
2020-08-16,3094,206,2873,1592,183,1408,5
2020-08-17,11120,1147,9892,5580,1018,4544,9
2020-08-18,10609,839,9690,4624,769,3836,9
2020-08-19,9397,855,8480,4438,788,3636,4
2020-08-20,8959,815,8084,4176,736,3419,17
2020-08-21,9240,897,8269,4280,778,3489,11
2020-08-22,3075,311,2756,1611,284,1326,10
2020-08-23,3614,355,3236,1666,323,1338,12
2020-08-24,12430,1551,10770,6214,1443,4748,6
2020-08-25,11506,1333,10072,5336,1228,4096,11
2020-08-26,10507,1346,9024,4785,1240,3525,9
2020-08-27,10229,1309,8793,5115,1202,3892,12
2020-08-28,10650,1306,9295,5267,1193,4058,11
2020-08-29,3390,317,3062,1727,299,1427,12
2020-08-30,3586,293,3289,1666,278,1388,6
2020-08-31,13278,1270,11944,6575,1180,5388,10
2020-09-01,12557,1066,11451,5771,964,4801,10
2020-09-02,13110,1218,11837,5541,1141,4397,5
2020-09-03,13739,1010,12695,5081,924,4154,14
2020-09-04,12858,1017,11776,4989,905,4073,10
2020-09-05,3742,267,3468,1680,240,1439,6
2020-09-06,3803,262,3533,1782,241,1541,8
2020-09-07,3515,285,3223,1463,274,1189,13
2020-09-08,23488,1364,22064,7599,1236,6354,11
2020-09-09,14823,996,13791,5847,901,4942,9
2020-09-10,15137,941,14133,5220,862,4349,10
2020-09-11,16080,1016,15015,5570,909,4656,6
2020-09-12,3972,249,3719,1990,229,1761,4
2020-09-13,3663,275,3383,1653,243,1410,4
2020-09-14,20953,1674,19205,7790,1579,6198,8
2020-09-15,18751,1073,17638,5997,994,4999,4
2020-09-16,13226,1123,12074,5493,1033,4458,8
2020-09-17,16274,1067,15171,5215,985,4224,9
2020-09-18,14447,1128,13281,5553,1029,4516,6
2020-09-19,4445,344,4093,2117,320,1795,9
2020-09-20,3785,301,3478,1746,275,1471,5
2020-09-21,21201,1491,19665,8114,1423,6681,4
2020-09-22,20925,1290,19583,7211,1210,5996,6
2020-09-23,15848,1106,14708,6306,1046,5252,13
2020-09-24,17686,1005,16641,5711,930,4775,11
2020-09-25,15139,1002,14110,5860,944,4914,12
2020-09-26,4025,296,3718,1941,278,1660,12
2020-09-27,3765,266,3494,1710,247,1462,10
2020-09-28,22404,1537,20833,7947,1473,6471,10
2020-09-29,19804,1060,18702,6244,995,5242,11
2020-09-30,15485,1031,14423,5858,963,4890,12
2020-10-01,16722,941,15744,5053,877,4172,14
2020-10-02,14899,951,13899,5642,889,4744,10
2020-10-03,4202,390,3804,2111,356,1753,17
2020-10-04,4063,320,3738,1884,292,1590,9
2020-10-05,25201,1757,23384,8847,1682,7148,17
2020-10-06,23350,1308,22003,7426,1219,6203,7
2020-10-07,16476,1330,15106,6701,1262,5433,22
2020-10-08,19090,1330,17732,6135,1226,4904,16
2020-10-09,16046,1284,14735,6422,1206,5212,23
2020-10-10,4203,405,3790,2211,364,1846,11
2020-10-11,4140,348,3789,1941,323,1618,15
2020-10-12,26465,2014,24404,8937,1944,6984,18
2020-10-13,22870,1432,21402,7573,1329,6240,6
2020-10-14,15418,1355,14040,6441,1264,5173,16
2020-10-15,20744,1325,19399,6170,1241,4926,20
2020-10-16,16063,1227,14796,6572,1129,5439,21
2020-10-17,4405,432,3963,2432,372,2056,20
2020-10-18,4271,368,3895,2060,335,1722,11
2020-10-19,27981,2087,25784,9327,1989,7325,20
2020-10-20,22635,1495,21067,7523,1420,6097,27
2020-10-21,16573,1692,14841,7161,1594,5562,16
2020-10-22,21450,1807,19610,6969,1693,5269,24
2020-10-23,16986,1694,15246,7052,1569,5476,17
2020-10-24,4870,688,4172,2651,635,2014,14
2020-10-25,5515,594,4910,2454,553,1901,15
2020-10-26,30778,3305,27385,10651,3179,7461,14
2020-10-27,26007,2685,23263,9310,2526,6773,12
2020-10-28,20017,2803,17163,9340,2644,6686,21
2020-10-29,27080,3158,23864,9722,3032,6676,22
2020-10-30,21649,3007,18598,9591,2833,6750,21
2020-10-31,6389,1204,5173,3445,1142,2302,24
2020-11-01,7273,1243,6010,3413,1163,2247,32
2020-11-02,37347,5567,31717,14748,5380,9357,39
2020-11-03,32489,5085,27324,13782,4925,8833,28
2020-11-04,25580,5212,20303,13573,5025,8535,30
2020-11-05,35255,5457,29710,14265,5235,9008,54
2020-11-06,29091,5092,23850,14081,4842,9213,39
2020-11-07,8822,2145,6663,5498,2059,3437,33
2020-11-08,10100,2063,7994,5026,1849,3169,47
2020-11-09,45577,7759,37752,19996,7458,12516,35
2020-11-10,34168,5716,28372,16158,5456,10683,44
2020-11-11,22736,4616,18073,13033,4444,8580,39
2020-11-12,41566,5652,35829,17142,5388,11728,62
2020-11-13,31068,4592,26399,15332,4300,11016,37
2020-11-14,8843,1673,7136,5284,1558,3709,39
2020-11-15,8293,1534,6714,4902,1345,3544,49
2020-11-16,46780,6330,40368,20141,6119,14010,49
2020-11-17,35536,4981,30442,17168,4664,12482,59
2020-11-18,26657,4350,22204,15762,4109,11636,59
2020-11-19,39017,4092,34816,15687,3867,11794,73
2020-11-20,31050,3780,27183,14833,3532,11284,60
2020-11-21,9441,1402,8013,5631,1297,4326,59
2020-11-22,8674,1248,7389,4534,1122,3403,48
2020-11-23,44739,4635,39912,17484,4386,13063,60
2020-11-24,28214,3230,24838,12881,3012,9834,37
2020-11-25,28462,2897,25498,10789,2715,8060,62
2020-11-26,5099,472,4597,1626,350,1268,62
2020-11-27,23115,2675,20365,8875,2518,6339,59
2020-11-28,7146,1194,5937,3794,1104,2688,60
2020-11-29,6763,1043,5600,3707,883,2775,52
2020-11-30,38697,4350,34181,14909,4128,10751,69
2020-12-01,27276,3070,24093,12130,2866,9241,59
2020-12-02,18622,2458,16084,10535,2309,8215,52
2020-12-03,29860,2406,27392,10146,2253,7883,56
2020-12-04,23045,2134,20855,9826,1981,7836,52
2020-12-05,6298,897,5387,3734,822,2911,46
2020-12-06,5919,694,5211,3379,609,2767,45
2020-12-07,36155,3194,32897,13528,2967,10547,43
2020-12-08,25107,2190,22854,10687,2034,8639,48
2020-12-09,16150,1864,14215,9142,1749,7383,40
2020-12-10,28513,1965,26486,9561,1836,7712,24
2020-12-11,20450,1732,18585,8998,1608,7373,30
2020-12-12,5252,566,4675,3091,515,2573,31
2020-12-13,5585,596,4962,3308,553,2753,24
2020-12-14,33521,2752,30636,12810,2604,10193,23
2020-12-15,23464,1864,21524,10869,1741,9115,10
2020-12-16,16252,1783,14406,9557,1649,7895,16
2020-12-17,28086,1675,26368,9786,1574,8203,10
2020-12-18,20907,1565,19299,10496,1464,9022,7
2020-12-19,6040,642,5384,3666,610,3053,4
2020-12-20,6152,596,5523,3737,531,3194,3
2020-12-21,36876,2569,34222,14170,2446,11714,4
2020-12-22,18855,1716,17101,10951,1576,9362,5
2020-12-23,21089,1399,19658,9497,1304,8183,4
2020-12-24,16660,995,15648,5754,909,4841,5
2020-12-25,2518,177,2340,1043,155,888,1
2020-12-26,6963,951,6002,4685,899,3781,4
2020-12-27,6288,708,5566,3891,611,3278,1
2020-12-28,33308,2821,30398,14855,2678,12164,1
2020-12-29,12957,1431,11512,7905,1344,6559,1
2020-12-30,18507,1926,16550,12232,1837,10386,1
2020-12-31,20658,1578,19067,11117,1487,9629,0
2021-01-01,3953,358,3592,2365,330,2034,0
2021-01-02,6317,964,5347,4864,922,3938,1
2021-01-03,5692,724,4943,4960,662,4286,0
2021-01-04,26322,2612,23690,23988,2524,21460,0
2021-01-05,7261,453,6808,6636,437,6199,0
2021-01-06,30,5,25,27,4,23,0
