Date,State - Total Tests,State - Positive Tests,State - Negative Tests,State - Individuals Tested,State - Individuals Positive,State - Individuals Negative,State - Deaths
2020-03-11,28,2,26,12,2,10,0
2020-03-12,68,2,66,26,2,24,0
2020-03-13,121,6,115,55,6,49,0
2020-03-14,99,3,96,51,2,49,0
2020-03-15,125,1,124,49,1,48,0
2020-03-16,436,20,416,182,20,162,0
2020-03-17,462,23,439,195,22,173,0
2020-03-18,437,27,410,179,26,153,0
2020-03-19,455,30,425,180,28,152,0
2020-03-20,497,27,469,179,26,153,0
2020-03-21,265,16,249,102,15,87,0
2020-03-22,272,19,253,105,18,87,0
2020-03-23,863,54,805,324,52,271,0
2020-03-24,849,58,791,313,56,257,1
2020-03-25,843,70,773,312,65,247,0
2020-03-26,934,67,866,321,64,257,1
2020-03-27,899,71,826,343,69,274,2
2020-03-28,453,41,411,176,40,136,1
2020-03-29,362,39,323,139,36,103,1
2020-03-30,1154,115,1039,442,114,328,1
2020-03-31,1010,81,929,367,78,289,4
2020-04-01,996,89,905,387,83,304,2
2020-04-02,1055,86,969,375,83,292,1
2020-04-03,966,100,865,386,94,292,5
2020-04-04,415,57,358,163,54,109,3
2020-04-05,435,68,364,190,67,122,5
2020-04-06,1294,138,1155,498,131,367,0
2020-04-07,1168,122,1044,442,116,326,2
2020-04-08,1069,117,951,429,112,317,3
2020-04-09,966,123,843,390,114,276,4
2020-04-10,1139,248,889,536,241,295,3
2020-04-11,454,80,372,191,73,118,4
2020-04-12,371,62,309,152,56,96,4
2020-04-13,1219,216,1001,528,200,327,6
2020-04-14,1215,171,1043,475,154,321,3
2020-04-15,1316,191,1124,490,182,308,6
2020-04-16,2106,510,1581,1185,490,687,5
2020-04-17,2214,524,1685,1232,502,728,7
2020-04-18,751,188,562,348,175,173,5
2020-04-19,746,183,562,350,169,181,7
2020-04-20,2392,537,1854,1071,507,564,7
2020-04-21,2481,480,1999,1048,449,599,6
2020-04-22,2297,548,1747,1144,528,616,7
2020-04-23,2510,494,2014,1128,465,663,11
2020-04-24,3480,722,2754,1618,683,933,5
2020-04-25,4737,1338,3364,2872,1280,1586,7
2020-04-26,1242,199,1014,491,161,327,8
2020-04-27,3384,603,2721,1462,561,886,9
2020-04-28,3824,699,3094,1784,658,1118,11
2020-04-29,4083,572,3388,1799,525,1244,13
2020-04-30,4061,490,3518,1800,448,1333,9
2020-05-01,3480,438,2999,1428,398,1023,10
2020-05-02,1242,201,1027,519,174,344,6
2020-05-03,1314,158,1154,466,124,342,14
2020-05-04,3965,654,3278,1843,601,1235,18
2020-05-05,4390,551,3811,2010,513,1490,10
2020-05-06,4310,410,3877,1601,372,1226,9
2020-05-07,3970,405,3519,1607,366,1226,12
2020-05-08,3742,379,3335,1592,340,1241,11
2020-05-09,1632,142,1489,654,121,533,12
2020-05-10,1593,142,1448,613,118,495,17
2020-05-11,5094,486,4531,2018,436,1571,14
2020-05-12,5288,444,4826,1996,406,1587,14
2020-05-13,4641,360,4272,1770,306,1462,13
2020-05-14,4956,404,4528,1694,350,1338,17
2020-05-15,4223,371,3831,1667,314,1346,7
2020-05-16,2114,183,1926,831,148,683,11
2020-05-17,2019,168,1843,791,122,669,11
2020-05-18,7805,860,6860,3051,787,2257,16
2020-05-19,6962,734,6179,2886,635,2246,17
2020-05-20,6247,503,5696,2286,443,1834,13
2020-05-21,5470,596,4835,2057,477,1571,11
2020-05-22,6138,367,5702,2369,308,2049,19
2020-05-23,1526,149,1374,628,119,509,7
2020-05-24,1836,164,1669,724,100,624,20
2020-05-25,1791,115,1672,686,88,598,10
2020-05-26,7663,564,7009,3075,468,2578,11
2020-05-27,7460,484,6942,2706,394,2306,13
2020-05-28,6984,539,6412,2738,438,2292,10
2020-05-29,6558,413,6119,2540,359,2177,12
2020-05-30,2205,158,2044,932,121,811,6
2020-05-31,2219,108,2108,877,76,801,10
2020-06-01,7392,578,6790,2996,476,2514,7
2020-06-02,6967,393,6555,2811,334,2473,12
2020-06-03,6779,467,6291,2674,382,2290,10
2020-06-04,6924,413,6488,2493,341,2146,8
2020-06-05,5979,430,5518,2550,357,2184,10
2020-06-06,2310,113,2189,911,90,821,8
2020-06-07,2127,89,2035,866,56,810,7
2020-06-08,8038,597,7411,3159,477,2675,8
2020-06-09,6962,369,6569,2747,311,2429,3
2020-06-10,6914,396,6483,2605,328,2267,8
2020-06-11,6634,318,6282,2432,266,2162,2
2020-06-12,6928,330,6560,2575,270,2297,5
2020-06-13,2229,96,2131,924,77,846,5
2020-06-14,2186,76,2107,871,55,816,5
2020-06-15,8511,527,7927,3249,442,2797,9
2020-06-16,7779,431,7313,3002,363,2633,4
2020-06-17,7445,437,6952,2786,375,2401,3
2020-06-18,7921,432,7143,2768,344,2367,2
2020-06-19,8356,516,7764,3271,456,2801,6
2020-06-20,2581,119,2455,1142,104,1037,3
2020-06-21,2350,98,2247,983,82,901,0
2020-06-22,10010,639,9239,4106,551,3527,2
2020-06-23,9485,551,8902,3766,486,3273,4
2020-06-24,8636,470,8129,3367,423,2933,0
2020-06-25,9416,542,8819,3571,477,3085,4
2020-06-26,8476,522,7920,3431,451,2970,8
2020-06-27,2994,174,2815,1358,159,1199,2
2020-06-28,3025,187,2832,1337,168,1167,4
2020-06-29,11197,799,10311,4734,697,4021,0
2020-06-30,9837,770,9023,4017,684,3320,1
2020-07-01,9358,643,8665,3742,573,3149,4
2020-07-02,10161,769,9322,4321,682,3623,3
2020-07-03,3816,271,3540,1620,247,1372,9
2020-07-04,1918,122,1795,844,99,745,1
2020-07-05,3190,223,2962,1408,200,1208,3
2020-07-06,12225,875,11277,5457,764,4680,4
2020-07-07,11630,802,10773,4903,722,4165,3
2020-07-08,11389,920,10417,4421,811,3600,4
2020-07-09,10087,867,9175,4142,765,3366,2
2020-07-10,10117,626,9464,4226,558,3665,6
2020-07-11,3761,236,3515,1659,210,1447,6
2020-07-12,3270,217,3049,1477,202,1273,6
2020-07-13,12602,904,11629,5341,781,4546,7
2020-07-14,10999,737,10208,4492,625,3855,4
2020-07-15,10693,746,9888,4331,655,3663,6
2020-07-16,9012,671,8315,3902,556,3339,5
2020-07-17,8729,602,8083,3793,511,3276,7
2020-07-18,3334,178,3144,1557,152,1401,6
2020-07-19,2765,149,2612,1175,132,1043,3
2020-07-20,11956,895,10999,5117,737,4367,9
2020-07-21,10041,706,9285,4160,577,3572,9
2020-07-22,9467,742,8678,3913,583,3325,8
2020-07-23,8766,716,7991,3611,579,3021,7
2020-07-24,9006,662,8300,3835,548,3282,6
2020-07-25,2716,159,2545,1260,133,1124,6
2020-07-26,2627,168,2453,1156,143,1013,5
2020-07-27,10839,861,9911,4844,732,4105,13
2020-07-28,9616,730,8826,4068,585,3473,8
2020-07-29,8553,706,7807,3680,597,3076,6
2020-07-30,7805,737,7035,3446,624,2813,7
2020-07-31,8115,629,7459,3668,538,3124,3
2020-08-01,2605,165,2433,1177,136,1040,6
2020-08-02,2704,143,2553,1132,131,1001,8
2020-08-03,12539,947,11512,5194,829,4356,8
2020-08-04,10751,781,9915,4469,678,3783,9
2020-08-05,9757,646,9058,3816,533,3277,7
2020-08-06,8456,612,7793,3480,521,2949,6
2020-08-07,9419,680,8676,3914,538,3367,11
2020-08-08,3002,209,2786,1286,185,1101,7
2020-08-09,2777,168,2600,1117,155,962,6
2020-08-10,9178,735,8353,3856,645,3200,7
2020-08-11,9259,635,8568,3675,540,3123,10
2020-08-12,11037,823,10103,4558,692,3854,3
2020-08-13,9461,810,8584,3784,679,3100,13
2020-08-14,9746,767,8867,4296,677,3574,10
2020-08-15,3533,222,3285,1626,204,1419,5
2020-08-16,3102,206,2881,1486,180,1305,5
2020-08-17,11179,1146,9951,5273,1017,4244,9
2020-08-18,10632,839,9713,4347,765,3563,9
2020-08-19,9411,855,8494,4182,786,3382,4
2020-08-20,8975,815,8100,3929,736,3174,17
2020-08-21,9258,897,8287,4038,774,3252,11
2020-08-22,3078,311,2759,1498,284,1213,10
2020-08-23,3616,355,3238,1556,322,1229,12
2020-08-24,12492,1550,10831,5893,1435,4435,6
2020-08-25,11529,1333,10095,5045,1223,3813,11
2020-08-26,10528,1346,9046,4581,1233,3329,9
2020-08-27,10240,1309,8804,4855,1198,3637,12
2020-08-28,10680,1306,9325,5045,1188,3841,11
2020-08-29,3397,317,3069,1640,298,1341,12
2020-08-30,3599,293,3302,1583,276,1307,6
2020-08-31,13324,1272,11989,6248,1178,5063,10
2020-09-01,12588,1066,11482,5487,964,4517,10
2020-09-02,13162,1219,11887,5247,1132,4113,5
2020-09-03,13761,1011,12715,4854,924,3928,14
2020-09-04,12881,1018,11798,4770,903,3856,10
2020-09-05,3751,267,3477,1596,239,1356,6
2020-09-06,3810,262,3540,1698,241,1457,8
2020-09-07,3528,285,3236,1401,274,1127,13
2020-09-08,23576,1364,22152,7207,1236,5962,11
2020-09-09,14888,996,13856,5493,900,4589,9
2020-09-10,15273,941,14268,4984,863,4113,10
2020-09-11,16125,1017,15059,5278,908,4365,6
2020-09-12,3984,249,3731,1875,229,1646,4
2020-09-13,3672,275,3392,1565,243,1322,5
2020-09-14,21018,1675,19269,7425,1574,5838,8
2020-09-15,18836,1073,17723,5674,990,4680,4
2020-09-16,13345,1123,12192,5280,1029,4249,8
2020-09-17,16315,1068,15211,4954,983,3966,9
2020-09-18,14498,1129,13332,5256,1028,4220,6
2020-09-19,4460,345,4107,2017,321,1694,9
2020-09-20,3795,302,3487,1662,274,1388,5
2020-09-21,21274,1494,19735,7699,1421,6268,4
2020-09-22,21087,1291,19745,6847,1209,5633,6
2020-09-23,15912,1106,14772,5964,1045,4912,13
2020-09-24,17753,1006,16707,5397,930,4461,11
2020-09-25,15171,1003,14141,5558,943,4613,12
2020-09-26,4041,296,3734,1836,274,1559,12
2020-09-27,3798,266,3527,1622,247,1374,10
2020-09-28,22455,1537,20884,7519,1470,6046,10
2020-09-29,19897,1061,18794,5912,993,4913,11
2020-09-30,15553,1031,14491,5539,961,4573,12
2020-10-01,16790,943,15810,4804,878,3922,14
2020-10-02,14936,951,13936,5340,888,4443,10
2020-10-03,4213,390,3815,2016,355,1659,17
2020-10-04,4077,320,3752,1766,292,1472,9
2020-10-05,25367,1758,23549,8397,1677,6703,17
2020-10-06,23411,1309,22063,7006,1214,5788,7
2020-10-07,16509,1330,15138,6313,1257,5050,22
2020-10-08,19222,1329,17865,5801,1223,4573,16
2020-10-09,16070,1285,14759,6099,1200,4896,23
2020-10-10,4210,405,3797,2081,364,1716,11
2020-10-11,4251,372,3876,1892,347,1545,15
2020-10-12,26545,2012,24486,8443,1940,6495,18
2020-10-13,22970,1431,21503,7203,1330,5869,6
2020-10-14,15475,1357,14095,6105,1262,4839,16
2020-10-15,20805,1324,19461,5863,1239,4621,20
2020-10-16,16130,1229,14861,6243,1129,5110,21
2020-10-17,4415,432,3973,2306,371,1931,20
2020-10-18,4282,368,3906,1946,335,1608,11
2020-10-19,28060,2089,25861,8800,1990,6797,20
2020-10-20,22688,1496,21119,7116,1420,5690,27
2020-10-21,16607,1692,14873,6754,1592,5157,17
2020-10-22,21505,1811,19661,6571,1696,4868,24
2020-10-23,17025,1694,15285,6665,1569,5089,17
2020-10-24,4877,688,4179,2511,635,1874,14
2020-10-25,5527,596,4921,2342,553,1789,15
2020-10-26,30914,3306,27520,10096,3180,6905,14
2020-10-27,26046,2684,23302,8801,2526,6264,12
2020-10-28,20067,2801,17214,8774,2644,6120,21
2020-10-29,27191,3160,23973,9194,3033,6147,22
2020-10-30,21690,3011,18635,9131,2834,6289,22
2020-10-31,6408,1203,5193,3289,1142,2146,24
2020-11-01,7284,1242,6021,3267,1163,2101,32
2020-11-02,37553,5570,31921,14029,5380,8638,39
2020-11-03,32561,5086,27394,13143,4927,8192,28
2020-11-04,25662,5213,20383,12900,5025,7862,30
2020-11-05,35384,5464,29831,13568,5243,8303,54
2020-11-06,29191,5130,23912,13472,4879,8567,39
2020-11-07,8881,2184,6682,5296,2097,3197,33
2020-11-08,10138,2096,7999,4799,1880,2911,47
2020-11-09,45832,7838,37927,19141,7537,11583,36
2020-11-10,34291,5763,28448,15410,5499,9893,44
2020-11-11,22845,4650,18148,12371,4476,7887,40
2020-11-12,41768,5703,35980,16320,5435,10860,62
2020-11-13,31230,4613,26540,14531,4322,10193,37
2020-11-14,8866,1682,7149,5020,1569,3434,39
2020-11-15,8316,1544,6727,4654,1354,3288,50
2020-11-16,46982,6375,40526,19104,6167,12925,49
2020-11-17,35687,5015,30559,16181,4695,11465,60
2020-11-18,26747,4368,22276,14797,4128,10653,60
2020-11-19,39286,4104,35073,14793,3879,10889,73
2020-11-20,31180,3791,27302,13853,3542,10295,61
2020-11-21,9460,1405,8029,5219,1300,3911,60
2020-11-22,8701,1249,7415,4252,1122,3121,50
2020-11-23,44944,4637,40113,16292,4391,11866,61
2020-11-24,28404,3227,25031,12078,3012,9032,38
2020-11-25,28549,2901,25583,10079,2715,7350,62
2020-11-26,5117,472,4614,1513,350,1155,62
2020-11-27,23167,2678,20413,8319,2519,5783,59
2020-11-28,7173,1196,5962,3546,1104,2440,61
2020-11-29,6781,1043,5618,3468,883,2537,53
2020-11-30,38845,4354,34327,13879,4129,9720,70
2020-12-01,27383,3067,24203,11282,2866,8394,61
2020-12-02,18688,2458,16150,9808,2309,7488,53
2020-12-03,29991,2407,27521,9399,2256,7134,57
2020-12-04,23165,2139,20970,9108,1982,7117,53
2020-12-05,6320,895,5411,3491,821,2669,54
2020-12-06,5931,695,5222,3135,609,2523,50
2020-12-07,36452,3193,33195,12503,2968,9521,46
2020-12-08,25290,2191,23036,9709,2035,7661,52
2020-12-09,16305,1867,14367,8446,1751,6686,45
2020-12-10,28638,1968,26609,8630,1838,6779,35
2020-12-11,20585,1732,18720,8247,1609,6622,40
2020-12-12,5283,567,4705,2835,516,2316,43
2020-12-13,5607,599,4981,3008,555,2451,33
2020-12-14,33779,2754,30892,11668,2606,9050,36
2020-12-15,23626,1866,21684,9325,1745,7567,26
2020-12-16,16344,1793,14488,8529,1660,6857,43
2020-12-17,28345,1680,26621,8516,1580,6927,34
2020-12-18,21118,1572,19502,9282,1471,7801,21
2020-12-19,6097,646,5437,3361,613,2746,26
2020-12-20,6226,608,5585,3405,543,2851,13
2020-12-21,37750,2582,35083,12052,2452,9590,26
2020-12-22,19334,1733,17562,9258,1590,7655,28
2020-12-23,21613,1416,20165,8175,1322,6845,19
2020-12-24,17196,1008,16171,4829,924,3901,23
2020-12-25,2586,177,2408,855,155,700,22
2020-12-26,7123,978,6135,4230,926,3301,16
2020-12-27,6472,730,5728,3328,632,2695,17
2020-12-28,34973,2857,32026,11383,2708,8663,12
2020-12-29,13740,1452,12272,6050,1364,4682,3
2020-12-30,19470,1963,17475,7943,1872,6064,8
2020-12-31,22283,1665,20603,7034,1572,5462,5
2021-01-01,4217,373,3840,1567,344,1221,3
2021-01-02,6964,1077,5880,4148,1027,3118,9
2021-01-03,6410,812,5573,3795,711,3077,6
2021-01-04,35803,3441,32257,14206,3301,10892,5
2021-01-05,21597,2140,19386,10028,2003,8010,3
2021-01-06,15784,1870,13847,8896,1771,7119,6
2021-01-07,25726,1620,24064,8911,1545,7358,5
2021-01-08,19592,1672,17806,10044,1585,8441,5
2021-01-09,5819,585,5227,3587,530,3056,5
2021-01-10,5344,592,4743,3360,529,2827,5
2021-01-11,33719,2453,31163,13094,2308,10773,1
2021-01-12,20450,1508,18888,10120,1398,8715,2
2021-01-13,15208,1422,13735,9328,1314,8003,2
2021-01-14,25074,1356,23683,9282,1260,8017,2
2021-01-15,12843,844,11969,6149,801,5338,0
2021-01-16,5807,624,5171,3753,580,3172,1
2021-01-17,5444,468,4925,3436,398,3029,0
2021-01-18,27913,1587,26244,13010,1529,11467,1
2021-01-19,22767,1695,21009,15060,1573,13477,1
2021-01-20,14282,1220,13026,11103,1138,9963,1
2021-01-21,23325,1254,22030,15769,1169,14591,0
2021-01-22,16046,1110,14820,12977,1032,11937,1
2021-01-23,4523,406,4110,3946,381,3563,0
2021-01-24,3842,249,3583,3396,225,3168,0
2021-01-25,11560,313,11245,10096,300,9794,0
2021-01-26,24,0,24,22,0,22,0
