Date,State - Total Tests,State - Positive Tests,State - Negative Tests,State - Individuals Tested,State - Individuals Positive,State - Individuals Negative,State - Deaths
2020-03-11,28,2,26,12,2,10,0
2020-03-12,69,3,66,28,2,26,0
2020-03-13,121,6,115,56,6,50,0
2020-03-14,99,3,96,52,2,50,0
2020-03-15,125,1,124,50,1,49,0
2020-03-16,436,19,417,191,20,171,0
2020-03-17,461,23,438,200,22,178,0
2020-03-18,437,27,410,185,26,159,0
2020-03-19,455,30,425,186,28,158,0
2020-03-20,497,27,469,190,26,164,0
2020-03-21,264,16,248,105,15,90,0
2020-03-22,272,19,253,105,18,87,0
2020-03-23,863,54,805,334,52,281,0
2020-03-24,849,58,791,322,56,266,1
2020-03-25,843,70,773,320,65,255,0
2020-03-26,934,67,866,338,64,274,1
2020-03-27,899,71,826,358,69,289,2
2020-03-28,453,41,411,183,40,143,1
2020-03-29,362,39,323,143,36,107,1
2020-03-30,1154,115,1039,455,114,341,1
2020-03-31,1010,81,929,385,78,307,4
2020-04-01,996,89,905,395,83,312,2
2020-04-02,1055,86,969,388,83,305,1
2020-04-03,966,100,865,394,94,300,5
2020-04-04,415,57,358,166,54,112,3
2020-04-05,435,68,364,191,67,123,5
2020-04-06,1293,138,1154,513,131,382,0
2020-04-07,1168,122,1044,456,116,339,2
2020-04-08,1069,117,951,436,112,324,3
2020-04-09,966,123,843,402,114,288,4
2020-04-10,1139,249,889,549,242,307,3
2020-04-11,454,80,372,196,73,123,4
2020-04-12,371,62,309,155,56,99,4
2020-04-13,1219,216,1001,540,200,339,6
2020-04-14,1215,171,1043,486,154,332,3
2020-04-15,1316,191,1124,506,182,324,6
2020-04-16,2106,510,1581,1206,490,708,5
2020-04-17,2214,525,1684,1255,502,751,7
2020-04-18,751,188,562,350,175,175,5
2020-04-19,746,183,562,355,169,186,7
2020-04-20,2391,537,1853,1091,507,584,7
2020-04-21,2481,480,1999,1077,449,628,6
2020-04-22,2297,548,1747,1166,531,635,7
2020-04-23,2510,494,2014,1160,467,693,11
2020-04-24,3476,722,2750,1670,683,985,5
2020-04-25,4734,1338,3361,2934,1280,1648,7
2020-04-26,1242,199,1014,510,161,346,8
2020-04-27,3382,603,2720,1498,561,922,9
2020-04-28,3822,699,3092,1824,660,1156,11
2020-04-29,4069,572,3374,1858,525,1301,13
2020-04-30,4049,491,3505,1835,448,1368,9
2020-05-01,3469,438,2988,1465,398,1060,10
2020-05-02,1241,202,1025,531,174,356,6
2020-05-03,1314,158,1154,480,125,355,14
2020-05-04,3943,654,3256,1889,602,1280,18
2020-05-05,4346,551,3771,2043,513,1523,10
2020-05-06,4292,410,3860,1643,373,1267,9
2020-05-07,3952,405,3504,1642,367,1259,12
2020-05-08,3708,379,3304,1629,340,1278,11
2020-05-09,1630,142,1487,668,121,547,12
2020-05-10,1592,142,1447,650,118,532,17
2020-05-11,5077,487,4513,2088,437,1640,14
2020-05-12,5276,444,4814,2061,406,1652,14
2020-05-13,4625,360,4256,1828,306,1520,13
2020-05-14,4951,404,4523,1744,351,1387,17
2020-05-15,4207,371,3816,1709,314,1388,7
2020-05-16,2113,184,1924,859,148,711,11
2020-05-17,2018,168,1842,810,122,688,11
2020-05-18,7780,861,6834,3156,787,2362,16
2020-05-19,6946,734,6162,2984,639,2340,17
2020-05-20,6233,503,5682,2362,443,1910,13
2020-05-21,5462,596,4827,2140,478,1653,11
2020-05-22,6115,367,5679,2449,308,2129,19
2020-05-23,1522,149,1370,649,119,530,7
2020-05-24,1830,164,1663,741,100,641,20
2020-05-25,1778,115,1659,709,88,621,10
2020-05-26,7654,565,6998,3161,468,2664,11
2020-05-27,7428,484,6911,2808,395,2407,13
2020-05-28,6962,539,6390,2852,437,2407,10
2020-05-29,6542,413,6103,2640,359,2277,12
2020-05-30,2195,158,2034,947,121,826,6
2020-05-31,2212,108,2101,917,76,841,10
2020-06-01,7377,578,6775,3090,478,2605,7
2020-06-02,6948,393,6536,2916,334,2578,12
2020-06-03,6769,466,6282,2764,383,2379,10
2020-06-04,6914,413,6478,2592,341,2245,8
2020-06-05,5966,429,5506,2630,357,2264,10
2020-06-06,2301,113,2180,937,90,847,8
2020-06-07,2126,89,2034,899,56,843,7
2020-06-08,8020,597,7393,3267,477,2783,8
2020-06-09,6958,369,6565,2856,312,2537,3
2020-06-10,6910,396,6479,2706,328,2368,8
2020-06-11,6626,317,6275,2515,266,2245,2
2020-06-12,6917,330,6549,2655,270,2377,5
2020-06-13,2222,96,2124,959,77,881,5
2020-06-14,2184,76,2105,906,55,851,5
2020-06-15,8503,527,7919,3384,442,2932,9
2020-06-16,7765,431,7299,3105,363,2736,4
2020-06-17,7441,437,6949,2901,375,2516,3
2020-06-18,7909,432,7133,2859,344,2456,2
2020-06-19,8339,516,7747,3391,456,2921,6
2020-06-20,2579,119,2453,1187,104,1082,3
2020-06-21,2348,98,2245,1025,82,943,0
2020-06-22,9993,640,9221,4246,551,3667,2
2020-06-23,9473,552,8889,3902,487,3407,4
2020-06-24,8604,470,8097,3516,423,3081,0
2020-06-25,9405,542,8808,3677,477,3191,4
2020-06-26,8471,522,7915,3561,451,3100,8
2020-06-27,2988,174,2809,1423,159,1264,2
2020-06-28,3021,187,2828,1394,169,1223,4
2020-06-29,11179,798,10296,4910,697,4197,0
2020-06-30,9817,770,9003,4143,685,3445,1
2020-07-01,9342,643,8649,3891,573,3298,4
2020-07-02,10145,769,9306,4477,683,3778,3
2020-07-03,3812,273,3534,1668,247,1420,9
2020-07-04,1915,122,1792,873,99,774,1
2020-07-05,3187,223,2959,1461,201,1260,3
2020-07-06,12209,875,11262,5670,764,4893,4
2020-07-07,11613,801,10760,5083,723,4346,3
2020-07-08,11372,920,10401,4606,811,3784,4
2020-07-09,10076,868,9164,4300,767,3521,2
2020-07-10,10100,626,9448,4398,559,3836,6
2020-07-11,3751,236,3505,1733,210,1521,6
2020-07-12,3267,217,3046,1527,202,1323,6
2020-07-13,12587,903,11615,5554,781,4758,7
2020-07-14,10975,737,10184,4668,625,4031,4
2020-07-15,10671,747,9865,4502,656,3833,6
2020-07-16,9001,670,8305,4042,556,3479,4
2020-07-17,8721,602,8075,3942,512,3424,7
2020-07-18,3323,178,3133,1613,152,1457,6
2020-07-19,2758,149,2605,1210,133,1077,3
2020-07-20,11941,895,10984,5308,738,4557,8
2020-07-21,10028,706,9272,4341,580,3750,9
2020-07-22,9447,742,8659,4073,583,3485,8
2020-07-23,8748,717,7973,3733,581,3140,7
2020-07-24,8990,662,8284,3988,549,3434,6
2020-07-25,2710,159,2539,1316,133,1180,6
2020-07-26,2617,168,2443,1209,143,1066,5
2020-07-27,10818,861,9890,5026,732,4285,13
2020-07-28,9605,730,8815,4246,586,3649,8
2020-07-29,8540,706,7794,3823,597,3219,6
2020-07-30,7784,737,7014,3578,624,2945,7
2020-07-31,8105,629,7449,3824,538,3280,3
2020-08-01,2601,165,2429,1224,136,1087,6
2020-08-02,2699,143,2548,1183,131,1052,8
2020-08-03,12526,946,11500,5498,829,4660,8
2020-08-04,10737,781,9901,4714,678,4026,9
2020-08-05,9741,647,9042,4114,533,3574,7
2020-08-06,8439,612,7776,3755,522,3222,6
2020-08-07,9414,680,8671,4147,538,3600,11
2020-08-08,2997,209,2781,1344,185,1159,7
2020-08-09,2772,168,2595,1158,155,1003,6
2020-08-10,9165,735,8340,4050,645,3393,7
2020-08-11,9234,635,8543,3882,540,3329,10
2020-08-12,11013,823,10079,4882,692,4176,3
2020-08-13,9453,810,8576,4027,681,3341,13
2020-08-14,9736,766,8858,4558,677,3836,10
2020-08-15,3522,222,3274,1737,205,1529,5
2020-08-16,3094,206,2873,1574,182,1391,5
2020-08-17,11139,1147,9910,5521,1018,4486,9
2020-08-18,10613,838,9695,4591,767,3805,9
2020-08-19,9400,855,8483,4399,788,3597,4
2020-08-20,8963,815,8088,4139,736,3382,17
2020-08-21,9243,897,8272,4248,778,3457,11
2020-08-22,3076,311,2757,1603,284,1318,10
2020-08-23,3614,355,3236,1655,323,1327,12
2020-08-24,12448,1551,10788,6161,1443,4695,6
2020-08-25,11509,1333,10075,5297,1227,4059,11
2020-08-26,10508,1346,9026,4740,1237,3483,9
2020-08-27,10230,1309,8794,5079,1202,3857,12
2020-08-28,10656,1306,9301,5235,1193,4026,11
2020-08-29,3391,317,3063,1712,298,1413,12
2020-08-30,3588,293,3291,1655,278,1377,6
2020-08-31,13286,1270,11952,6521,1178,5336,10
2020-09-01,12562,1066,11456,5729,964,4759,10
2020-09-02,13115,1219,11841,5504,1138,4363,5
2020-09-03,13742,1010,12698,5040,924,4113,14
2020-09-04,12861,1017,11779,4955,904,4040,10
2020-09-05,3743,267,3469,1667,240,1426,6
2020-09-06,3804,262,3534,1773,241,1532,8
2020-09-07,3516,285,3224,1457,274,1183,13
2020-09-08,23511,1364,22088,7523,1236,6278,11
2020-09-09,14849,996,13817,5817,901,4912,9
2020-09-10,15246,941,14242,5194,862,4323,10
2020-09-11,16087,1016,15022,5529,909,4615,6
2020-09-12,3973,249,3720,1969,229,1740,4
2020-09-13,3665,275,3385,1639,243,1396,4
2020-09-14,20972,1674,19224,7747,1577,6157,8
2020-09-15,18771,1072,17659,5966,994,4968,4
2020-09-16,13234,1123,12082,5455,1033,4420,8
2020-09-17,16284,1068,15181,5179,985,4189,9
2020-09-18,14457,1128,13291,5516,1029,4479,6
2020-09-19,4445,344,4093,2103,320,1781,9
2020-09-20,3788,301,3481,1730,274,1456,5
2020-09-21,21216,1491,19680,8064,1422,6632,4
2020-09-22,20944,1290,19602,7161,1209,5947,6
2020-09-23,15862,1106,14722,6250,1047,5195,13
2020-09-24,17699,1005,16654,5665,929,4730,11
2020-09-25,15150,1002,14121,5816,944,4870,12
2020-09-26,4028,295,3721,1927,275,1649,12
2020-09-27,3769,266,3498,1701,247,1453,10
2020-09-28,22409,1536,20839,7892,1473,6416,10
2020-09-29,19821,1060,18719,6196,995,5194,11
2020-09-30,15492,1031,14430,5814,962,4847,12
2020-10-01,16728,941,15750,5019,877,4138,14
2020-10-02,14905,951,13905,5606,889,4708,10
2020-10-03,4202,390,3804,2102,355,1745,17
2020-10-04,4063,320,3738,1867,292,1573,9
2020-10-05,25217,1758,23399,8779,1681,7081,17
2020-10-06,23360,1309,22013,7372,1219,6149,7
2020-10-07,16485,1329,15116,6643,1262,5375,22
2020-10-08,19107,1330,17749,6077,1226,4846,16
2020-10-09,16051,1284,14741,6381,1206,5171,23
2020-10-10,4204,405,3791,2191,364,1826,11
2020-10-11,4140,348,3789,1928,323,1605,15
2020-10-12,26474,2013,24414,8879,1944,6926,18
2020-10-13,22877,1430,21411,7512,1331,6177,6
2020-10-14,15421,1355,14043,6393,1264,5125,16
2020-10-15,20753,1325,19408,6124,1241,4880,20
2020-10-16,16073,1227,14806,6522,1129,5389,21
2020-10-17,4406,432,3964,2418,372,2042,20
2020-10-18,4272,368,3896,2050,335,1712,11
2020-10-19,27994,2089,25795,9249,1989,7247,20
2020-10-20,22639,1496,21070,7463,1420,6037,27
2020-10-21,16578,1692,14846,7086,1594,5487,16
2020-10-22,21456,1806,19617,6912,1693,5212,24
2020-10-23,16995,1693,15256,7003,1569,5427,17
2020-10-24,4871,688,4173,2634,635,1997,14
2020-10-25,5514,594,4909,2436,553,1883,15
2020-10-26,30788,3305,27395,10568,3179,7378,14
2020-10-27,26011,2685,23267,9234,2526,6697,12
2020-10-28,20022,2802,17169,9253,2644,6599,21
2020-10-29,27086,3159,23868,9648,3032,6602,22
2020-10-30,21653,3010,18599,9524,2833,6683,21
2020-10-31,6392,1204,5176,3415,1142,2272,24
2020-11-01,7274,1243,6011,3394,1163,2228,32
2020-11-02,37360,5566,31731,14629,5379,9239,39
2020-11-03,32497,5085,27332,13690,4925,8741,28
2020-11-04,25581,5211,20305,13474,5024,8437,30
2020-11-05,35261,5456,29717,14165,5235,8908,54
2020-11-06,29119,5096,23874,13993,4845,9122,39
2020-11-07,8826,2145,6667,5464,2059,3403,33
2020-11-08,10100,2065,7992,4994,1849,3137,47
2020-11-09,45594,7759,37769,19872,7459,12391,35
2020-11-10,34174,5714,28380,16032,5456,10557,44
2020-11-11,22742,4619,18076,12945,4444,8492,40
2020-11-12,41573,5653,35835,16999,5387,11586,62
2020-11-13,31092,4591,26424,15221,4301,10904,37
2020-11-14,8846,1672,7140,5256,1559,3680,39
2020-11-15,8294,1534,6715,4863,1345,3505,49
2020-11-16,46790,6328,40380,20008,6119,13877,49
2020-11-17,35542,4981,30448,17020,4664,12334,60
2020-11-18,26672,4350,22219,15654,4110,11527,59
2020-11-19,39062,4089,34863,15547,3867,11654,73
2020-11-20,31071,3780,27204,14705,3532,11156,60
2020-11-21,9443,1403,8014,5593,1298,4287,59
2020-11-22,8686,1249,7400,4504,1122,3373,50
2020-11-23,44787,4635,39960,17335,4386,12914,60
2020-11-24,28237,3229,24862,12766,3011,9721,38
2020-11-25,28485,2899,25519,10688,2715,7959,62
2020-11-26,5100,472,4598,1616,350,1258,62
2020-11-27,23123,2675,20373,8799,2518,6264,59
2020-11-28,7150,1194,5941,3765,1104,2659,60
2020-11-29,6772,1044,5608,3686,883,2754,52
2020-11-30,38716,4350,34200,14750,4126,10594,69
2020-12-01,27282,3070,24100,12004,2866,9116,60
2020-12-02,18638,2459,16099,10409,2309,8089,52
2020-12-03,29869,2406,27401,10027,2253,7764,56
2020-12-04,23052,2135,20862,9729,1981,7739,52
2020-12-05,6301,896,5391,3709,822,2886,47
2020-12-06,5919,694,5211,3338,609,2726,46
2020-12-07,36179,3194,32921,13382,2967,10401,44
2020-12-08,25119,2190,22866,10537,2034,8489,51
2020-12-09,16191,1864,14256,9026,1749,7267,42
2020-12-10,28530,1965,26503,9391,1836,7542,28
2020-12-11,20456,1731,18592,8886,1608,7261,32
2020-12-12,5252,566,4675,3053,515,2535,35
2020-12-13,5590,597,4966,3255,553,2700,28
2020-12-14,33552,2752,30668,12605,2605,9987,30
2020-12-15,23545,1865,21604,10461,1743,8705,11
2020-12-16,16300,1790,14447,9341,1657,7671,24
2020-12-17,28200,1678,26478,9548,1577,7962,13
2020-12-18,20996,1570,19383,10179,1470,8699,11
2020-12-19,6077,644,5419,3632,612,3017,8
2020-12-20,6185,607,5545,3680,542,3127,4
2020-12-21,37191,2579,34526,13564,2449,11104,4
2020-12-22,19031,1731,17261,10350,1586,8751,6
2020-12-23,21280,1416,19832,9067,1320,7737,6
2020-12-24,16854,999,15838,5551,914,4633,6
2020-12-25,2533,177,2355,995,155,840,1
2020-12-26,7073,973,6090,4641,920,3716,4
2020-12-27,6360,727,5619,3767,629,3137,1
2020-12-28,34139,2841,31208,13652,2699,10941,1
2020-12-29,13369,1448,11905,7231,1359,5868,1
2020-12-30,18976,1942,17002,10190,1850,8333,1
2020-12-31,21455,1623,19818,9235,1531,7703,1
2021-01-01,4101,371,3726,2071,342,1727,0
2021-01-02,6769,1044,5718,4679,995,3681,3
2021-01-03,6180,771,5384,4621,669,3944,1
2021-01-04,33736,3364,30276,24180,3226,20931,0
2021-01-05,19132,1980,17111,16286,1854,14413,0
2021-01-06,10991,1251,9724,9849,1186,8660,0
2021-01-07,10814,372,10441,9816,360,9456,0
2021-01-08,40,3,37,36,3,33,0
