Date,State - Total Tests,State - Positive Tests,State - Negative Tests,State - Individuals Tested,State - Individuals Positive,State - Individuals Negative,State - Deaths
2020-03-11,28,2,26,12,2,10,0
2020-03-12,68,2,66,26,2,24,0
2020-03-13,121,6,115,55,6,49,0
2020-03-14,100,3,97,52,2,50,0
2020-03-15,125,1,124,47,1,46,0
2020-03-16,436,20,416,180,20,160,0
2020-03-17,462,23,439,191,22,169,0
2020-03-18,437,27,410,174,26,148,0
2020-03-19,455,30,425,177,28,149,0
2020-03-20,497,27,469,178,26,152,0
2020-03-21,265,16,249,98,15,83,0
2020-03-22,272,19,253,103,18,85,0
2020-03-23,863,54,805,312,52,259,0
2020-03-24,849,58,791,302,56,246,1
2020-03-25,843,70,773,306,65,241,0
2020-03-26,934,67,866,311,64,247,1
2020-03-27,899,71,826,337,69,268,2
2020-03-28,453,41,411,171,40,131,1
2020-03-29,362,39,323,136,36,100,1
2020-03-30,1154,115,1039,430,114,316,1
2020-03-31,1010,81,929,360,78,282,4
2020-04-01,996,89,905,376,83,293,2
2020-04-02,1055,86,969,366,83,283,1
2020-04-03,966,100,865,377,94,283,5
2020-04-04,415,57,358,159,54,105,3
2020-04-05,435,68,364,188,66,121,5
2020-04-06,1295,138,1156,484,131,353,0
2020-04-07,1168,122,1044,430,116,314,2
2020-04-08,1069,117,951,416,112,304,3
2020-04-09,967,123,844,384,114,270,5
2020-04-10,1139,248,889,525,241,284,3
2020-04-11,454,80,372,190,73,117,4
2020-04-12,371,62,309,150,56,94,4
2020-04-13,1219,216,1001,521,200,320,6
2020-04-14,1215,171,1043,466,154,312,3
2020-04-15,1316,191,1124,472,182,290,6
2020-04-16,2108,509,1584,1169,490,671,5
2020-04-17,2216,525,1686,1209,501,707,7
2020-04-18,752,188,563,343,175,168,5
2020-04-19,746,183,562,341,169,172,8
2020-04-20,2393,537,1855,1059,507,552,7
2020-04-21,2481,480,1999,1033,449,584,6
2020-04-22,2298,548,1748,1128,528,600,7
2020-04-23,2511,494,2015,1116,465,651,11
2020-04-24,3481,722,2755,1588,683,903,5
2020-04-25,4738,1338,3365,2824,1279,1539,7
2020-04-26,1243,199,1015,483,161,319,8
2020-04-27,3387,603,2723,1442,561,866,9
2020-04-28,3827,698,3096,1733,658,1068,11
2020-04-29,4089,572,3391,1761,525,1207,13
2020-04-30,4062,489,3520,1769,447,1305,9
2020-05-01,3490,438,3008,1396,397,992,11
2020-05-02,1245,201,1030,514,174,339,6
2020-05-03,1316,158,1156,454,124,330,14
2020-05-04,3978,654,3289,1823,601,1215,18
2020-05-05,4435,551,3856,2011,513,1491,10
2020-05-06,4328,411,3895,1562,372,1187,9
2020-05-07,3975,405,3524,1556,366,1175,12
2020-05-08,3780,379,3372,1584,340,1233,11
2020-05-09,1634,142,1491,641,121,520,13
2020-05-10,1594,142,1449,607,118,489,17
2020-05-11,5128,486,4560,1978,436,1530,14
2020-05-12,5315,444,4852,1953,405,1545,14
2020-05-13,4670,360,4301,1740,306,1432,13
2020-05-14,4964,404,4536,1650,350,1294,17
2020-05-15,4262,371,3869,1627,313,1308,7
2020-05-16,2116,184,1927,800,148,652,11
2020-05-17,2021,168,1846,764,122,642,11
2020-05-18,7820,860,6875,2978,786,2186,16
2020-05-19,6970,734,6188,2798,635,2158,17
2020-05-20,6255,503,5704,2238,442,1787,13
2020-05-21,5474,596,4839,2015,477,1529,11
2020-05-22,6158,368,5721,2317,308,1998,19
2020-05-23,1530,149,1378,611,119,492,7
2020-05-24,1837,164,1670,699,100,599,20
2020-05-25,1792,115,1673,663,88,575,10
2020-05-26,7672,564,7018,3007,468,2510,11
2020-05-27,7467,485,6948,2636,394,2236,13
2020-05-28,7004,539,6432,2685,437,2240,10
2020-05-29,6579,413,6139,2479,359,2116,12
2020-05-30,2208,158,2047,903,121,782,6
2020-05-31,2223,108,2112,855,76,779,10
2020-06-01,7408,578,6804,2920,476,2438,7
2020-06-02,6991,393,6579,2747,334,2409,12
2020-06-03,6793,467,6305,2602,382,2218,10
2020-06-04,6935,413,6499,2440,340,2094,8
2020-06-05,5985,430,5524,2489,357,2123,10
2020-06-06,2313,113,2192,883,90,793,8
2020-06-07,2130,89,2038,843,56,787,7
2020-06-08,8044,597,7417,3065,477,2581,8
2020-06-09,6967,369,6574,2676,311,2358,3
2020-06-10,6922,396,6491,2533,328,2195,8
2020-06-11,6651,318,6298,2377,266,2107,2
2020-06-12,6941,330,6573,2486,269,2209,5
2020-06-13,2231,96,2133,895,77,817,5
2020-06-14,2193,76,2114,854,55,799,5
2020-06-15,8516,527,7930,3175,442,2723,9
2020-06-16,7784,431,7318,2914,363,2545,4
2020-06-17,7459,437,6967,2715,374,2331,3
2020-06-18,7933,431,7151,2702,344,2302,2
2020-06-19,8369,516,7777,3197,456,2728,6
2020-06-20,2585,119,2459,1104,104,999,3
2020-06-21,2351,97,2249,956,81,875,0
2020-06-22,10029,640,9254,4009,551,3430,2
2020-06-23,9503,551,8920,3662,486,3169,4
2020-06-24,8646,470,8138,3268,422,2835,0
2020-06-25,9428,542,8830,3469,476,2984,4
2020-06-26,8493,523,7936,3353,450,2893,8
2020-06-27,3001,174,2822,1318,159,1159,2
2020-06-28,3026,187,2833,1311,168,1141,4
2020-06-29,11223,799,10336,4627,697,3914,0
2020-06-30,9879,770,9065,3938,683,3242,1
2020-07-01,9400,643,8707,3664,572,3072,4
2020-07-02,10183,770,9343,4222,683,3523,3
2020-07-03,3824,271,3548,1585,247,1337,9
2020-07-04,1922,122,1799,826,99,727,1
2020-07-05,3193,223,2965,1378,200,1178,3
2020-07-06,12245,875,11297,5324,763,4548,4
2020-07-07,11639,801,10783,4678,721,3945,3
2020-07-08,11413,921,10440,4302,812,3481,4
2020-07-09,10096,867,9184,4045,763,3272,2
2020-07-10,10129,626,9476,4092,558,3531,6
2020-07-11,3765,236,3519,1617,209,1406,6
2020-07-12,3275,216,3055,1444,202,1240,6
2020-07-13,12628,903,11653,5165,781,4372,7
2020-07-14,11009,737,10217,4362,625,3725,4
2020-07-15,10720,746,9915,4200,655,3533,6
2020-07-16,9019,671,8322,3808,556,3245,5
2020-07-17,8739,604,8091,3698,513,3179,7
2020-07-18,3336,178,3146,1508,150,1354,6
2020-07-19,2769,149,2616,1151,132,1019,3
2020-07-20,11978,895,11021,4986,737,4236,9
2020-07-21,10056,706,9300,4041,577,3453,9
2020-07-22,9480,741,8692,3796,583,3208,8
2020-07-23,8786,716,8012,3508,579,2918,7
2020-07-24,9032,660,8327,3722,548,3169,6
2020-07-25,2724,159,2553,1231,133,1095,6
2020-07-26,2638,168,2464,1127,143,984,5
2020-07-27,10865,861,9937,4703,732,3964,13
2020-07-28,9633,730,8843,3942,585,3347,8
2020-07-29,8564,706,7818,3580,596,2977,6
2020-07-30,7818,736,7049,3372,621,2742,7
2020-07-31,8130,629,7474,3558,538,3014,3
2020-08-01,2607,165,2435,1129,136,992,6
2020-08-02,2710,143,2559,1097,130,967,8
2020-08-03,12566,947,11539,5011,828,4174,8
2020-08-04,10772,781,9936,4300,677,3615,9
2020-08-05,9787,646,9089,3693,533,3157,7
2020-08-06,8490,612,7827,3349,521,2818,6
2020-08-07,9443,680,8700,3761,537,3215,11
2020-08-08,3023,209,2807,1263,184,1079,7
2020-08-09,2781,168,2604,1074,154,920,6
2020-08-10,9211,735,8385,3737,645,3082,7
2020-08-11,9290,635,8600,3564,540,3012,10
2020-08-12,11062,823,10128,4327,692,3623,3
2020-08-13,9489,810,8612,3610,676,2929,13
2020-08-14,9764,768,8884,4132,677,3410,10
2020-08-15,3548,223,3299,1532,203,1326,5
2020-08-16,3126,207,2904,1427,181,1245,5
2020-08-17,11219,1148,9989,5107,1016,4079,9
2020-08-18,10683,841,9762,4212,765,3429,9
2020-08-19,9432,854,8516,4046,785,3247,4
2020-08-20,9004,815,8128,3803,736,3047,17
2020-08-21,9280,897,8309,3919,774,3133,11
2020-08-22,3086,311,2767,1459,284,1174,10
2020-08-23,3629,355,3251,1511,322,1184,12
2020-08-24,12524,1552,10861,5745,1435,4288,6
2020-08-25,11547,1336,10108,4861,1223,3629,11
2020-08-26,10543,1347,9059,4469,1234,3217,9
2020-08-27,10255,1304,8824,4735,1192,3523,12
2020-08-28,10697,1307,9341,4895,1188,3692,11
2020-08-29,3402,317,3074,1597,298,1298,12
2020-08-30,3604,293,3307,1512,276,1236,6
2020-08-31,13339,1272,12003,6065,1177,4881,10
2020-09-01,12609,1065,11504,5302,960,4336,10
2020-09-02,13183,1219,11908,5091,1130,3959,5
2020-09-03,13797,1011,12751,4731,922,3807,14
2020-09-04,12908,1018,11824,4636,902,3723,10
2020-09-05,3777,267,3503,1566,238,1327,6
2020-09-06,3827,262,3557,1661,241,1420,8
2020-09-07,3553,285,3261,1358,273,1085,13
2020-09-08,23690,1365,22263,7006,1234,5763,11
2020-09-09,14920,996,13889,5298,900,4394,9
2020-09-10,15294,940,14291,4795,861,3926,10
2020-09-11,16148,1015,15084,5099,905,4189,6
2020-09-12,3994,249,3741,1810,229,1581,4
2020-09-13,3674,275,3394,1523,243,1280,5
2020-09-14,21050,1674,19302,7192,1572,5607,8
2020-09-15,18975,1075,17860,5528,991,4534,4
2020-09-16,13373,1123,12219,5048,1027,4020,8
2020-09-17,16349,1068,15244,4801,982,3814,9
2020-09-18,14563,1128,13398,5093,1026,4059,6
2020-09-19,4462,345,4109,1958,321,1636,9
2020-09-20,3797,302,3489,1610,274,1336,5
2020-09-21,21365,1493,19827,7472,1420,6042,4
2020-09-22,21202,1291,19859,6646,1210,5431,6
2020-09-23,15986,1106,14846,5764,1046,4711,13
2020-09-24,17884,1006,16838,5252,929,4317,11
2020-09-25,15219,1004,14188,5374,942,4430,12
2020-09-26,4054,296,3747,1791,274,1514,12
2020-09-27,3816,266,3545,1571,247,1323,10
2020-09-28,22529,1538,20956,7273,1468,5803,10
2020-09-29,20094,1064,18987,5762,993,4763,11
2020-09-30,15650,1032,14587,5356,959,4392,12
2020-10-01,16826,943,15846,4626,878,3744,14
2020-10-02,14978,951,13977,5163,886,4268,10
2020-10-03,4232,390,3834,1956,355,1599,17
2020-10-04,4095,320,3769,1714,291,1421,9
2020-10-05,25526,1757,23709,8175,1675,6484,17
2020-10-06,23567,1309,22219,6784,1211,5569,7
2020-10-07,16634,1332,15261,6124,1256,4862,22
2020-10-08,19245,1328,17889,5603,1221,4377,16
2020-10-09,16101,1287,14788,5887,1198,4687,23
2020-10-10,4213,405,3800,1999,364,1634,11
2020-10-11,4252,372,3877,1831,347,1484,15
2020-10-12,26606,2013,24545,8176,1940,6227,18
2020-10-13,23107,1435,21636,6925,1328,5594,6
2020-10-14,15582,1358,14201,5876,1260,4612,17
2020-10-15,20828,1323,19484,5643,1235,4405,20
2020-10-16,16178,1228,14910,6021,1129,4888,21
2020-10-17,4434,432,3992,2240,371,1865,20
2020-10-18,4290,368,3915,1873,334,1536,11
2020-10-19,28113,2088,25915,8498,1986,6499,20
2020-10-20,22766,1494,21200,6851,1416,5429,27
2020-10-21,16634,1693,14902,6511,1588,4918,16
2020-10-22,21629,1810,19787,6362,1692,4663,24
2020-10-23,17075,1696,15332,6455,1568,4880,17
2020-10-24,4894,688,4196,2428,634,1792,14
2020-10-25,5543,596,4937,2256,552,1704,15
2020-10-26,31057,3308,27661,9761,3176,6574,14
2020-10-27,26127,2683,23385,8502,2523,5968,12
2020-10-28,20136,2804,17279,8510,2639,5861,21
2020-10-29,27324,3164,24102,8897,3033,5851,22
2020-10-30,21755,3014,18697,8850,2835,6007,22
2020-10-31,6444,1204,5228,3215,1142,2072,24
2020-11-01,7320,1240,6058,3189,1162,2024,33
2020-11-02,37822,5568,32192,13671,5372,8289,39
2020-11-03,32687,5094,27510,12781,4927,7830,28
2020-11-04,25781,5214,20501,12515,5022,7480,30
2020-11-05,35585,5463,30034,13166,5239,7906,54
2020-11-06,29300,5132,24018,13104,4879,8199,39
2020-11-07,8916,2186,6714,5134,2097,3036,33
2020-11-08,10182,2099,8039,4703,1881,2814,47
2020-11-09,46030,7845,38118,18596,7544,11032,36
2020-11-10,34440,5785,28575,15001,5518,9465,45
2020-11-11,22929,4655,18227,11996,4482,7506,40
2020-11-12,41987,5708,36194,15831,5439,10367,63
2020-11-13,31300,4619,26604,14012,4326,9671,37
2020-11-14,8881,1685,7161,4851,1567,3267,39
2020-11-15,8366,1545,6776,4498,1354,3132,50
2020-11-16,47136,6386,40669,18505,6174,12319,49
2020-11-17,35921,5020,30786,15654,4700,10932,60
2020-11-18,26827,4376,22348,14220,4136,10068,61
2020-11-19,39420,4113,35199,14316,3883,10408,74
2020-11-20,31412,3794,27531,13315,3546,9754,62
2020-11-21,9495,1406,8063,4986,1302,3676,61
2020-11-22,8738,1250,7452,4107,1123,2976,50
2020-11-23,45140,4641,40307,15672,4392,11246,61
2020-11-24,28550,3227,25176,11604,3012,8559,38
2020-11-25,28623,2907,25651,9699,2718,6970,64
2020-11-26,5135,473,4631,1462,351,1104,64
2020-11-27,23326,2680,20571,8054,2518,5519,60
2020-11-28,7202,1197,5990,3439,1105,2332,61
2020-11-29,6807,1045,5642,3351,886,2417,54
2020-11-30,39030,4352,34513,13415,4127,9258,71
2020-12-01,27527,3071,24342,10894,2869,8003,62
2020-12-02,18819,2457,16281,9418,2312,7095,55
2020-12-03,30159,2415,27680,9057,2259,6789,58
2020-12-04,23285,2143,21086,8749,1984,6756,54
2020-12-05,6354,897,5443,3371,822,2548,54
2020-12-06,5943,694,5235,3007,609,2395,52
2020-12-07,36576,3193,33318,11970,2969,8988,48
2020-12-08,25458,2193,23202,9304,2036,7255,55
2020-12-09,16354,1869,14413,8083,1753,6320,47
2020-12-10,28829,1971,26796,8222,1842,6368,36
2020-12-11,20684,1733,18818,7905,1609,6280,44
2020-12-12,5313,568,4734,2708,516,2189,45
2020-12-13,5630,598,5005,2879,554,2323,34
2020-12-14,33946,2755,31056,11129,2608,8509,40
2020-12-15,23715,1870,21769,8900,1750,7137,29
2020-12-16,16425,1794,14567,8067,1661,6395,47
2020-12-17,28512,1683,26784,8026,1583,6434,42
2020-12-18,21253,1573,19635,8704,1474,7220,26
2020-12-19,6115,646,5455,3198,614,2583,35
2020-12-20,6235,609,5593,3204,544,2649,17
2020-12-21,37983,2587,35311,11357,2454,8893,40
2020-12-22,19404,1738,17629,8700,1593,7094,34
2020-12-23,21689,1415,20242,7708,1321,6379,30
2020-12-24,17342,1010,16315,4571,927,3640,32
2020-12-25,2609,180,2428,802,158,644,36
2020-12-26,7146,978,6158,4022,924,3095,25
2020-12-27,6481,733,5733,3129,635,2493,35
2020-12-28,35233,2864,32280,10727,2713,8002,28
2020-12-29,13800,1458,12327,5677,1368,4305,18
2020-12-30,19683,1969,17682,7467,1879,5582,27
2020-12-31,22346,1672,20660,6525,1575,4950,23
2021-01-01,4259,380,3875,1457,350,1105,23
2021-01-02,6990,1076,5907,3951,1028,2920,30
2021-01-03,6422,818,5578,3563,714,2842,18
2021-01-04,36103,3449,32549,13314,3312,9991,20
2021-01-05,21973,2149,19754,9412,2012,7386,25
2021-01-06,15904,1875,13962,8258,1774,6478,27
2021-01-07,26083,1632,24409,8204,1555,6641,19
2021-01-08,19807,1676,18018,9261,1588,7655,31
2021-01-09,5969,588,5375,3351,533,2817,29
2021-01-10,5533,594,4930,3145,532,2609,22
2021-01-11,34089,2466,31520,11685,2324,9349,19
2021-01-12,20746,1514,19179,8822,1402,7413,16
2021-01-13,15398,1432,13915,8258,1323,6924,18
2021-01-14,25652,1358,24258,8089,1265,6819,17
2021-01-15,13233,872,12331,5332,820,4503,7
2021-01-16,5892,633,5247,3329,589,2739,16
2021-01-17,5525,469,5005,3009,399,2603,14
2021-01-18,28849,1597,27171,9511,1543,7955,16
2021-01-19,23559,1715,21780,10534,1589,8935,11
2021-01-20,15094,1237,13821,7886,1153,6731,11
2021-01-21,24940,1285,23613,8685,1198,7482,9
2021-01-22,17994,1193,16686,8598,1115,7478,16
2021-01-23,5700,506,5184,3333,466,2867,16
2021-01-24,5788,451,5311,3213,384,2826,16
2021-01-25,29110,1436,27557,9959,1356,8596,12
2021-01-26,16522,892,15600,6969,833,6132,8
2021-01-27,16578,1269,15181,9147,1192,7946,19
2021-01-28,22527,1048,21404,8448,985,7456,7
2021-01-29,17409,1070,16231,8126,981,7141,7
2021-01-30,5126,423,4692,3265,388,2876,6
2021-01-31,5049,352,4685,2954,320,2629,6
2021-02-01,28668,1488,27064,11860,1412,10433,5
2021-02-02,19705,1002,18624,10659,941,9713,6
2021-02-03,14512,911,13532,9564,855,8706,7
2021-02-04,15034,486,14493,6656,456,6194,2
2021-02-05,15758,858,14811,9074,780,8290,6
2021-02-06,4603,301,4298,3200,275,2924,3
2021-02-07,4656,301,4334,3619,259,3351,1
2021-02-08,24580,1186,23286,20470,1118,19344,1
2021-02-09,14198,681,13445,12117,641,11471,0
2021-02-10,4800,190,4609,4279,181,4098,0
2021-02-11,34,1,33,32,1,31,0
