Date,State - Total Tests,State - Positive Tests,State - Negative Tests,State - Individuals Tested,State - Individuals Positive,State - Individuals Negative,State - Deaths
2020-03-11,28,2,26,12,2,10,0
2020-03-12,68,2,66,26,2,24,0
2020-03-13,121,6,115,55,6,49,0
2020-03-14,100,3,97,52,2,50,0
2020-03-15,125,1,124,47,1,46,0
2020-03-16,436,20,416,180,20,160,0
2020-03-17,462,23,439,191,22,169,0
2020-03-18,437,27,410,175,26,149,0
2020-03-19,455,30,425,178,28,150,0
2020-03-20,497,27,469,178,26,152,0
2020-03-21,265,16,249,98,15,83,0
2020-03-22,272,19,253,103,18,85,0
2020-03-23,863,54,805,313,52,260,0
2020-03-24,849,58,791,303,56,247,1
2020-03-25,843,70,773,306,65,241,0
2020-03-26,934,67,866,311,64,247,1
2020-03-27,899,71,826,338,69,269,2
2020-03-28,453,41,411,171,40,131,1
2020-03-29,362,39,323,137,36,101,1
2020-03-30,1154,115,1039,430,114,316,1
2020-03-31,1010,81,929,360,78,282,4
2020-04-01,996,89,905,376,83,293,2
2020-04-02,1055,86,969,367,83,284,1
2020-04-03,966,100,865,380,94,286,5
2020-04-04,415,57,358,159,54,105,3
2020-04-05,435,68,364,188,66,121,5
2020-04-06,1295,138,1156,484,131,353,0
2020-04-07,1168,122,1044,430,116,314,2
2020-04-08,1069,117,951,418,112,306,3
2020-04-09,967,123,844,385,114,271,5
2020-04-10,1139,248,889,526,241,285,3
2020-04-11,454,80,372,190,73,117,4
2020-04-12,371,62,309,151,56,95,4
2020-04-13,1219,216,1001,522,200,321,6
2020-04-14,1215,171,1043,466,154,312,3
2020-04-15,1316,191,1124,473,182,291,6
2020-04-16,2108,510,1583,1169,490,671,5
2020-04-17,2216,524,1687,1209,501,707,7
2020-04-18,752,188,563,343,175,168,5
2020-04-19,746,183,562,341,169,172,8
2020-04-20,2393,537,1855,1061,507,554,7
2020-04-21,2481,480,1999,1033,449,584,6
2020-04-22,2298,548,1748,1128,528,600,7
2020-04-23,2511,494,2015,1118,465,653,11
2020-04-24,3481,722,2755,1590,683,905,5
2020-04-25,4738,1338,3365,2830,1279,1545,7
2020-04-26,1243,199,1015,483,161,319,8
2020-04-27,3387,603,2723,1443,561,867,9
2020-04-28,3827,699,3095,1737,658,1072,11
2020-04-29,4089,572,3391,1762,525,1208,13
2020-04-30,4062,489,3520,1771,447,1307,9
2020-05-01,3490,438,3008,1398,397,994,11
2020-05-02,1245,201,1030,515,174,340,6
2020-05-03,1316,158,1156,454,124,330,14
2020-05-04,3976,654,3288,1826,601,1218,18
2020-05-05,4435,551,3856,2011,513,1491,10
2020-05-06,4328,410,3895,1569,372,1194,9
2020-05-07,3975,405,3524,1573,366,1192,12
2020-05-08,3780,379,3372,1586,340,1235,11
2020-05-09,1634,142,1491,642,121,521,13
2020-05-10,1594,142,1449,608,118,490,17
2020-05-11,5127,487,4562,1982,436,1535,14
2020-05-12,5315,444,4852,1957,405,1549,14
2020-05-13,4670,360,4301,1747,306,1439,13
2020-05-14,4964,404,4536,1656,350,1300,17
2020-05-15,4262,371,3869,1630,313,1311,7
2020-05-16,2116,184,1927,804,148,656,11
2020-05-17,2021,168,1845,765,122,643,11
2020-05-18,7819,860,6874,2981,786,2189,16
2020-05-19,6970,734,6187,2807,635,2167,17
2020-05-20,6255,503,5704,2239,442,1788,13
2020-05-21,5474,596,4839,2020,477,1534,11
2020-05-22,6157,367,5721,2321,308,2002,19
2020-05-23,1530,149,1378,612,119,493,7
2020-05-24,1837,164,1670,699,100,599,20
2020-05-25,1792,115,1673,666,88,578,10
2020-05-26,7672,565,7017,3008,468,2511,11
2020-05-27,7466,484,6948,2636,394,2236,13
2020-05-28,7004,539,6432,2692,437,2247,10
2020-05-29,6578,413,6138,2484,359,2121,12
2020-05-30,2207,158,2046,903,121,782,6
2020-05-31,2223,108,2112,856,76,780,10
2020-06-01,7407,578,6803,2927,476,2445,7
2020-06-02,6989,393,6577,2751,334,2413,12
2020-06-03,6792,467,6304,2608,382,2224,10
2020-06-04,6935,413,6499,2444,340,2098,8
2020-06-05,5985,430,5524,2492,357,2126,10
2020-06-06,2313,113,2192,885,90,795,8
2020-06-07,2130,89,2038,846,56,790,7
2020-06-08,8044,597,7417,3070,477,2586,8
2020-06-09,6967,369,6574,2679,311,2361,3
2020-06-10,6921,396,6490,2539,328,2201,8
2020-06-11,6651,318,6298,2385,266,2115,2
2020-06-12,6939,330,6571,2488,269,2211,5
2020-06-13,2231,96,2133,897,77,819,5
2020-06-14,2193,76,2114,856,55,801,5
2020-06-15,8516,527,7931,3181,442,2729,9
2020-06-16,7784,431,7318,2918,363,2549,4
2020-06-17,7458,437,6965,2719,374,2335,3
2020-06-18,7932,432,7149,2704,344,2304,2
2020-06-19,8368,516,7776,3204,456,2735,6
2020-06-20,2585,119,2459,1111,104,1006,3
2020-06-21,2351,98,2248,960,81,879,0
2020-06-22,10029,640,9254,4018,551,3439,2
2020-06-23,9502,551,8919,3669,486,3176,4
2020-06-24,8646,470,8138,3285,422,2852,0
2020-06-25,9428,542,8830,3478,476,2993,4
2020-06-26,8492,523,7935,3359,450,2899,8
2020-06-27,3001,174,2822,1320,159,1161,2
2020-06-28,3026,187,2833,1313,168,1143,4
2020-06-29,11223,799,10336,4637,697,3924,0
2020-06-30,9879,770,9065,3943,683,3247,1
2020-07-01,9399,643,8706,3668,572,3076,4
2020-07-02,10183,770,9343,4227,683,3528,3
2020-07-03,3823,271,3547,1588,247,1340,9
2020-07-04,1921,122,1798,827,99,728,1
2020-07-05,3193,223,2965,1381,200,1181,3
2020-07-06,12244,875,11296,5339,763,4563,4
2020-07-07,11638,802,10781,4686,721,3953,3
2020-07-08,11412,921,10439,4308,812,3487,4
2020-07-09,10096,867,9184,4052,763,3278,2
2020-07-10,10127,627,9473,4105,558,3544,6
2020-07-11,3765,236,3519,1620,209,1409,6
2020-07-12,3275,217,3054,1446,202,1242,6
2020-07-13,12627,903,11653,5176,781,4383,7
2020-07-14,11005,737,10214,4371,625,3734,4
2020-07-15,10718,746,9913,4211,655,3543,6
2020-07-16,9019,670,8323,3814,556,3251,5
2020-07-17,8739,604,8091,3706,513,3187,7
2020-07-18,3336,178,3146,1511,150,1357,6
2020-07-19,2769,149,2616,1153,132,1021,3
2020-07-20,11978,895,11021,4995,737,4245,9
2020-07-21,10055,706,9299,4053,577,3465,9
2020-07-22,9480,742,8691,3803,583,3215,8
2020-07-23,8785,716,8010,3514,579,2924,7
2020-07-24,9030,661,8324,3733,548,3180,6
2020-07-25,2724,159,2553,1232,133,1096,6
2020-07-26,2637,168,2463,1128,143,985,5
2020-07-27,10863,861,9935,4714,732,3975,13
2020-07-28,9632,730,8842,3954,585,3359,8
2020-07-29,8564,706,7818,3587,597,2983,6
2020-07-30,7818,736,7049,3378,621,2748,7
2020-07-31,8130,629,7474,3568,538,3024,3
2020-08-01,2607,165,2435,1134,136,997,6
2020-08-02,2710,143,2559,1102,131,971,8
2020-08-03,12565,947,11538,5023,828,4186,8
2020-08-04,10772,781,9936,4309,677,3624,9
2020-08-05,9785,647,9085,3695,533,3159,7
2020-08-06,8488,612,7825,3355,521,2824,6
2020-08-07,9443,680,8700,3768,538,3221,11
2020-08-08,3023,209,2807,1267,185,1082,7
2020-08-09,2781,168,2604,1077,154,923,6
2020-08-10,9210,735,8384,3745,645,3090,7
2020-08-11,9290,635,8600,3576,540,3024,10
2020-08-12,11062,823,10128,4337,692,3633,3
2020-08-13,9487,810,8610,3615,676,2934,13
2020-08-14,9763,767,8884,4137,677,3415,10
2020-08-15,3548,222,3300,1536,203,1330,5
2020-08-16,3125,207,2903,1434,181,1252,5
2020-08-17,11218,1146,9990,5116,1016,4088,9
2020-08-18,10680,839,9761,4223,765,3439,9
2020-08-19,9432,855,8515,4054,785,3255,4
2020-08-20,9004,815,8128,3812,736,3056,17
2020-08-21,9280,897,8309,3927,774,3141,11
2020-08-22,3085,311,2766,1460,284,1175,10
2020-08-23,3629,354,3252,1513,322,1186,12
2020-08-24,12524,1551,10862,5754,1435,4297,6
2020-08-25,11546,1334,10109,4870,1223,3638,11
2020-08-26,10542,1348,9058,4478,1234,3226,9
2020-08-27,10254,1304,8823,4748,1192,3536,12
2020-08-28,10697,1306,9342,4900,1188,3697,11
2020-08-29,3402,317,3074,1597,298,1298,12
2020-08-30,3603,293,3306,1518,276,1242,6
2020-08-31,13339,1272,12003,6077,1178,4892,10
2020-09-01,12606,1065,11501,5323,960,4357,10
2020-09-02,13181,1219,11906,5109,1130,3977,5
2020-09-03,13798,1011,12752,4743,923,3818,14
2020-09-04,12902,1018,11819,4646,902,3733,10
2020-09-05,3775,267,3501,1564,238,1325,6
2020-09-06,3823,262,3553,1661,241,1420,8
2020-09-07,3542,285,3250,1353,273,1080,13
2020-09-08,23681,1364,22257,7019,1234,5777,11
2020-09-09,14920,996,13888,5313,900,4409,9
2020-09-10,15293,942,14287,4803,861,3934,10
2020-09-11,16148,1016,15083,5112,905,4202,6
2020-09-12,3994,249,3741,1815,229,1586,4
2020-09-13,3673,275,3393,1526,243,1283,5
2020-09-14,21049,1675,19300,7215,1572,5630,8
2020-09-15,18973,1075,17858,5541,991,4547,4
2020-09-16,13371,1124,12217,5063,1027,4035,8
2020-09-17,16346,1068,15242,4810,982,3823,9
2020-09-18,14561,1129,13395,5107,1026,4073,6
2020-09-19,4461,345,4108,1961,321,1639,9
2020-09-20,3797,302,3489,1613,274,1339,5
2020-09-21,21364,1492,19827,7496,1420,6066,4
2020-09-22,21200,1291,19857,6669,1210,5454,6
2020-09-23,15986,1107,14845,5780,1046,4727,13
2020-09-24,17881,1006,16835,5264,929,4329,11
2020-09-25,15218,1004,14187,5387,942,4443,12
2020-09-26,4054,296,3747,1794,274,1517,12
2020-09-27,3816,266,3545,1574,247,1326,10
2020-09-28,22525,1537,20954,7287,1468,5817,10
2020-09-29,20094,1063,18988,5779,993,4780,11
2020-09-30,15650,1031,14588,5375,959,4411,12
2020-10-01,16825,943,15845,4634,878,3752,14
2020-10-02,14977,951,13976,5176,887,4280,10
2020-10-03,4231,390,3833,1962,355,1605,17
2020-10-04,4095,320,3769,1718,291,1425,9
2020-10-05,25525,1757,23708,8204,1675,6513,17
2020-10-06,23566,1309,22218,6804,1211,5589,7
2020-10-07,16633,1330,15262,6138,1256,4876,22
2020-10-08,19244,1330,17886,5618,1222,4391,16
2020-10-09,16100,1284,14790,5904,1198,4703,23
2020-10-10,4213,405,3800,2006,364,1641,11
2020-10-11,4252,372,3877,1837,347,1490,15
2020-10-12,26605,2012,24545,8202,1940,6253,18
2020-10-13,23106,1432,21638,6946,1328,5615,6
2020-10-14,15576,1357,14196,5890,1260,4626,17
2020-10-15,20824,1323,19481,5659,1235,4421,20
2020-10-16,16176,1228,14908,6040,1129,4907,21
2020-10-17,4434,432,3992,2245,371,1870,20
2020-10-18,4290,368,3914,1878,334,1541,11
2020-10-19,28112,2087,25915,8533,1986,6534,20
2020-10-20,22764,1497,21194,6872,1416,5450,27
2020-10-21,16632,1692,14898,6529,1588,4936,16
2020-10-22,21619,1811,19775,6377,1692,4678,24
2020-10-23,17053,1694,15313,6464,1568,4889,17
2020-10-24,4889,688,4191,2436,634,1800,14
2020-10-25,5542,596,4936,2261,552,1709,15
2020-10-26,31056,3307,27661,9793,3176,6606,14
2020-10-27,26125,2685,23380,8522,2523,5988,12
2020-10-28,20135,2803,17280,8535,2640,5885,21
2020-10-29,27323,3164,24101,8918,3033,5872,22
2020-10-30,21754,3013,18697,8875,2834,6033,22
2020-10-31,6444,1204,5228,3228,1142,2085,24
2020-11-01,7320,1242,6057,3193,1161,2029,33
2020-11-02,37818,5569,32187,13703,5372,8321,39
2020-11-03,32685,5090,27513,12809,4927,7858,28
2020-11-04,25780,5215,20500,12559,5022,7524,30
2020-11-05,35583,5466,30029,13198,5239,7938,54
2020-11-06,29300,5131,24019,13124,4879,8219,39
2020-11-07,8916,2185,6715,5144,2097,3046,33
2020-11-08,10181,2097,8041,4712,1881,2823,47
2020-11-09,46027,7844,38116,18632,7544,11068,36
2020-11-10,34439,5784,28575,15044,5518,9508,45
2020-11-11,22927,4657,18223,12025,4483,7534,40
2020-11-12,41984,5710,36190,15876,5439,10412,63
2020-11-13,31297,4617,26603,14055,4326,9714,37
2020-11-14,8881,1682,7164,4865,1567,3281,39
2020-11-15,8366,1543,6778,4514,1354,3148,50
2020-11-16,47135,6384,40670,18554,6174,12368,49
2020-11-17,35919,5020,30785,15704,4700,10982,60
2020-11-18,26826,4376,22347,14272,4136,10120,61
2020-11-19,39418,4111,35198,14356,3883,10448,74
2020-11-20,31409,3796,27526,13358,3546,9797,62
2020-11-21,9495,1407,8062,4995,1302,3685,61
2020-11-22,8738,1249,7452,4124,1123,2993,50
2020-11-23,45139,4638,40307,15710,4392,11284,61
2020-11-24,28548,3228,25173,11633,3012,8588,38
2020-11-25,28623,2905,25653,9727,2718,6998,63
2020-11-26,5135,473,4631,1465,351,1107,63
2020-11-27,23325,2679,20570,8075,2518,5540,60
2020-11-28,7202,1197,5990,3453,1105,2346,61
2020-11-29,6807,1046,5641,3360,886,2426,54
2020-11-30,39030,4352,34514,13446,4127,9289,71
2020-12-01,27526,3071,24342,10923,2869,8032,62
2020-12-02,18817,2461,16275,9454,2312,7131,55
2020-12-03,30152,2412,27677,9093,2259,6825,58
2020-12-04,23283,2143,21083,8783,1984,6790,54
2020-12-05,6354,896,5445,3381,822,2558,54
2020-12-06,5943,693,5236,3018,609,2406,51
2020-12-07,36576,3195,33317,12013,2969,9031,48
2020-12-08,25457,2192,23202,9345,2036,7296,55
2020-12-09,16354,1869,14413,8107,1753,6344,47
2020-12-10,28829,1974,26793,8254,1842,6400,36
2020-12-11,20684,1732,18819,7929,1609,6304,44
2020-12-12,5310,567,4732,2715,516,2196,45
2020-12-13,5630,599,5004,2889,554,2333,34
2020-12-14,33946,2758,31055,11188,2608,8568,40
2020-12-15,23715,1871,21766,8928,1750,7165,29
2020-12-16,16424,1794,14567,8099,1661,6427,47
2020-12-17,28512,1687,26780,8064,1583,6472,42
2020-12-18,21240,1574,19622,8851,1474,7367,26
2020-12-19,6113,645,5454,3207,613,2593,34
2020-12-20,6235,610,5592,3227,544,2672,17
2020-12-21,37970,2583,35300,11395,2453,8932,40
2020-12-22,19400,1733,17630,8728,1591,7124,34
2020-12-23,21688,1416,20240,7726,1321,6397,30
2020-12-24,17340,1010,16313,4591,926,3661,30
2020-12-25,2609,180,2428,808,158,650,36
2020-12-26,7146,978,6158,4036,924,3109,25
2020-12-27,6481,733,5733,3146,635,2510,33
2020-12-28,35228,2864,32275,10746,2713,8021,28
2020-12-29,13798,1456,12327,5695,1368,4323,18
2020-12-30,19677,1968,17677,7509,1877,5626,27
2020-12-31,22346,1668,20663,6553,1575,4978,23
2021-01-01,4258,381,3873,1462,350,1110,23
2021-01-02,6986,1078,5901,3954,1028,2923,30
2021-01-03,6421,815,5581,3580,714,2859,18
2021-01-04,36099,3451,32543,13382,3312,10059,20
2021-01-05,21969,2149,19750,9459,2011,7434,25
2021-01-06,15895,1875,13953,8285,1773,6506,27
2021-01-07,26081,1631,24408,8231,1555,6668,19
2021-01-08,19805,1678,18014,9314,1588,7708,29
2021-01-09,5967,588,5372,3372,533,2838,29
2021-01-10,5533,595,4929,3162,532,2626,22
2021-01-11,34077,2468,31506,11741,2323,9406,19
2021-01-12,20742,1514,19174,8855,1402,7446,16
2021-01-13,15390,1432,13907,8292,1323,6958,18
2021-01-14,25648,1360,24253,8120,1265,6850,17
2021-01-15,13232,872,12330,5355,820,4526,7
2021-01-16,5889,633,5244,3342,589,2752,15
2021-01-17,5523,470,5002,3021,399,2615,14
2021-01-18,28841,1600,27159,9584,1543,8028,16
2021-01-19,23554,1717,21774,10619,1589,9020,11
2021-01-20,15094,1237,13821,7955,1153,6800,11
2021-01-21,24939,1284,23613,8750,1198,7547,9
2021-01-22,17985,1194,16676,8653,1115,7533,15
2021-01-23,5699,508,5181,3355,466,2889,16
2021-01-24,5787,451,5310,3234,384,2847,15
2021-01-25,29107,1436,27555,10142,1356,8779,12
2021-01-26,16515,890,15595,7086,833,6249,7
2021-01-27,16564,1268,15168,9241,1189,8043,17
2021-01-28,22517,1048,21394,8586,985,7594,7
2021-01-29,17404,1071,16225,8329,981,7344,7
2021-01-30,5125,423,4691,3311,388,2922,6
2021-01-31,5048,352,4684,3071,320,2746,5
2021-02-01,28590,1488,26985,13041,1411,11615,5
2021-02-02,19632,1002,18551,11561,941,10613,6
2021-02-03,14292,915,13308,10472,854,9615,6
2021-02-04,14928,485,14388,7794,455,7331,2
2021-02-05,15163,850,14224,10082,775,9303,4
2021-02-06,4396,298,4095,3288,272,3015,2
2021-02-07,4397,279,4102,3646,237,3401,1
2021-02-08,19901,937,18880,16990,896,16084,0
2021-02-09,6825,254,6569,5846,240,5605,0
2021-02-10,19,5,14,17,3,14,0
