Date,State - Total Tests,State - Positive Tests,State - Negative Tests,State - Individuals Tested,State - Individuals Positive,State - Individuals Negative,State - Deaths
2020-03-11,28,2,26,12,2,10,0
2020-03-12,69,3,66,29,2,27,0
2020-03-13,121,6,115,56,6,50,0
2020-03-14,99,3,96,52,2,50,0
2020-03-15,125,1,124,50,1,49,0
2020-03-16,436,20,416,194,20,174,0
2020-03-17,461,23,438,202,22,180,0
2020-03-18,437,27,410,189,26,163,0
2020-03-19,455,30,425,190,28,162,0
2020-03-20,497,27,469,192,26,166,0
2020-03-21,264,16,248,106,15,91,0
2020-03-22,272,19,253,108,18,90,0
2020-03-23,863,54,805,341,53,287,0
2020-03-24,849,58,791,326,56,270,1
2020-03-25,843,70,773,326,65,261,0
2020-03-26,934,67,866,344,64,280,1
2020-03-27,899,71,826,364,69,295,2
2020-03-28,453,41,411,187,40,147,1
2020-03-29,362,39,323,143,36,107,1
2020-03-30,1154,115,1039,459,114,345,1
2020-03-31,1010,81,929,392,78,314,4
2020-04-01,996,89,905,405,83,322,2
2020-04-02,1055,86,969,398,83,315,1
2020-04-03,966,100,865,400,95,305,5
2020-04-04,415,57,358,171,55,116,3
2020-04-05,435,68,364,192,67,124,5
2020-04-06,1293,138,1154,522,131,391,0
2020-04-07,1168,122,1044,466,116,349,2
2020-04-08,1069,117,951,440,112,328,3
2020-04-09,966,123,843,407,114,293,5
2020-04-10,1139,248,889,553,242,311,3
2020-04-11,454,80,372,198,73,125,4
2020-04-12,371,62,309,156,56,100,4
2020-04-13,1219,216,1001,544,200,343,6
2020-04-14,1215,171,1043,493,154,339,3
2020-04-15,1316,191,1124,510,182,328,6
2020-04-16,2106,509,1582,1220,490,722,5
2020-04-17,2214,525,1684,1263,502,759,7
2020-04-18,751,188,562,351,175,176,5
2020-04-19,746,183,562,359,169,190,8
2020-04-20,2391,537,1853,1107,507,600,7
2020-04-21,2481,480,1999,1085,449,636,6
2020-04-22,2297,548,1747,1174,531,643,7
2020-04-23,2510,494,2014,1167,467,700,11
2020-04-24,3475,722,2749,1689,684,1003,5
2020-04-25,4733,1338,3360,2960,1280,1674,7
2020-04-26,1242,199,1014,517,161,353,8
2020-04-27,3381,603,2719,1515,561,939,9
2020-04-28,3821,699,3091,1853,660,1185,11
2020-04-29,4069,572,3374,1882,526,1324,13
2020-04-30,4047,490,3504,1858,448,1391,9
2020-05-01,3465,438,2985,1487,398,1082,11
2020-05-02,1240,201,1025,536,174,361,6
2020-05-03,1314,158,1154,484,125,359,14
2020-05-04,3941,654,3254,1905,602,1296,18
2020-05-05,4343,551,3768,2058,513,1538,10
2020-05-06,4288,410,3856,1664,373,1288,9
2020-05-07,3949,405,3501,1653,367,1270,12
2020-05-08,3705,378,3302,1643,340,1292,11
2020-05-09,1629,141,1487,676,120,556,13
2020-05-10,1592,142,1447,657,118,539,17
2020-05-11,5076,486,4514,2108,437,1660,14
2020-05-12,5274,444,4812,2081,406,1672,14
2020-05-13,4622,360,4253,1849,306,1541,13
2020-05-14,4950,404,4522,1773,351,1416,17
2020-05-15,4203,371,3812,1721,314,1400,7
2020-05-16,2113,184,1924,870,148,722,11
2020-05-17,2017,168,1842,819,122,697,11
2020-05-18,7778,861,6832,3210,788,2415,16
2020-05-19,6943,734,6159,3027,639,2383,17
2020-05-20,6230,503,5679,2395,443,1943,13
2020-05-21,5458,596,4823,2178,479,1690,11
2020-05-22,6110,367,5674,2486,308,2166,19
2020-05-23,1522,149,1370,659,119,540,7
2020-05-24,1830,164,1663,747,100,647,20
2020-05-25,1774,115,1655,719,88,631,10
2020-05-26,7644,564,6989,3204,468,2706,11
2020-05-27,7422,484,6905,2857,396,2454,13
2020-05-28,6959,539,6387,2889,438,2443,10
2020-05-29,6537,413,6098,2673,359,2310,12
2020-05-30,2194,158,2033,962,121,841,6
2020-05-31,2212,108,2101,932,76,856,10
2020-06-01,7374,578,6772,3123,478,2638,7
2020-06-02,6943,393,6531,2960,334,2622,12
2020-06-03,6768,467,6280,2810,383,2424,10
2020-06-04,6912,413,6476,2620,341,2273,8
2020-06-05,5965,430,5504,2660,357,2294,10
2020-06-06,2300,113,2179,959,90,869,8
2020-06-07,2126,89,2034,911,56,855,7
2020-06-08,8020,597,7393,3298,477,2814,8
2020-06-09,6954,369,6561,2901,312,2582,3
2020-06-10,6907,396,6476,2743,328,2405,8
2020-06-11,6624,318,6272,2552,266,2282,2
2020-06-12,6915,330,6547,2703,271,2424,5
2020-06-13,2220,96,2122,972,77,894,5
2020-06-14,2183,76,2104,920,55,865,5
2020-06-15,8499,527,7915,3456,443,3003,9
2020-06-16,7763,431,7297,3146,364,2776,4
2020-06-17,7438,437,6946,2948,375,2563,3
2020-06-18,7907,431,7132,2908,345,2502,2
2020-06-19,8335,516,7743,3435,456,2964,6
2020-06-20,2577,119,2451,1200,104,1095,3
2020-06-21,2348,98,2245,1043,82,961,0
2020-06-22,9983,640,9212,4311,555,3727,2
2020-06-23,9472,551,8889,3957,487,3462,4
2020-06-24,8600,470,8093,3560,424,3124,0
2020-06-25,9399,542,8802,3721,478,3234,4
2020-06-26,8466,522,7910,3623,451,3162,8
2020-06-27,2987,174,2808,1441,159,1282,2
2020-06-28,3020,187,2827,1410,169,1239,4
2020-06-29,11177,799,10293,4980,697,4266,0
2020-06-30,9814,770,9000,4205,686,3506,1
2020-07-01,9341,643,8648,3951,574,3357,4
2020-07-02,10142,769,9303,4551,683,3851,3
2020-07-03,3810,272,3533,1687,247,1439,9
2020-07-04,1915,122,1792,879,99,780,1
2020-07-05,3186,223,2958,1480,201,1279,3
2020-07-06,12206,875,11259,5753,765,4975,4
2020-07-07,11599,802,10745,5151,724,4413,3
2020-07-08,11345,919,10375,4682,810,3861,4
2020-07-09,10072,868,9160,4364,767,3585,2
2020-07-10,10097,626,9445,4460,559,3897,6
2020-07-11,3748,236,3502,1766,210,1554,6
2020-07-12,3267,217,3046,1553,202,1349,6
2020-07-13,12571,903,11599,5646,781,4850,7
2020-07-14,10970,737,10179,4751,625,4114,4
2020-07-15,10667,746,9862,4578,656,3909,6
2020-07-16,8996,670,8300,4110,556,3547,4
2020-07-17,8719,602,8073,4004,512,3486,7
2020-07-18,3323,178,3133,1637,152,1481,6
2020-07-19,2756,149,2603,1233,133,1100,3
2020-07-20,11937,895,10980,5384,738,4633,8
2020-07-21,10023,706,9268,4399,580,3808,9
2020-07-22,9441,741,8654,4131,583,3543,8
2020-07-23,8746,716,7972,3797,582,3203,7
2020-07-24,8978,661,8272,4052,549,3498,6
2020-07-25,2707,159,2536,1335,133,1199,6
2020-07-26,2614,168,2440,1230,143,1087,5
2020-07-27,10811,861,9884,5095,732,4354,13
2020-07-28,9602,730,8812,4320,586,3723,8
2020-07-29,8538,706,7792,3874,597,3270,6
2020-07-30,7781,737,7011,3625,625,2991,7
2020-07-31,8103,629,7447,3878,538,3334,3
2020-08-01,2601,165,2429,1242,136,1105,6
2020-08-02,2698,143,2547,1204,131,1073,8
2020-08-03,12517,946,11491,5591,829,4753,8
2020-08-04,10734,781,9898,4790,678,4102,9
2020-08-05,9736,647,9036,4182,533,3642,7
2020-08-06,8434,612,7771,3799,522,3266,6
2020-08-07,9410,680,8667,4207,536,3662,11
2020-08-08,2996,209,2780,1359,185,1174,7
2020-08-09,2772,168,2595,1185,156,1028,6
2020-08-10,9162,735,8337,4127,645,3470,7
2020-08-11,9229,635,8538,3954,541,3400,10
2020-08-12,11003,823,10069,4975,692,4269,3
2020-08-13,9451,810,8574,4092,681,3405,13
2020-08-14,9734,768,8854,4628,677,3906,10
2020-08-15,3520,222,3272,1763,205,1555,5
2020-08-16,3093,206,2872,1603,183,1419,5
2020-08-17,11115,1147,9887,5639,1018,4603,9
2020-08-18,10603,839,9684,4683,769,3895,9
2020-08-19,9394,854,8478,4493,789,3690,4
2020-08-20,8959,815,8084,4239,736,3482,17
2020-08-21,9238,897,8267,4329,779,3537,11
2020-08-22,3074,311,2755,1626,284,1341,10
2020-08-23,3614,355,3236,1692,323,1364,12
2020-08-24,12427,1550,10768,6273,1443,4807,6
2020-08-25,11502,1333,10068,5394,1228,4154,11
2020-08-26,10504,1345,9023,4846,1242,3584,9
2020-08-27,10226,1309,8790,5159,1203,3935,12
2020-08-28,10648,1307,9292,5311,1193,4102,11
2020-08-29,3389,317,3061,1749,299,1449,12
2020-08-30,3585,293,3288,1682,278,1404,6
2020-08-31,13277,1270,11942,6628,1181,5440,10
2020-09-01,12555,1066,11449,5824,965,4853,10
2020-09-02,13107,1218,11834,5601,1141,4457,5
2020-09-03,13739,1010,12695,5134,925,4206,14
2020-09-04,12857,1018,11774,5031,905,4115,10
2020-09-05,3739,267,3465,1691,240,1450,6
2020-09-06,3802,262,3532,1803,241,1562,8
2020-09-07,3513,285,3221,1475,274,1201,13
2020-09-08,23479,1364,22055,7662,1236,6417,11
2020-09-09,14818,996,13786,5900,901,4995,9
2020-09-10,15133,940,14131,5276,863,4404,10
2020-09-11,16077,1016,15013,5631,909,4717,6
2020-09-12,3971,249,3718,2014,229,1785,4
2020-09-13,3663,275,3383,1683,243,1440,4
2020-09-14,20946,1675,19197,7837,1581,6243,8
2020-09-15,18702,1073,17589,6028,996,5028,4
2020-09-16,13219,1122,12067,5541,1033,4506,8
2020-09-17,16271,1068,15167,5272,987,4279,9
2020-09-18,14444,1129,13278,5610,1029,4573,6
2020-09-19,4442,344,4090,2137,320,1815,9
2020-09-20,3783,301,3476,1763,275,1488,5
2020-09-21,21194,1492,19657,8195,1425,6760,4
2020-09-22,20912,1290,19570,7288,1210,6073,6
2020-09-23,15837,1106,14697,6351,1046,5297,13
2020-09-24,17678,1004,16634,5756,929,4821,11
2020-09-25,15128,1002,14099,5926,944,4980,12
2020-09-26,4022,296,3715,1963,278,1682,12
2020-09-27,3760,266,3489,1729,247,1481,10
2020-09-28,22397,1536,20827,8029,1473,6553,10
2020-09-29,19800,1060,18698,6316,996,5313,11
2020-09-30,15484,1032,14421,5915,964,4946,12
2020-10-01,16719,941,15741,5100,877,4219,14
2020-10-02,14897,951,13897,5715,889,4817,10
2020-10-03,4201,390,3803,2128,356,1770,17
2020-10-04,4061,320,3736,1913,292,1619,9
2020-10-05,25194,1757,23377,8952,1682,7253,17
2020-10-06,23338,1309,21990,7504,1219,6281,7
2020-10-07,16476,1331,15105,6777,1262,5508,22
2020-10-08,19085,1330,17727,6190,1226,4959,16
2020-10-09,16043,1286,14731,6491,1206,5281,23
2020-10-10,4203,405,3790,2227,364,1862,11
2020-10-11,4140,348,3789,1970,323,1647,15
2020-10-12,26386,2013,24326,9033,1945,7079,18
2020-10-13,22862,1433,21393,7656,1331,6321,6
2020-10-14,15415,1356,14036,6516,1264,5248,16
2020-10-15,20736,1325,19391,6225,1242,4980,20
2020-10-16,16057,1227,14790,6643,1129,5510,21
2020-10-17,4403,432,3961,2462,372,2086,20
2020-10-18,4269,368,3894,2078,336,1739,11
2020-10-19,27975,2086,25779,9446,1988,7445,20
2020-10-20,22629,1495,21061,7613,1420,6187,27
2020-10-21,16568,1693,14835,7240,1594,5641,16
2020-10-22,21449,1806,19610,7067,1693,5367,24
2020-10-23,16982,1693,15242,7129,1569,5553,17
2020-10-24,4870,688,4172,2682,635,2045,14
2020-10-25,5512,595,4907,2494,553,1941,15
2020-10-26,30771,3305,27378,10747,3179,7557,14
2020-10-27,25999,2684,23256,9408,2526,6871,12
2020-10-28,20017,2803,17163,9418,2644,6764,21
2020-10-29,27075,3159,23858,9825,3032,6779,22
2020-10-30,21642,3007,18591,9691,2833,6850,21
2020-10-31,6388,1204,5172,3491,1142,2348,24
2020-11-01,7271,1243,6008,3469,1163,2303,32
2020-11-02,37340,5567,31711,14881,5379,9491,39
2020-11-03,32480,5086,27313,13895,4924,8947,28
2020-11-04,25575,5209,20300,13716,5023,8680,30
2020-11-05,35226,5434,29704,14370,5212,9135,53
2020-11-06,29054,5067,23838,14188,4816,9345,39
2020-11-07,8792,2120,6658,5527,2033,3492,33
2020-11-08,10088,2055,7990,5056,1840,3208,47
2020-11-09,45511,7699,37745,20102,7399,12681,35
2020-11-10,34137,5696,28361,16269,5435,10814,44
2020-11-11,22717,4602,18068,13154,4429,8716,39
2020-11-12,41532,5633,35813,17289,5366,11897,61
2020-11-13,31044,4575,26392,15492,4284,11192,36
2020-11-14,8830,1663,7133,5324,1547,3760,39
2020-11-15,8273,1518,6710,4938,1331,3594,49
2020-11-16,46749,6310,40358,20341,6103,14226,49
2020-11-17,35514,4972,30429,17346,4655,12669,58
2020-11-18,26640,4341,22196,15970,4101,11852,59
2020-11-19,38965,4086,34770,15832,3861,11945,73
2020-11-20,31033,3774,27172,15031,3527,11486,59
2020-11-21,9437,1399,8012,5697,1295,4394,59
2020-11-22,8672,1248,7387,4575,1122,3444,46
2020-11-23,44717,4632,39892,17678,4384,13259,60
2020-11-24,28197,3225,24826,13054,3009,10010,36
2020-11-25,28454,2900,25489,10929,2715,8200,61
2020-11-26,5095,472,4593,1649,350,1291,62
2020-11-27,23109,2675,20358,8979,2517,6444,57
2020-11-28,7143,1194,5934,3851,1104,2745,57
2020-11-29,6762,1042,5600,3763,883,2831,52
2020-11-30,38597,4347,34085,15108,4123,10955,68
2020-12-01,27249,3070,24066,12293,2866,9404,56
2020-12-02,18607,2456,16070,10718,2308,8399,50
2020-12-03,29832,2404,27365,10355,2250,8095,51
2020-12-04,23024,2132,20836,10003,1978,8016,52
2020-12-05,6294,896,5385,3803,821,2981,42
2020-12-06,5917,695,5208,3468,609,2856,42
2020-12-07,36101,3193,32843,13764,2967,10783,35
2020-12-08,25057,2191,22803,10874,2034,8826,40
2020-12-09,16130,1860,14199,9303,1744,7549,34
2020-12-10,28455,1964,26430,9727,1834,7880,20
2020-12-11,20408,1734,18541,9155,1608,7530,24
2020-12-12,5244,566,4667,3156,515,2638,25
2020-12-13,5582,596,4959,3366,553,2811,11
2020-12-14,33418,2745,30539,13236,2600,10623,16
2020-12-15,23396,1863,21457,11255,1740,9501,3
2020-12-16,16233,1782,14388,9831,1647,8171,7
2020-12-17,27937,1675,26219,10290,1574,8707,5
2020-12-18,20870,1564,19263,10892,1464,9418,6
2020-12-19,6001,640,5347,3766,608,3155,4
2020-12-20,6143,596,5514,3835,530,3293,3
2020-12-21,36630,2566,33979,15115,2443,12662,4
2020-12-22,18736,1716,16980,11665,1575,10077,5
2020-12-23,20950,1388,19530,10449,1294,9145,3
2020-12-24,16242,981,15244,6602,897,5701,4
2020-12-25,2470,177,2292,1203,154,1049,1
2020-12-26,6933,947,5976,4972,896,4071,1
2020-12-27,6230,703,5514,4348,606,3740,1
2020-12-28,31886,2761,29046,19287,2619,16654,1
2020-12-29,11852,1351,10489,9086,1275,7809,1
2020-12-30,16186,1640,14525,14580,1569,13004,1
2020-12-31,12743,634,12108,11585,603,10982,0
2021-01-01,1680,111,1569,1566,101,1465,0
2021-01-02,30,1,29,28,1,27,0
